electrode_touching/12_kV.csv

Record Length,2500,Points,-15.5999987E-6,0.0,
Sample Interval,39.99999976E-9,s,-15.5599992E-6,0.0,
Trigger Point,389.99997069,Samples,-15.5199996E-6,0.0,
,,,-15.4799982E-6,0.0,
,,,-15.4399986E-6,-800.000011921E-3,
,,,-15.3999990E-6,0.0,
Source,MATH,,-15.3599995E-6,0.0,
Vertical Units,Volts,,-15.3199981E-6,0.0,
Vertical Scale,20.0000003,,-15.2799985E-6,0.0,
Vertical Offset,0,,-15.2399989E-6,0.0,
Horizontal Units,s,,-15.1999984E-6,0.0,
Horizontal Scale,9.999999939E-6,,-15.1599988E-6,0.0,
Pt Fmt,Y,,-15.1199984E-6,0.0,
Yzero,0.0,,-15.0799988E-6,0.0,
,,,-15.0399983E-6,0.0,
,,,-14.9999987E-6,0.0,
Note,TBS 1104 - 2:15:18 PM   2/3/2026,,-14.9599991E-6,0.0,
,,,-14.9199986E-6,0.0,
,,,-14.8799991E-6,0.0,
,,,-14.8399986E-6,-800.000011921E-3,
,,,-14.7999990E-6,0.0,
,,,-14.7599985E-6,0.0,
,,,-14.7199989E-6,0.0,
,,,-14.6799985E-6,0.0,
,,,-14.6399989E-6,0.0,
,,,-14.5999984E-6,-800.000011921E-3,
,,,-14.5599988E-6,0.0,
,,,-14.5199983E-6,0.0,
,,,-14.4799988E-6,0.0,
,,,-14.4399992E-6,-800.000011921E-3,
,,,-14.3999987E-6,0.0,
,,,-14.3599991E-6,0.0,
,,,-14.3199986E-6,0.0,
,,,-14.2799990E-6,0.0,
,,,-14.2399986E-6,0.0,
,,,-14.1999990E-6,0.0,
,,,-14.1599985E-6,-800.000011921E-3,
,,,-14.1199989E-6,0.0,
,,,-14.0799984E-6,0.0,
,,,-14.0399989E-6,0.0,
,,,-13.9999984E-6,-800.000011921E-3,
,,,-13.9599988E-6,0.0,
,,,-13.9199983E-6,0.0,
,,,-13.8799987E-6,0.0,
,,,-13.8399992E-6,-800.000011921E-3,
,,,-13.7999987E-6,0.0,
,,,-13.7599991E-6,0.0,
,,,-13.7199986E-6,0.0,
,,,-13.6799990E-6,0.0,
,,,-13.6399985E-6,0.0,
,,,-13.5999990E-6,-800.000011921E-3,
,,,-13.5599985E-6,0.0,
,,,-13.5199989E-6,0.0,
,,,-13.4799984E-6,0.0,
,,,-13.4399988E-6,0.0,
,,,-13.3999984E-6,-800.000011921E-3,
,,,-13.3599988E-6,0.0,
,,,-13.3199992E-6,0.0,
,,,-13.2799987E-6,0.0,
,,,-13.2399991E-6,0.0,
,,,-13.1999986E-6,0.0,
,,,-13.1599991E-6,0.0,
,,,-13.1199986E-6,0.0,
,,,-13.0799990E-6,-800.000011921E-3,
,,,-13.0399985E-6,0.0,
,,,-12.9999989E-6,0.0,
,,,-12.9599985E-6,0.0,
,,,-12.9199989E-6,0.0,
,,,-12.8799984E-6,0.0,
,,,-12.8399988E-6,0.0,
,,,-12.7999983E-6,0.0,
,,,-12.7599988E-6,-800.000011921E-3,
,,,-12.7199992E-6,0.0,
,,,-12.6799987E-6,0.0,
,,,-12.6399991E-6,0.0,
,,,-12.5999986E-6,0.0,
,,,-12.5599990E-6,0.0,
,,,-12.5199986E-6,0.0,
,,,-12.4799990E-6,0.0,
,,,-12.4399985E-6,0.0,
,,,-12.3999989E-6,0.0,
,,,-12.3599984E-6,0.0,
,,,-12.3199989E-6,0.0,
,,,-12.2799984E-6,0.0,
,,,-12.2399988E-6,0.0,
,,,-12.1999983E-6,0.0,
,,,-12.1599987E-6,0.0,
,,,-12.1199992E-6,0.0,
,,,-12.0799987E-6,0.0,
,,,-12.0399991E-6,-800.000011921E-3,
,,,-11.9999986E-6,0.0,
,,,-11.9599990E-6,0.0,
,,,-11.9199985E-6,0.0,
,,,-11.8799990E-6,0.0,
,,,-11.8399985E-6,-800.000011921E-3,
,,,-11.7999989E-6,0.0,
,,,-11.7599984E-6,-800.000011921E-3,
,,,-11.7199988E-6,0.0,
,,,-11.6799984E-6,0.0,
,,,-11.6399988E-6,0.0,
,,,-11.5999992E-6,0.0,
,,,-11.5599987E-6,0.0,
,,,-11.5199991E-6,0.0,
,,,-11.4799986E-6,0.0,
,,,-11.4399991E-6,0.0,
,,,-11.3999986E-6,0.0,
,,,-11.3599990E-6,0.0,
,,,-11.3199985E-6,0.0,
,,,-11.2799989E-6,-800.000011921E-3,
,,,-11.2399985E-6,0.0,
,,,-11.1999989E-6,0.0,
,,,-11.1599984E-6,0.0,
,,,-11.1199988E-6,0.0,
,,,-11.0799983E-6,0.0,
,,,-11.0399988E-6,0.0,
,,,-10.9999992E-6,0.0,
,,,-10.9599987E-6,0.0,
,,,-10.9199991E-6,0.0,
,,,-10.8799986E-6,0.0,
,,,-10.8399990E-6,0.0,
,,,-10.7999986E-6,0.0,
,,,-10.7599990E-6,0.0,
,,,-10.7199985E-6,0.0,
,,,-10.6799989E-6,0.0,
,,,-10.6399984E-6,0.0,
,,,-10.5999989E-6,0.0,
,,,-10.5599984E-6,0.0,
,,,-10.5199988E-6,0.0,
,,,-10.4799983E-6,0.0,
,,,-10.4399987E-6,0.0,
,,,-10.3999992E-6,0.0,
,,,-10.3599987E-6,0.0,
,,,-10.3199991E-6,0.0,
,,,-10.2799986E-6,0.0,
,,,-10.2399990E-6,0.0,
,,,-10.1999985E-6,0.0,
,,,-10.1599990E-6,0.0,
,,,-10.1199985E-6,0.0,
,,,-10.0799989E-6,0.0,
,,,-10.0399984E-6,0.0,
,,,-9.999998838E-6,0.0,
,,,-9.959998351E-6,0.0,
,,,-9.919998774E-6,-800.000011921E-3,
,,,-9.879999197E-6,-800.000011921E-3,
,,,-9.839998711E-6,-800.000011921E-3,
,,,-9.799999134E-6,0.0,
,,,-9.759998647E-6,0.0,
,,,-9.719999071E-6,0.0,
,,,-9.679998584E-6,-800.000011921E-3,
,,,-9.639999007E-6,0.0,
,,,-9.599998521E-6,0.0,
,,,-9.559998944E-6,0.0,
,,,-9.519998457E-6,0.0,
,,,-9.479998880E-6,-800.000011921E-3,
,,,-9.439998394E-6,0.0,
,,,-9.399998817E-6,0.0,
,,,-9.359998330E-6,0.0,
,,,-9.319998753E-6,0.0,
,,,-9.279999176E-6,0.0,
,,,-9.239998690E-6,0.0,
,,,-9.199999113E-6,0.0,
,,,-9.159998626E-6,-800.000011921E-3,
,,,-9.119999049E-6,0.0,
,,,-9.079998563E-6,0.0,
,,,-9.039998986E-6,0.0,
,,,-8.999998499E-6,0.0,
,,,-8.959998922E-6,-800.000011921E-3,
,,,-8.919998436E-6,0.0,
,,,-8.879998859E-6,0.0,
,,,-8.839998372E-6,0.0,
,,,-8.799998795E-6,-800.000011921E-3,
,,,-8.759999218E-6,0.0,
,,,-8.719998732E-6,0.0,
,,,-8.679999155E-6,0.0,
,,,-8.639998669E-6,0.0,
,,,-8.599999092E-6,0.0,
,,,-8.559998605E-6,0.0,
,,,-8.519999028E-6,0.0,
,,,-8.479998542E-6,800.000011921E-3,
,,,-8.439998965E-6,4.00000000,
,,,-8.399998478E-6,4.80000019,
,,,-8.359998901E-6,7.20000029,
,,,-8.319998415E-6,8.000000000,
,,,-8.279998838E-6,11.1999998,
,,,-8.239998351E-6,12.0000000,
,,,-8.199998774E-6,13.6000004,
,,,-8.159999197E-6,15.1999998,
,,,-8.119998711E-6,17.6000004,
,,,-8.079999134E-6,20.0000000,
,,,-8.039998647E-6,20.80000114,
,,,-7.999999070E-6,22.39999962,
,,,-7.959998584E-6,24.00000000,
,,,-7.919999007E-6,26.39999962,
,,,-7.879998520E-6,27.20000076,
,,,-7.839998943E-6,28.00000000,
,,,-7.799998457E-6,29.60000038,
,,,-7.759998880E-6,31.20000076,
,,,-7.719998393E-6,32.79999924,
,,,-7.679998816E-6,33.60000229,
,,,-7.639998330E-6,33.60000229,
,,,-7.599998753E-6,34.40000153,
,,,-7.559998721E-6,36.00000000,
,,,-7.519998690E-6,36.00000000,
,,,-7.479998658E-6,37.60000229,
,,,-7.439998626E-6,37.60000229,
,,,-7.399998594E-6,37.60000229,
,,,-7.35999856E-6,38.40000153,
,,,-7.31999899E-6,38.40000153,
,,,-7.27999895E-6,39.20000076,
,,,-7.23999892E-6,39.20000076,
,,,-7.19999889E-6,39.20000076,
,,,-7.15999886E-6,40.00000000,
,,,-7.11999883E-6,40.00000000,
,,,-7.07999880E-6,40.00000000,
,,,-7.03999876E-6,40.00000000,
,,,-6.99999873E-6,40.00000000,
,,,-6.95999870E-6,40.00000000,
,,,-6.91999867E-6,40.79999924,
,,,-6.87999864E-6,40.00000000,
,,,-6.83999860E-6,40.00000000,
,,,-6.79999857E-6,39.20000076,
,,,-6.75999900E-6,39.20000076,
,,,-6.71999896E-6,39.20000076,
,,,-6.67999893E-6,39.20000076,
,,,-6.63999890E-6,39.20000076,
,,,-6.59999887E-6,38.40000153,
,,,-6.55999884E-6,38.40000153,
,,,-6.51999881E-6,37.60000229,
,,,-6.47999877E-6,37.60000229,
,,,-6.43999874E-6,37.60000229,
,,,-6.39999871E-6,36.00000000,
,,,-6.35999868E-6,36.00000000,
,,,-6.31999865E-6,35.20000076,
,,,-6.27999862E-6,34.40000153,
,,,-6.23999858E-6,34.40000153,
,,,-6.19999901E-6,33.60000229,
,,,-6.15999897E-6,32.00000000,
,,,-6.11999894E-6,31.20000076,
,,,-6.07999891E-6,30.39999962,
,,,-6.03999888E-6,29.60000038,
,,,-5.99999885E-6,28.80000114,
,,,-5.95999882E-6,27.20000076,
,,,-5.91999878E-6,26.39999962,
,,,-5.87999875E-6,25.60000038,
,,,-5.83999872E-6,24.80000114,
,,,-5.79999869E-6,24.00000000,
,,,-5.75999866E-6,23.20000076,
,,,-5.71999863E-6,21.60000038,
,,,-5.67999859E-6,20.80000114,
,,,-5.63999902E-6,20.0000000,
,,,-5.59999899E-6,18.3999996,
,,,-5.55999895E-6,17.6000004,
,,,-5.51999892E-6,16.0000000,
,,,-5.47999889E-6,15.1999998,
,,,-5.43999886E-6,14.4000006,
,,,-5.39999883E-6,12.8000002,
,,,-5.35999880E-6,12.0000000,
,,,-5.31999876E-6,10.4000006,
,,,-5.27999873E-6,9.600000381,
,,,-5.23999870E-6,8.000000000,
,,,-5.19999867E-6,7.20000029,
,,,-5.15999864E-6,5.59999990,
,,,-5.11999860E-6,4.80000019,
,,,-5.07999857E-6,3.20000005,
,,,-5.03999900E-6,1.6000000,
,,,-4.99999896E-6,800.000011921E-3,
,,,-4.95999893E-6,-800.000011921E-3,
,,,-4.91999890E-6,-1.6000000,
,,,-4.87999887E-6,-2.4000001,
,,,-4.83999884E-6,-4.80000019,
,,,-4.79999881E-6,-5.59999990,
,,,-4.75999877E-6,-6.40000010,
,,,-4.71999874E-6,-8.000000000,
,,,-4.67999871E-6,-9.600000381,
,,,-4.63999868E-6,-10.4000006,
,,,-4.59999865E-6,-12.0000000,
,,,-4.55999862E-6,-12.8000002,
,,,-4.51999858E-6,-14.4000006,
,,,-4.47999901E-6,-15.1999998,
,,,-4.43999897E-6,-16.8000011,
,,,-4.39999894E-6,-17.6000004,
,,,-4.35999891E-6,-19.2000008,
,,,-4.31999888E-6,-20.0000000,
,,,-4.27999885E-6,-20.80000114,
,,,-4.23999882E-6,-22.39999962,
,,,-4.19999878E-6,-23.20000076,
,,,-4.15999875E-6,-24.00000000,
,,,-4.11999872E-6,-25.60000038,
,,,-4.07999869E-6,-26.39999962,
,,,-4.03999866E-6,-27.20000076,
,,,-3.99999863E-6,-28.80000114,
,,,-3.95999859E-6,-29.60000038,
,,,-3.91999902E-6,-30.39999962,
,,,-3.87999899E-6,-31.20000076,
,,,-3.83999895E-6,-32.79999924,
,,,-3.79999869E-6,-33.60000229,
,,,-3.75999889E-6,-34.40000153,
,,,-3.71999886E-6,-35.20000076,
,,,-3.67999883E-6,-36.00000000,
,,,-3.63999879E-6,-36.79999924,
,,,-3.59999876E-6,-37.60000229,
,,,-3.55999873E-6,-38.40000153,
,,,-3.51999870E-6,-39.20000076,
,,,-3.47999890E-6,-39.20000076,
,,,-3.43999886E-6,-40.79999924,
,,,-3.39999883E-6,-40.79999924,
,,,-3.35999880E-6,-41.60000229,
,,,-3.31999877E-6,-42.40000153,
,,,-3.27999874E-6,-43.20000076,
,,,-3.23999870E-6,-43.20000076,
,,,-3.19999890E-6,-44.00000000,
,,,-3.15999887E-6,-44.79999924,
,,,-3.11999884E-6,-44.79999924,
,,,-3.07999881E-6,-45.60000229,
,,,-3.03999877E-6,-45.60000229,
,,,-2.99999874E-6,-46.40000153,
,,,-2.95999871E-6,-46.40000153,
,,,-2.91999891E-6,-47.20000076,
,,,-2.87999887E-6,-47.20000076,
,,,-2.83999884E-6,-47.20000076,
,,,-2.79999881E-6,-48.00000000,
,,,-2.75999878E-6,-48.00000000,
,,,-2.71999875E-6,-48.00000000,
,,,-2.6799987E-6,-48.00000000,
,,,-2.6399989E-6,-48.00000000,
,,,-2.5999989E-6,-48.79999924,
,,,-2.5599988E-6,-48.79999924,
,,,-2.5199988E-6,-48.79999924,
,,,-2.4799988E-6,-48.79999924,
,,,-2.4399988E-6,-48.79999924,
,,,-2.3999987E-6,-48.00000000,
,,,-2.3599989E-6,-48.00000000,
,,,-2.3199989E-6,-48.79999924,
,,,-2.2799989E-6,-48.00000000,
,,,-2.2399988E-6,-48.00000000,
,,,-2.1999988E-6,-48.00000000,
,,,-2.1599988E-6,-47.20000076,
,,,-2.1199987E-6,-47.20000076,
,,,-2.0799989E-6,-47.20000076,
,,,-2.0399989E-6,-47.20000076,
,,,-1.9999989E-6,-46.40000153,
,,,-1.9599988E-6,-46.40000153,
,,,-1.9199988E-6,-46.40000153,
,,,-1.8799988E-6,-45.60000229,
,,,-1.8399988E-6,-44.79999924,
,,,-1.7999988E-6,-44.00000000,
,,,-1.7599988E-6,-44.00000000,
,,,-1.7199989E-6,-44.00000000,
,,,-1.6799988E-6,-43.20000076,
,,,-1.6399988E-6,-42.40000153,
,,,-1.5999988E-6,-41.60000229,
,,,-1.5599989E-6,-40.79999924,
,,,-1.5199988E-6,-40.00000000,
,,,-1.4799988E-6,-40.00000000,
,,,-1.4399989E-6,-39.20000076,
,,,-1.3999988E-6,-38.40000153,
,,,-1.3599988E-6,-37.60000229,
,,,-1.3199988E-6,-36.79999924,
,,,-1.2799989E-6,-36.00000000,
,,,-1.2399988E-6,-36.00000000,
,,,-1.1999988E-6,-34.40000153,
,,,-1.1599989E-6,-33.60000229,
,,,-1.1199988E-6,-32.79999924,
,,,-1.0799988E-6,-32.00000000,
,,,-1.0399988E-6,-31.20000076,
,,,-999.998860607E-9,-30.39999962,
,,,-959.998828876E-9,-29.60000038,
,,,-919.998797144E-9,-28.80000114,
,,,-879.998822256E-9,-28.00000000,
,,,-839.998847368E-9,-27.20000076,
,,,-799.998815637E-9,-26.39999962,
,,,-759.998840749E-9,-24.80000114,
,,,-719.998809018E-9,-24.00000000,
,,,-679.998834130E-9,-23.20000076,
,,,-639.998802399E-9,-22.39999962,
,,,-599.998827511E-9,-20.80000114,
,,,-559.998852623E-9,-20.0000000,
,,,-519.998820891E-9,-19.2000008,
,,,-479.998846004E-9,-18.3999996,
,,,-439.998814272E-9,-16.8000011,
,,,-399.99883938E-9,-16.0000000,
,,,-359.99883607E-9,-14.4000006,
,,,-319.99883277E-9,-13.6000004,
,,,-279.99882946E-9,-12.0000000,
,,,-239.99882615E-9,-11.1999998,
,,,-199.99882284E-9,-10.4000006,
,,,-159.99881953E-9,-8.800000191,
,,,-119.9988304E-9,-8.000000000,
,,,-79.998827118E-9,-6.40000010,
,,,-39.99882736E-9,-5.59999990,
,,,1.1723955E-12,-4.80000019,
,,,40.00117215E-9,-3.20000005,
,,,80.001171909E-9,-2.4000001,
,,,120.0011752E-9,-1.6000000,
,,,160.00117853E-9,-800.000011921E-3,
,,,200.00116763E-9,800.000011921E-3,
,,,240.00115673E-9,1.6000000,
,,,280.00116004E-9,2.4000001,
,,,320.00116335E-9,4.00000000,
,,,360.00116665E-9,4.80000019,
,,,400.00116996E-9,5.59999990,
,,,440.001173274E-9,6.40000010,
,,,480.001176584E-9,8.000000000,
,,,520.001151472E-9,8.800000191,
,,,560.001183203E-9,9.600000381,
,,,600.001158091E-9,10.4000006,
,,,640.001189822E-9,11.1999998,
,,,680.001164710E-9,12.8000002,
,,,720.001139598E-9,13.6000004,
,,,760.001171329E-9,14.4000006,
,,,800.001146217E-9,15.1999998,
,,,840.001177949E-9,16.0000000,
,,,880.001152836E-9,16.8000011,
,,,920.001184568E-9,18.3999996,
,,,960.001216299E-9,19.2000008,
,,,1.0000011E-6,20.0000000,
,,,1.0400012E-6,20.80000114,
,,,1.0800012E-6,21.60000038,
,,,1.1200011E-6,22.39999962,
,,,1.1600011E-6,23.20000076,
,,,1.2000012E-6,24.00000000,
,,,1.2400012E-6,24.00000000,
,,,1.2800011E-6,25.60000038,
,,,1.3200012E-6,25.60000038,
,,,1.3600012E-6,26.39999962,
,,,1.4000011E-6,26.39999962,
,,,1.4400011E-6,28.00000000,
,,,1.4800012E-6,28.00000000,
,,,1.5200012E-6,28.80000114,
,,,1.5600011E-6,29.60000038,
,,,1.6000012E-6,30.39999962,
,,,1.6400012E-6,30.39999962,
,,,1.6800011E-6,31.20000076,
,,,1.7200011E-6,32.00000000,
,,,1.7600012E-6,32.00000000,
,,,1.8000012E-6,32.00000000,
,,,1.8400011E-6,32.79999924,
,,,1.8800012E-6,32.79999924,
,,,1.9200011E-6,33.60000229,
,,,1.9600011E-6,34.40000153,
,,,2.0000011E-6,34.40000153,
,,,2.0400012E-6,34.40000153,
,,,2.0800012E-6,34.40000153,
,,,2.1200012E-6,34.40000153,
,,,2.1600013E-6,34.40000153,
,,,2.2000011E-6,35.20000076,
,,,2.2400011E-6,35.20000076,
,,,2.2800011E-6,35.20000076,
,,,2.3200012E-6,36.00000000,
,,,2.3600012E-6,35.20000076,
,,,2.4000012E-6,36.00000000,
,,,2.4400013E-6,35.20000076,
,,,2.4800011E-6,35.20000076,
,,,2.5200011E-6,36.00000000,
,,,2.5600011E-6,36.00000000,
,,,2.6000012E-6,36.00000000,
,,,2.6400012E-6,36.00000000,
,,,2.6800012E-6,36.00000000,
,,,2.72000125E-6,36.00000000,
,,,2.76000105E-6,35.20000076,
,,,2.80000108E-6,36.00000000,
,,,2.84000112E-6,35.20000076,
,,,2.88000115E-6,35.20000076,
,,,2.92000118E-6,34.40000153,
,,,2.96000121E-6,34.40000153,
,,,3.00000124E-6,34.40000153,
,,,3.04000105E-6,33.60000229,
,,,3.08000108E-6,33.60000229,
,,,3.12000111E-6,33.60000229,
,,,3.16000114E-6,32.79999924,
,,,3.20000117E-6,32.00000000,
,,,3.24000121E-6,32.00000000,
,,,3.28000124E-6,31.20000076,
,,,3.32000104E-6,31.20000076,
,,,3.36000107E-6,30.39999962,
,,,3.40000111E-6,30.39999962,
,,,3.44000114E-6,30.39999962,
,,,3.48000117E-6,29.60000038,
,,,3.52000120E-6,28.80000114,
,,,3.56000123E-6,28.00000000,
,,,3.60000104E-6,27.20000076,
,,,3.64000107E-6,27.20000076,
,,,3.68000110E-6,26.39999962,
,,,3.72000113E-6,26.39999962,
,,,3.76000116E-6,25.60000038,
,,,3.80000120E-6,24.80000114,
,,,3.84000123E-6,24.00000000,
,,,3.88000126E-6,24.00000000,
,,,3.92000129E-6,23.20000076,
,,,3.96000132E-6,22.39999962,
,,,4.00000135E-6,21.60000038,
,,,4.04000093E-6,20.80000114,
,,,4.08000096E-6,20.0000000,
,,,4.12000099E-6,19.2000008,
,,,4.16000103E-6,18.3999996,
,,,4.20000106E-6,18.3999996,
,,,4.24000109E-6,16.8000011,
,,,4.28000112E-6,16.8000011,
,,,4.32000115E-6,16.0000000,
,,,4.36000118E-6,15.1999998,
,,,4.40000122E-6,14.4000006,
,,,4.44000125E-6,12.8000002,
,,,4.48000128E-6,12.8000002,
,,,4.52000131E-6,12.0000000,
,,,4.56000134E-6,11.1999998,
,,,4.60000092E-6,10.4000006,
,,,4.64000095E-6,9.600000381,
,,,4.68000098E-6,8.800000191,
,,,4.72000102E-6,8.000000000,
,,,4.76000105E-6,7.20000029,
,,,4.80000108E-6,6.40000010,
,,,4.84000111E-6,5.59999990,
,,,4.88000114E-6,4.80000019,
,,,4.92000117E-6,4.00000000,
,,,4.96000121E-6,3.20000005,
,,,5.00000124E-6,2.4000001,
,,,5.04000127E-6,1.6000000,
,,,5.08000130E-6,800.000011921E-3,
,,,5.12000133E-6,0.0,
,,,5.16000136E-6,-800.000011921E-3,
,,,5.20000094E-6,-1.6000000,
,,,5.24000097E-6,-2.4000001,
,,,5.28000101E-6,-3.20000005,
,,,5.32000104E-6,-4.00000000,
,,,5.36000107E-6,-4.80000019,
,,,5.40000110E-6,-5.59999990,
,,,5.44000113E-6,-6.40000010,
,,,5.48000116E-6,-7.20000029,
,,,5.52000120E-6,-8.000000000,
,,,5.56000123E-6,-8.800000191,
,,,5.60000126E-6,-9.600000381,
,,,5.64000129E-6,-10.4000006,
,,,5.68000132E-6,-11.1999998,
,,,5.72000135E-6,-11.1999998,
,,,5.76000093E-6,-12.0000000,
,,,5.80000096E-6,-12.8000002,
,,,5.84000099E-6,-13.6000004,
,,,5.88000103E-6,-14.4000006,
,,,5.92000106E-6,-14.4000006,
,,,5.96000109E-6,-15.1999998,
,,,6.00000112E-6,-16.0000000,
,,,6.04000115E-6,-16.8000011,
,,,6.08000119E-6,-17.6000004,
,,,6.12000122E-6,-17.6000004,
,,,6.16000125E-6,-18.3999996,
,,,6.20000128E-6,-19.2000008,
,,,6.24000131E-6,-20.0000000,
,,,6.28000134E-6,-20.0000000,
,,,6.32000092E-6,-20.80000114,
,,,6.36000095E-6,-20.80000114,
,,,6.40000098E-6,-21.60000038,
,,,6.44000102E-6,-22.39999962,
,,,6.48000105E-6,-22.39999962,
,,,6.52000108E-6,-23.20000076,
,,,6.56000111E-6,-23.20000076,
,,,6.60000114E-6,-24.00000000,
,,,6.64000117E-6,-24.00000000,
,,,6.68000121E-6,-24.80000114,
,,,6.72000124E-6,-24.80000114,
,,,6.76000127E-6,-25.60000038,
,,,6.80000130E-6,-25.60000038,
,,,6.84000133E-6,-25.60000038,
,,,6.88000091E-6,-26.39999962,
,,,6.92000094E-6,-26.39999962,
,,,6.96000097E-6,-26.39999962,
,,,7.00000101E-6,-26.39999962,
,,,7.04000104E-6,-27.20000076,
,,,7.08000107E-6,-27.20000076,
,,,7.12000110E-6,-27.20000076,
,,,7.16000113E-6,-27.20000076,
,,,7.20000116E-6,-27.20000076,
,,,7.24000120E-6,-28.00000000,
,,,7.28000123E-6,-27.20000076,
,,,7.32000126E-6,-28.00000000,
,,,7.36000129E-6,-27.20000076,
,,,7.400001323E-6,-28.00000000,
,,,7.440001355E-6,-27.20000076,
,,,7.480000932E-6,-28.00000000,
,,,7.520000963E-6,-28.00000000,
,,,7.560000995E-6,-27.20000076,
,,,7.600001027E-6,-28.00000000,
,,,7.640001058E-6,-27.20000076,
,,,7.680001545E-6,-27.20000076,
,,,7.720001122E-6,-27.20000076,
,,,7.760000699E-6,-27.20000076,
,,,7.800001185E-6,-27.20000076,
,,,7.840000762E-6,-27.20000076,
,,,7.880001249E-6,-27.20000076,
,,,7.920000826E-6,-26.39999962,
,,,7.960001312E-6,-26.39999962,
,,,8.000000889E-6,-26.39999962,
,,,8.040001376E-6,-25.60000038,
,,,8.080000953E-6,-25.60000038,
,,,8.120001439E-6,-25.60000038,
,,,8.160001016E-6,-25.60000038,
,,,8.200001503E-6,-24.80000114,
,,,8.240001080E-6,-24.80000114,
,,,8.280001566E-6,-24.00000000,
,,,8.320001143E-6,-24.00000000,
,,,8.360000720E-6,-24.00000000,
,,,8.400001207E-6,-23.20000076,
,,,8.440000784E-6,-22.39999962,
,,,8.480001270E-6,-22.39999962,
,,,8.520000847E-6,-22.39999962,
,,,8.560001334E-6,-21.60000038,
,,,8.600000911E-6,-21.60000038,
,,,8.640001397E-6,-20.80000114,
,,,8.680000974E-6,-20.0000000,
,,,8.720001460E-6,-20.0000000,
,,,8.760001037E-6,-19.2000008,
,,,8.800001524E-6,-19.2000008,
,,,8.840001101E-6,-18.3999996,
,,,8.880000678E-6,-17.6000004,
,,,8.920001164E-6,-17.6000004,
,,,8.960000741E-6,-16.8000011,
,,,9.000001228E-6,-16.8000011,
,,,9.040000805E-6,-16.0000000,
,,,9.080001291E-6,-15.1999998,
,,,9.120000868E-6,-14.4000006,
,,,9.160001355E-6,-14.4000006,
,,,9.200000932E-6,-13.6000004,
,,,9.240001418E-6,-13.6000004,
,,,9.280000995E-6,-12.8000002,
,,,9.320001482E-6,-12.0000000,
,,,9.360001059E-6,-11.1999998,
,,,9.400001545E-6,-10.4000006,
,,,9.440001122E-6,-10.4000006,
,,,9.480000699E-6,-9.600000381,
,,,9.520001186E-6,-8.800000191,
,,,9.560000763E-6,-8.000000000,
,,,9.600001249E-6,-8.000000000,
,,,9.640000826E-6,-7.20000029,
,,,9.680001313E-6,-7.20000029,
,,,9.720000890E-6,-6.40000010,
,,,9.760001376E-6,-5.59999990,
,,,9.800000953E-6,-4.80000019,
,,,9.840001439E-6,-4.80000019,
,,,9.880001016E-6,-4.00000000,
,,,9.920001503E-6,-3.20000005,
,,,9.960001080E-6,-2.4000001,
,,,10.0000016E-6,-1.6000000,
,,,10.0400011E-6,-1.6000000,
,,,10.0800007E-6,-800.000011921E-3,
,,,10.1200012E-6,0.0,
,,,10.1600008E-6,800.000011921E-3,
,,,10.2000013E-6,1.6000000,
,,,10.2400008E-6,1.6000000,
,,,10.2800013E-6,2.4000001,
,,,10.3200009E-6,3.20000005,
,,,10.3600014E-6,4.00000000,
,,,10.4000010E-6,4.80000019,
,,,10.4400015E-6,4.80000019,
,,,10.4800010E-6,5.59999990,
,,,10.5200015E-6,6.40000010,
,,,10.5600011E-6,7.20000029,
,,,10.6000007E-6,7.20000029,
,,,10.6400012E-6,8.000000000,
,,,10.6800007E-6,8.000000000,
,,,10.7200012E-6,8.800000191,
,,,10.7600008E-6,8.800000191,
,,,10.8000013E-6,9.600000381,
,,,10.8400009E-6,10.4000006,
,,,10.8800014E-6,10.4000006,
,,,10.9200009E-6,11.1999998,
,,,10.9600014E-6,11.1999998,
,,,11.0000010E-6,12.0000000,
,,,11.0400015E-6,12.8000002,
,,,11.0800011E-6,12.8000002,
,,,11.1200015E-6,13.6000004,
,,,11.1600011E-6,13.6000004,
,,,11.2000007E-6,14.4000006,
,,,11.2400012E-6,14.4000006,
,,,11.2800008E-6,15.1999998,
