electrode_touching/7_5_kV_O1.csv

Record Length,2500,Points,-16.7999988E-6,8.000000380E-3,,Record Length,2500,Points,-16.7999988E-6,0.0,,Record Length,2500,Points,-16.7999988E-6,0.0,
Sample Interval,39.99999976E-9,s,-16.7599992E-6,8.000000380E-3,,Sample Interval,39.99999976E-9,s,-16.7599992E-6,0.0,,Sample Interval,39.99999976E-9,s,-16.7599992E-6,0.0,
Trigger Point,419.999971934,Samples,-16.7199996E-6,8.000000380E-3,,Trigger Point,419.999971934,Samples,-16.7199996E-6,0.0,,Trigger Point,419.999971934,Samples,-16.7199996E-6,0.0,
,,,-16.6799982E-6,8.000000380E-3,,,,,-16.6799982E-6,0.0,,,,,-16.6799982E-6,0.0,
,,,-16.6399986E-6,16.0000008E-3,,,,,-16.6399986E-6,0.0,,,,,-16.6399986E-6,-800.000011921E-3,
,,,-16.5999991E-6,0.0,,,,,-16.5999991E-6,8.000000380E-3,,,,,-16.5999991E-6,0.0,
Source,CH1,,-16.5599995E-6,0.0,,Source,CH2,,-16.5599995E-6,0.0,,Source,MATH,,-16.5599995E-6,0.0,
Vertical Units,Volts,,-16.5199981E-6,8.000000380E-3,,Vertical Units,Volts,,-16.5199981E-6,0.0,,Vertical Units,Volts,,-16.5199981E-6,0.0,
Vertical Scale,200.00000950E-3,,-16.4799985E-6,8.000000380E-3,,Vertical Scale,200.00000950E-3,,-16.4799985E-6,0.0,,Vertical Scale,20.0000003,,-16.4799985E-6,-800.000011921E-3,
Vertical Offset,0,,-16.4399989E-6,16.0000008E-3,,Vertical Offset,0,,-16.4399989E-6,0.0,,Vertical Offset,0,,-16.4399989E-6,0.0,
Horizontal Units,s,,-16.3999994E-6,8.000000380E-3,,Horizontal Units,s,,-16.3999994E-6,0.0,,Horizontal Units,s,,-16.3999994E-6,-800.000011921E-3,
Horizontal Scale,9.999999939E-6,,-16.3599980E-6,0.0,,Horizontal Scale,9.999999939E-6,,-16.3599980E-6,0.0,,Horizontal Scale,9.999999939E-6,,-16.3599980E-6,0.0,
Pt Fmt,Y,,-16.3199984E-6,0.0,,Pt Fmt,Y,,-16.3199984E-6,0.0,,Pt Fmt,Y,,-16.3199984E-6,0.0,
Yzero,-1.7200000,,-16.2799988E-6,0.0,,Yzero,880.000000000E-3,,-16.2799988E-6,0.0,,Yzero,0.0,,-16.2799988E-6,-800.000011921E-3,
Probe Atten,1.000000,,-16.2399992E-6,8.000000380E-3,,Probe Atten,1.000000,,-16.2399992E-6,0.0,,,,,-16.2399992E-6,0.0,
,,,-16.1999997E-6,0.0,,,,,-16.1999997E-6,-8.000000380E-3,,,,,-16.1999997E-6,-800.000011921E-3,
Note,TBS 1104 - 2:31:18 PM   2/3/2026,,-16.1599983E-6,8.000000380E-3,,Note,TBS 1104 - 2:31:18 PM   2/3/2026,,-16.1599983E-6,0.0,,Note,TBS 1104 - 2:31:18 PM   2/3/2026,,-16.1599983E-6,0.0,
,,,-16.1199987E-6,8.000000380E-3,,,,,-16.1199987E-6,-8.000000380E-3,,,,,-16.1199987E-6,0.0,
,,,-16.0799991E-6,0.0,,,,,-16.0799991E-6,0.0,,,,,-16.0799991E-6,0.0,
,,,-16.0399995E-6,0.0,,,,,-16.0399995E-6,0.0,,,,,-16.0399995E-6,0.0,
,,,-15.9999981E-6,8.000000380E-3,,,,,-15.9999981E-6,0.0,,,,,-15.9999981E-6,-800.000011921E-3,
,,,-15.9599986E-6,8.000000380E-3,,,,,-15.9599986E-6,-8.000000380E-3,,,,,-15.9599986E-6,0.0,
,,,-15.9199990E-6,0.0,,,,,-15.9199990E-6,-8.000000380E-3,,,,,-15.9199990E-6,0.0,
,,,-15.8799994E-6,0.0,,,,,-15.8799994E-6,0.0,,,,,-15.8799994E-6,0.0,
,,,-15.8399980E-6,8.000000380E-3,,,,,-15.8399980E-6,0.0,,,,,-15.8399980E-6,0.0,
,,,-15.7999984E-6,8.000000380E-3,,,,,-15.7999984E-6,0.0,,,,,-15.7999984E-6,0.0,
,,,-15.7599989E-6,8.000000380E-3,,,,,-15.7599989E-6,0.0,,,,,-15.7599989E-6,-800.000011921E-3,
,,,-15.7199993E-6,8.000000380E-3,,,,,-15.7199993E-6,0.0,,,,,-15.7199993E-6,-800.000011921E-3,
,,,-15.6799979E-6,8.000000380E-3,,,,,-15.6799979E-6,0.0,,,,,-15.6799979E-6,0.0,
,,,-15.6399983E-6,8.000000380E-3,,,,,-15.6399983E-6,0.0,,,,,-15.6399983E-6,0.0,
,,,-15.5999987E-6,8.000000380E-3,,,,,-15.5999987E-6,8.000000380E-3,,,,,-15.5999987E-6,-800.000011921E-3,
,,,-15.5599992E-6,0.0,,,,,-15.5599992E-6,-8.000000380E-3,,,,,-15.5599992E-6,0.0,
,,,-15.5199996E-6,0.0,,,,,-15.5199996E-6,-8.000000380E-3,,,,,-15.5199996E-6,0.0,
,,,-15.4799982E-6,8.000000380E-3,,,,,-15.4799982E-6,0.0,,,,,-15.4799982E-6,0.0,
,,,-15.4399986E-6,8.000000380E-3,,,,,-15.4399986E-6,0.0,,,,,-15.4399986E-6,0.0,
,,,-15.3999990E-6,8.000000380E-3,,,,,-15.3999990E-6,0.0,,,,,-15.3999990E-6,0.0,
,,,-15.3599995E-6,8.000000380E-3,,,,,-15.3599995E-6,8.000000380E-3,,,,,-15.3599995E-6,0.0,
,,,-15.3199981E-6,0.0,,,,,-15.3199981E-6,0.0,,,,,-15.3199981E-6,0.0,
,,,-15.2799985E-6,0.0,,,,,-15.2799985E-6,-8.000000380E-3,,,,,-15.2799985E-6,0.0,
,,,-15.2399989E-6,0.0,,,,,-15.2399989E-6,0.0,,,,,-15.2399989E-6,0.0,
,,,-15.1999984E-6,8.000000380E-3,,,,,-15.1999984E-6,-8.000000380E-3,,,,,-15.1999984E-6,0.0,
,,,-15.1599988E-6,8.000000380E-3,,,,,-15.1599988E-6,-8.000000380E-3,,,,,-15.1599988E-6,0.0,
,,,-15.1199984E-6,8.000000380E-3,,,,,-15.1199984E-6,0.0,,,,,-15.1199984E-6,0.0,
,,,-15.0799988E-6,0.0,,,,,-15.0799988E-6,0.0,,,,,-15.0799988E-6,0.0,
,,,-15.0399992E-6,8.000000380E-3,,,,,-15.0399992E-6,0.0,,,,,-15.0399992E-6,0.0,
,,,-14.9999987E-6,16.0000008E-3,,,,,-14.9999987E-6,0.0,,,,,-14.9999987E-6,0.0,
,,,-14.9599991E-6,0.0,,,,,-14.9599991E-6,-8.000000380E-3,,,,,-14.9599991E-6,0.0,
,,,-14.9199986E-6,0.0,,,,,-14.9199986E-6,8.000000380E-3,,,,,-14.9199986E-6,0.0,
,,,-14.8799991E-6,8.000000380E-3,,,,,-14.8799991E-6,8.000000380E-3,,,,,-14.8799991E-6,-800.000011921E-3,
,,,-14.8399986E-6,8.000000380E-3,,,,,-14.8399986E-6,0.0,,,,,-14.8399986E-6,0.0,
,,,-14.7999990E-6,8.000000380E-3,,,,,-14.7999990E-6,0.0,,,,,-14.7999990E-6,0.0,
,,,-14.7599985E-6,8.000000380E-3,,,,,-14.7599985E-6,0.0,,,,,-14.7599985E-6,0.0,
,,,-14.7199989E-6,8.000000380E-3,,,,,-14.7199989E-6,8.000000380E-3,,,,,-14.7199989E-6,0.0,
,,,-14.6799985E-6,8.000000380E-3,,,,,-14.6799985E-6,0.0,,,,,-14.6799985E-6,-800.000011921E-3,
,,,-14.6399989E-6,8.000000380E-3,,,,,-14.6399989E-6,0.0,,,,,-14.6399989E-6,-800.000011921E-3,
,,,-14.5999984E-6,8.000000380E-3,,,,,-14.5999984E-6,0.0,,,,,-14.5999984E-6,-800.000011921E-3,
,,,-14.5599988E-6,8.000000380E-3,,,,,-14.5599988E-6,-8.000000380E-3,,,,,-14.5599988E-6,0.0,
,,,-14.5199992E-6,0.0,,,,,-14.5199992E-6,-8.000000380E-3,,,,,-14.5199992E-6,0.0,
,,,-14.4799988E-6,8.000000380E-3,,,,,-14.4799988E-6,0.0,,,,,-14.4799988E-6,0.0,
,,,-14.4399992E-6,8.000000380E-3,,,,,-14.4399992E-6,0.0,,,,,-14.4399992E-6,0.0,
,,,-14.3999987E-6,8.000000380E-3,,,,,-14.3999987E-6,0.0,,,,,-14.3999987E-6,0.0,
,,,-14.3599991E-6,8.000000380E-3,,,,,-14.3599991E-6,0.0,,,,,-14.3599991E-6,0.0,
,,,-14.3199986E-6,0.0,,,,,-14.3199986E-6,0.0,,,,,-14.3199986E-6,0.0,
,,,-14.2799990E-6,8.000000380E-3,,,,,-14.2799990E-6,0.0,,,,,-14.2799990E-6,0.0,
,,,-14.2399986E-6,8.000000380E-3,,,,,-14.2399986E-6,8.000000380E-3,,,,,-14.2399986E-6,0.0,
,,,-14.1999990E-6,8.000000380E-3,,,,,-14.1999990E-6,-8.000000380E-3,,,,,-14.1999990E-6,0.0,
,,,-14.1599985E-6,8.000000380E-3,,,,,-14.1599985E-6,0.0,,,,,-14.1599985E-6,0.0,
,,,-14.1199989E-6,0.0,,,,,-14.1199989E-6,-8.000000380E-3,,,,,-14.1199989E-6,0.0,
,,,-14.0799984E-6,8.000000380E-3,,,,,-14.0799984E-6,0.0,,,,,-14.0799984E-6,0.0,
,,,-14.0399989E-6,8.000000380E-3,,,,,-14.0399989E-6,8.000000380E-3,,,,,-14.0399989E-6,-800.000011921E-3,
,,,-13.9999984E-6,8.000000380E-3,,,,,-13.9999984E-6,0.0,,,,,-13.9999984E-6,0.0,
,,,-13.9599988E-6,0.0,,,,,-13.9599988E-6,0.0,,,,,-13.9599988E-6,0.0,
,,,-13.9199992E-6,0.0,,,,,-13.9199992E-6,-8.000000380E-3,,,,,-13.9199992E-6,0.0,
,,,-13.8799987E-6,0.0,,,,,-13.8799987E-6,0.0,,,,,-13.8799987E-6,0.0,
,,,-13.8399992E-6,0.0,,,,,-13.8399992E-6,0.0,,,,,-13.8399992E-6,0.0,
,,,-13.7999987E-6,0.0,,,,,-13.7999987E-6,0.0,,,,,-13.7999987E-6,0.0,
,,,-13.7599991E-6,8.000000380E-3,,,,,-13.7599991E-6,0.0,,,,,-13.7599991E-6,0.0,
,,,-13.7199986E-6,8.000000380E-3,,,,,-13.7199986E-6,0.0,,,,,-13.7199986E-6,0.0,
,,,-13.6799990E-6,16.0000008E-3,,,,,-13.6799990E-6,0.0,,,,,-13.6799990E-6,0.0,
,,,-13.6399985E-6,8.000000380E-3,,,,,-13.6399985E-6,8.000000380E-3,,,,,-13.6399985E-6,0.0,
,,,-13.5999990E-6,8.000000380E-3,,,,,-13.5999990E-6,0.0,,,,,-13.5999990E-6,0.0,
,,,-13.5599985E-6,8.000000380E-3,,,,,-13.5599985E-6,0.0,,,,,-13.5599985E-6,0.0,
,,,-13.5199989E-6,8.000000380E-3,,,,,-13.5199989E-6,0.0,,,,,-13.5199989E-6,0.0,
,,,-13.4799984E-6,0.0,,,,,-13.4799984E-6,0.0,,,,,-13.4799984E-6,0.0,
,,,-13.4399988E-6,0.0,,,,,-13.4399988E-6,0.0,,,,,-13.4399988E-6,0.0,
,,,-13.3999984E-6,8.000000380E-3,,,,,-13.3999984E-6,8.000000380E-3,,,,,-13.3999984E-6,0.0,
,,,-13.3599988E-6,8.000000380E-3,,,,,-13.3599988E-6,0.0,,,,,-13.3599988E-6,0.0,
,,,-13.3199992E-6,16.0000008E-3,,,,,-13.3199992E-6,0.0,,,,,-13.3199992E-6,0.0,
,,,-13.2799987E-6,-8.000000380E-3,,,,,-13.2799987E-6,0.0,,,,,-13.2799987E-6,0.0,
,,,-13.2399991E-6,8.000000380E-3,,,,,-13.2399991E-6,0.0,,,,,-13.2399991E-6,0.0,
,,,-13.1999986E-6,8.000000380E-3,,,,,-13.1999986E-6,0.0,,,,,-13.1999986E-6,-800.000011921E-3,
,,,-13.1599991E-6,0.0,,,,,-13.1599991E-6,-8.000000380E-3,,,,,-13.1599991E-6,-800.000011921E-3,
,,,-13.1199986E-6,0.0,,,,,-13.1199986E-6,0.0,,,,,-13.1199986E-6,0.0,
,,,-13.0799990E-6,8.000000380E-3,,,,,-13.0799990E-6,0.0,,,,,-13.0799990E-6,0.0,
,,,-13.0399985E-6,8.000000380E-3,,,,,-13.0399985E-6,0.0,,,,,-13.0399985E-6,0.0,
,,,-12.9999989E-6,8.000000380E-3,,,,,-12.9999989E-6,0.0,,,,,-12.9999989E-6,-800.000011921E-3,
,,,-12.9599985E-6,0.0,,,,,-12.9599985E-6,0.0,,,,,-12.9599985E-6,0.0,
,,,-12.9199989E-6,0.0,,,,,-12.9199989E-6,0.0,,,,,-12.9199989E-6,0.0,
,,,-12.8799984E-6,0.0,,,,,-12.8799984E-6,0.0,,,,,-12.8799984E-6,0.0,
,,,-12.8399988E-6,8.000000380E-3,,,,,-12.8399988E-6,0.0,,,,,-12.8399988E-6,0.0,
,,,-12.7999992E-6,0.0,,,,,-12.7999992E-6,0.0,,,,,-12.7999992E-6,0.0,
,,,-12.7599988E-6,16.0000008E-3,,,,,-12.7599988E-6,0.0,,,,,-12.7599988E-6,0.0,
,,,-12.7199992E-6,0.0,,,,,-12.7199992E-6,0.0,,,,,-12.7199992E-6,0.0,
,,,-12.6799987E-6,0.0,,,,,-12.6799987E-6,0.0,,,,,-12.6799987E-6,-800.000011921E-3,
,,,-12.6399991E-6,8.000000380E-3,,,,,-12.6399991E-6,8.000000380E-3,,,,,-12.6399991E-6,0.0,
,,,-12.5999986E-6,0.0,,,,,-12.5999986E-6,8.000000380E-3,,,,,-12.5999986E-6,0.0,
,,,-12.5599990E-6,0.0,,,,,-12.5599990E-6,-8.000000380E-3,,,,,-12.5599990E-6,0.0,
,,,-12.5199986E-6,8.000000380E-3,,,,,-12.5199986E-6,0.0,,,,,-12.5199986E-6,-800.000011921E-3,
,,,-12.4799990E-6,8.000000380E-3,,,,,-12.4799990E-6,0.0,,,,,-12.4799990E-6,0.0,
,,,-12.4399985E-6,8.000000380E-3,,,,,-12.4399985E-6,-8.000000380E-3,,,,,-12.4399985E-6,0.0,
,,,-12.3999989E-6,0.0,,,,,-12.3999989E-6,-8.000000380E-3,,,,,-12.3999989E-6,0.0,
,,,-12.3599984E-6,0.0,,,,,-12.3599984E-6,8.000000380E-3,,,,,-12.3599984E-6,0.0,
,,,-12.3199989E-6,8.000000380E-3,,,,,-12.3199989E-6,0.0,,,,,-12.3199989E-6,0.0,
,,,-12.2799984E-6,0.0,,,,,-12.2799984E-6,0.0,,,,,-12.2799984E-6,-800.000011921E-3,
,,,-12.2399988E-6,8.000000380E-3,,,,,-12.2399988E-6,0.0,,,,,-12.2399988E-6,0.0,
,,,-12.1999992E-6,0.0,,,,,-12.1999992E-6,0.0,,,,,-12.1999992E-6,0.0,
,,,-12.1599987E-6,8.000000380E-3,,,,,-12.1599987E-6,0.0,,,,,-12.1599987E-6,-800.000011921E-3,
,,,-12.1199992E-6,0.0,,,,,-12.1199992E-6,0.0,,,,,-12.1199992E-6,0.0,
,,,-12.0799987E-6,0.0,,,,,-12.0799987E-6,8.000000380E-3,,,,,-12.0799987E-6,0.0,
,,,-12.0399991E-6,0.0,,,,,-12.0399991E-6,-8.000000380E-3,,,,,-12.0399991E-6,0.0,
,,,-11.9999986E-6,8.000000380E-3,,,,,-11.9999986E-6,0.0,,,,,-11.9999986E-6,0.0,
,,,-11.9599990E-6,8.000000380E-3,,,,,-11.9599990E-6,-8.000000380E-3,,,,,-11.9599990E-6,0.0,
,,,-11.9199985E-6,8.000000380E-3,,,,,-11.9199985E-6,0.0,,,,,-11.9199985E-6,0.0,
,,,-11.8799990E-6,0.0,,,,,-11.8799990E-6,0.0,,,,,-11.8799990E-6,0.0,
,,,-11.8399985E-6,8.000000380E-3,,,,,-11.8399985E-6,8.000000380E-3,,,,,-11.8399985E-6,0.0,
,,,-11.7999989E-6,8.000000380E-3,,,,,-11.7999989E-6,0.0,,,,,-11.7999989E-6,0.0,
,,,-11.7599984E-6,0.0,,,,,-11.7599984E-6,8.000000380E-3,,,,,-11.7599984E-6,0.0,
,,,-11.7199988E-6,8.000000380E-3,,,,,-11.7199988E-6,0.0,,,,,-11.7199988E-6,0.0,
,,,-11.6799984E-6,16.0000008E-3,,,,,-11.6799984E-6,8.000000380E-3,,,,,-11.6799984E-6,-800.000011921E-3,
,,,-11.6399988E-6,8.000000380E-3,,,,,-11.6399988E-6,0.0,,,,,-11.6399988E-6,0.0,
,,,-11.5999992E-6,8.000000380E-3,,,,,-11.5999992E-6,0.0,,,,,-11.5999992E-6,0.0,
,,,-11.5599987E-6,8.000000380E-3,,,,,-11.5599987E-6,-8.000000380E-3,,,,,-11.5599987E-6,0.0,
,,,-11.5199991E-6,8.000000380E-3,,,,,-11.5199991E-6,0.0,,,,,-11.5199991E-6,0.0,
,,,-11.4799986E-6,8.000000380E-3,,,,,-11.4799986E-6,0.0,,,,,-11.4799986E-6,0.0,
,,,-11.4399991E-6,8.000000380E-3,,,,,-11.4399991E-6,0.0,,,,,-11.4399991E-6,-800.000011921E-3,
,,,-11.3999986E-6,8.000000380E-3,,,,,-11.3999986E-6,0.0,,,,,-11.3999986E-6,0.0,
,,,-11.3599990E-6,0.0,,,,,-11.3599990E-6,0.0,,,,,-11.3599990E-6,0.0,
,,,-11.3199985E-6,8.000000380E-3,,,,,-11.3199985E-6,-8.000000380E-3,,,,,-11.3199985E-6,0.0,
,,,-11.2799989E-6,0.0,,,,,-11.2799989E-6,0.0,,,,,-11.2799989E-6,0.0,
,,,-11.2399985E-6,0.0,,,,,-11.2399985E-6,0.0,,,,,-11.2399985E-6,0.0,
,,,-11.1999989E-6,8.000000380E-3,,,,,-11.1999989E-6,-8.000000380E-3,,,,,-11.1999989E-6,0.0,
,,,-11.1599984E-6,8.000000380E-3,,,,,-11.1599984E-6,0.0,,,,,-11.1599984E-6,0.0,
,,,-11.1199988E-6,8.000000380E-3,,,,,-11.1199988E-6,0.0,,,,,-11.1199988E-6,0.0,
,,,-11.0799992E-6,16.0000008E-3,,,,,-11.0799992E-6,0.0,,,,,-11.0799992E-6,0.0,
,,,-11.0399988E-6,8.000000380E-3,,,,,-11.0399988E-6,8.000000380E-3,,,,,-11.0399988E-6,0.0,
,,,-10.9999992E-6,8.000000380E-3,,,,,-10.9999992E-6,0.0,,,,,-10.9999992E-6,0.0,
,,,-10.9599987E-6,8.000000380E-3,,,,,-10.9599987E-6,8.000000380E-3,,,,,-10.9599987E-6,0.0,
,,,-10.9199991E-6,8.000000380E-3,,,,,-10.9199991E-6,-8.000000380E-3,,,,,-10.9199991E-6,0.0,
,,,-10.8799986E-6,8.000000380E-3,,,,,-10.8799986E-6,-8.000000380E-3,,,,,-10.8799986E-6,0.0,
,,,-10.8399990E-6,0.0,,,,,-10.8399990E-6,0.0,,,,,-10.8399990E-6,0.0,
,,,-10.7999986E-6,0.0,,,,,-10.7999986E-6,0.0,,,,,-10.7999986E-6,0.0,
,,,-10.7599990E-6,8.000000380E-3,,,,,-10.7599990E-6,8.000000380E-3,,,,,-10.7599990E-6,-800.000011921E-3,
,,,-10.7199985E-6,8.000000380E-3,,,,,-10.7199985E-6,-8.000000380E-3,,,,,-10.7199985E-6,0.0,
,,,-10.6799989E-6,8.000000380E-3,,,,,-10.6799989E-6,0.0,,,,,-10.6799989E-6,-800.000011921E-3,
,,,-10.6399984E-6,0.0,,,,,-10.6399984E-6,0.0,,,,,-10.6399984E-6,0.0,
,,,-10.5999989E-6,16.0000008E-3,,,,,-10.5999989E-6,0.0,,,,,-10.5999989E-6,0.0,
,,,-10.5599984E-6,0.0,,,,,-10.5599984E-6,0.0,,,,,-10.5599984E-6,0.0,
,,,-10.5199988E-6,8.000000380E-3,,,,,-10.5199988E-6,0.0,,,,,-10.5199988E-6,0.0,
,,,-10.4799992E-6,8.000000380E-3,,,,,-10.4799992E-6,8.000000380E-3,,,,,-10.4799992E-6,0.0,
,,,-10.4399987E-6,0.0,,,,,-10.4399987E-6,0.0,,,,,-10.4399987E-6,0.0,
,,,-10.3999992E-6,8.000000380E-3,,,,,-10.3999992E-6,0.0,,,,,-10.3999992E-6,0.0,
,,,-10.3599987E-6,0.0,,,,,-10.3599987E-6,0.0,,,,,-10.3599987E-6,0.0,
,,,-10.3199991E-6,8.000000380E-3,,,,,-10.3199991E-6,0.0,,,,,-10.3199991E-6,0.0,
,,,-10.2799986E-6,0.0,,,,,-10.2799986E-6,0.0,,,,,-10.2799986E-6,0.0,
,,,-10.2399990E-6,0.0,,,,,-10.2399990E-6,0.0,,,,,-10.2399990E-6,0.0,
,,,-10.1999985E-6,8.000000380E-3,,,,,-10.1999985E-6,0.0,,,,,-10.1999985E-6,0.0,
,,,-10.1599990E-6,16.0000008E-3,,,,,-10.1599990E-6,-8.000000380E-3,,,,,-10.1599990E-6,0.0,
,,,-10.1199985E-6,8.000000380E-3,,,,,-10.1199985E-6,-8.000000380E-3,,,,,-10.1199985E-6,0.0,
,,,-10.0799989E-6,0.0,,,,,-10.0799989E-6,8.000000380E-3,,,,,-10.0799989E-6,0.0,
,,,-10.0399984E-6,16.0000008E-3,,,,,-10.0399984E-6,8.000000380E-3,,,,,-10.0399984E-6,0.0,
,,,-9.999998838E-6,8.000000380E-3,,,,,-9.999998838E-6,0.0,,,,,-9.999998838E-6,0.0,
,,,-9.959999261E-6,0.0,,,,,-9.959999261E-6,-8.000000380E-3,,,,,-9.959999261E-6,0.0,
,,,-9.919998774E-6,8.000000380E-3,,,,,-9.919998774E-6,0.0,,,,,-9.919998774E-6,0.0,
,,,-9.879999197E-6,8.000000380E-3,,,,,-9.879999197E-6,0.0,,,,,-9.879999197E-6,0.0,
,,,-9.839998711E-6,8.000000380E-3,,,,,-9.839998711E-6,0.0,,,,,-9.839998711E-6,0.0,
,,,-9.799999134E-6,0.0,,,,,-9.799999134E-6,0.0,,,,,-9.799999134E-6,0.0,
,,,-9.759998647E-6,8.000000380E-3,,,,,-9.759998647E-6,0.0,,,,,-9.759998647E-6,0.0,
,,,-9.719999071E-6,8.000000380E-3,,,,,-9.719999071E-6,0.0,,,,,-9.719999071E-6,0.0,
,,,-9.679998584E-6,8.000000380E-3,,,,,-9.679998584E-6,0.0,,,,,-9.679998584E-6,0.0,
,,,-9.639999007E-6,8.000000380E-3,,,,,-9.639999007E-6,0.0,,,,,-9.639999007E-6,0.0,
,,,-9.599998521E-6,8.000000380E-3,,,,,-9.599998521E-6,0.0,,,,,-9.599998521E-6,0.0,
,,,-9.559998944E-6,16.0000008E-3,,,,,-9.559998944E-6,8.000000380E-3,,,,,-9.559998944E-6,0.0,
,,,-9.519998457E-6,0.0,,,,,-9.519998457E-6,0.0,,,,,-9.519998457E-6,0.0,
,,,-9.479998880E-6,8.000000380E-3,,,,,-9.479998880E-6,0.0,,,,,-9.479998880E-6,0.0,
,,,-9.439998394E-6,8.000000380E-3,,,,,-9.439998394E-6,0.0,,,,,-9.439998394E-6,0.0,
,,,-9.399998817E-6,8.000000380E-3,,,,,-9.399998817E-6,-8.000000380E-3,,,,,-9.399998817E-6,0.0,
,,,-9.359999240E-6,8.000000380E-3,,,,,-9.359999240E-6,0.0,,,,,-9.359999240E-6,0.0,
,,,-9.319998753E-6,0.0,,,,,-9.319998753E-6,0.0,,,,,-9.319998753E-6,0.0,
,,,-9.279999176E-6,8.000000380E-3,,,,,-9.279999176E-6,0.0,,,,,-9.279999176E-6,0.0,
,,,-9.239998690E-6,8.000000380E-3,,,,,-9.239998690E-6,0.0,,,,,-9.239998690E-6,0.0,
,,,-9.199999113E-6,8.000000380E-3,,,,,-9.199999113E-6,-8.000000380E-3,,,,,-9.199999113E-6,0.0,
,,,-9.159998626E-6,8.000000380E-3,,,,,-9.159998626E-6,0.0,,,,,-9.159998626E-6,0.0,
,,,-9.119999049E-6,0.0,,,,,-9.119999049E-6,-8.000000380E-3,,,,,-9.119999049E-6,0.0,
,,,-9.079998563E-6,0.0,,,,,-9.079998563E-6,0.0,,,,,-9.079998563E-6,-800.000011921E-3,
,,,-9.039998986E-6,8.000000380E-3,,,,,-9.039998986E-6,8.000000380E-3,,,,,-9.039998986E-6,0.0,
,,,-8.999998499E-6,8.000000380E-3,,,,,-8.999998499E-6,0.0,,,,,-8.999998499E-6,0.0,
,,,-8.959998922E-6,0.0,,,,,-8.959998922E-6,-8.000000380E-3,,,,,-8.959998922E-6,0.0,
,,,-8.919998436E-6,0.0,,,,,-8.919998436E-6,0.0,,,,,-8.919998436E-6,0.0,
,,,-8.879998859E-6,8.000000380E-3,,,,,-8.879998859E-6,0.0,,,,,-8.879998859E-6,0.0,
,,,-8.839998372E-6,8.000000380E-3,,,,,-8.839998372E-6,0.0,,,,,-8.839998372E-6,0.0,
,,,-8.799998795E-6,16.0000008E-3,,,,,-8.799998795E-6,0.0,,,,,-8.799998795E-6,0.0,
,,,-8.759999218E-6,-8.000000380E-3,,,,,-8.759999218E-6,0.0,,,,,-8.759999218E-6,0.0,
,,,-8.719998732E-6,8.000000380E-3,,,,,-8.719998732E-6,8.000000380E-3,,,,,-8.719998732E-6,0.0,
,,,-8.679999155E-6,8.000000380E-3,,,,,-8.679999155E-6,8.000000380E-3,,,,,-8.679999155E-6,0.0,
,,,-8.639998669E-6,8.000000380E-3,,,,,-8.639998669E-6,0.0,,,,,-8.639998669E-6,0.0,
,,,-8.599999092E-6,0.0,,,,,-8.599999092E-6,128.0000061E-3,,,,,-8.599999092E-6,0.0,
,,,-8.559998605E-6,72.000004351E-3,,,,,-8.559998605E-6,200.00000298E-3,,,,,-8.559998605E-6,1.6000000,
,,,-8.519999028E-6,16.0000008E-3,,,,,-8.519999028E-6,224.00000691E-3,,,,,-8.519999028E-6,3.20000005,
,,,-8.479998542E-6,56.000001729E-3,,,,,-8.479998542E-6,272.00001478E-3,,,,,-8.479998542E-6,4.00000000,
,,,-8.439998965E-6,64.000003040E-3,,,,,-8.439998965E-6,352.00002789E-3,,,,,-8.439998965E-6,4.80000019,
,,,-8.399998478E-6,80.000005662E-3,,,,,-8.399998478E-6,360.00001431E-3,,,,,-8.399998478E-6,5.59999990,
,,,-8.359998901E-6,88.000006974E-3,,,,,-8.359998901E-6,416.000008583E-3,,,,,-8.359998901E-6,7.20000029,
,,,-8.319998415E-6,88.000006974E-3,,,,,-8.319998415E-6,408.000022173E-3,,,,,-8.319998415E-6,8.000000000,
,,,-8.279998838E-6,80.000005662E-3,,,,,-8.279998838E-6,432.000011206E-3,,,,,-8.279998838E-6,8.800000191,
,,,-8.239999261E-6,80.000005662E-3,,,,,-8.239999261E-6,424.000024796E-3,,,,,-8.239999261E-6,10.4000006,
,,,-8.199998774E-6,80.000005662E-3,,,,,-8.199998774E-6,448.000013828E-3,,,,,-8.199998774E-6,11.1999998,
,,,-8.159999197E-6,88.000006974E-3,,,,,-8.159999197E-6,448.000013828E-3,,,,,-8.159999197E-6,12.8000002,
,,,-8.119998711E-6,88.000006974E-3,,,,,-8.119998711E-6,456.000030041E-3,,,,,-8.119998711E-6,12.8000002,
,,,-8.079999134E-6,88.000006974E-3,,,,,-8.079999134E-6,456.000030041E-3,,,,,-8.079999134E-6,13.6000004,
,,,-8.039998647E-6,104.0000021E-3,,,,,-8.039998647E-6,464.000016451E-3,,,,,-8.039998647E-6,15.1999998,
,,,-7.999999070E-6,96.000000834E-3,,,,,-7.999999070E-6,456.000030041E-3,,,,,-7.999999070E-6,16.0000000,
,,,-7.959998584E-6,88.000006974E-3,,,,,-7.959998584E-6,448.000013828E-3,,,,,-7.959998584E-6,16.8000011,
,,,-7.919999007E-6,80.000005662E-3,,,,,-7.919999007E-6,440.000027418E-3,,,,,-7.919999007E-6,17.6000004,
,,,-7.879998520E-6,88.000006974E-3,,,,,-7.879998520E-6,440.000027418E-3,,,,,-7.879998520E-6,17.6000004,
,,,-7.839998943E-6,88.000006974E-3,,,,,-7.839998943E-6,432.000011206E-3,,,,,-7.839998943E-6,19.2000008,
,,,-7.799998457E-6,80.000005662E-3,,,,,-7.799998457E-6,432.000011206E-3,,,,,-7.799998457E-6,20.0000000,
,,,-7.759998880E-6,88.000006974E-3,,,,,-7.759998880E-6,408.000022173E-3,,,,,-7.759998880E-6,20.0000000,
