electrode_touching/9_0_kV_O2_Mir.csv

Record Length,2500,Points,-11.6000001E-6,0.0,,Record Length,2500,Points,-11.6000001E-6,16.0000008E-3,
Sample Interval,39.99999976E-9,s,-11.5600005E-6,-8.000000380E-3,,Sample Interval,39.99999976E-9,s,-11.5600005E-6,24.00000021E-3,
Trigger Point,290.00000444,Samples,-11.5200000E-6,-16.0000008E-3,,Trigger Point,290.00000444,Samples,-11.5200000E-6,24.00000021E-3,
,,,-11.4800005E-6,-8.000000380E-3,,,,,-11.4800005E-6,16.0000008E-3,
,,,-11.4400000E-6,0.0,,,,,-11.4400000E-6,16.0000008E-3,
,,,-11.4000004E-6,0.0,,,,,-11.4000004E-6,16.0000008E-3,
Source,CH1,,-11.3599999E-6,8.000000380E-3,,Source,CH2,,-11.3599999E-6,16.0000008E-3,
Vertical Units,Volts,,-11.3200003E-6,0.0,,Vertical Units,Volts,,-11.3200003E-6,24.00000021E-3,
Vertical Scale,200.00000950E-3,,-11.2799999E-6,-8.000000380E-3,,Vertical Scale,200.00000950E-3,,-11.2799999E-6,24.00000021E-3,
Vertical Offset,0,,-11.2400003E-6,8.000000380E-3,,Vertical Offset,0,,-11.2400003E-6,16.0000008E-3,
Horizontal Units,s,,-11.1999998E-6,0.0,,Horizontal Units,s,,-11.1999998E-6,0.0,
Horizontal Scale,9.999999939E-6,,-11.1600002E-6,0.0,,Horizontal Scale,9.999999939E-6,,-11.1600002E-6,16.0000008E-3,
Pt Fmt,Y,,-11.1199997E-6,8.000000380E-3,,Pt Fmt,Y,,-11.1199997E-6,16.0000008E-3,
Yzero,520.000000000E-3,,-11.0800001E-6,0.0,,Yzero,-1.2000000,,-11.0800001E-6,16.0000008E-3,
Probe Atten,1.000000,,-11.0399997E-6,0.0,,Probe Atten,1.000000,,-11.0399997E-6,8.000000380E-3,
,,,-11.0000001E-6,0.0,,,,,-11.0000001E-6,24.00000021E-3,
Note,TBS 1104 - 2:27:27 PM   2/3/2026,,-10.9600005E-6,-8.000000380E-3,,Note,TBS 1104 - 2:27:27 PM   2/3/2026,,-10.9600005E-6,8.000000380E-3,
,,,-10.9200000E-6,0.0,,,,,-10.9200000E-6,16.0000008E-3,
,,,-10.8800004E-6,-8.000000380E-3,,,,,-10.8800004E-6,16.0000008E-3,
,,,-10.8400000E-6,0.0,,,,,-10.8400000E-6,24.00000021E-3,
,,,-10.8000004E-6,-8.000000380E-3,,,,,-10.8000004E-6,24.00000021E-3,
,,,-10.7599999E-6,-8.000000380E-3,,,,,-10.7599999E-6,16.0000008E-3,
,,,-10.7200003E-6,-8.000000380E-3,,,,,-10.7200003E-6,16.0000008E-3,
,,,-10.6799998E-6,0.0,,,,,-10.6799998E-6,16.0000008E-3,
,,,-10.6400003E-6,0.0,,,,,-10.6400003E-6,24.00000021E-3,
,,,-10.5999998E-6,0.0,,,,,-10.5999998E-6,24.00000021E-3,
,,,-10.5600002E-6,0.0,,,,,-10.5600002E-6,16.0000008E-3,
,,,-10.5199997E-6,0.0,,,,,-10.5199997E-6,16.0000008E-3,
,,,-10.4800001E-6,0.0,,,,,-10.4800001E-6,8.000000380E-3,
,,,-10.4400006E-6,0.0,,,,,-10.4400006E-6,16.0000008E-3,
,,,-10.4000001E-6,8.000000380E-3,,,,,-10.4000001E-6,16.0000008E-3,
,,,-10.3600005E-6,0.0,,,,,-10.3600005E-6,16.0000008E-3,
,,,-10.3200000E-6,0.0,,,,,-10.3200000E-6,16.0000008E-3,
,,,-10.2800004E-6,0.0,,,,,-10.2800004E-6,24.00000021E-3,
,,,-10.2399999E-6,-8.000000380E-3,,,,,-10.2399999E-6,16.0000008E-3,
,,,-10.2000004E-6,0.0,,,,,-10.2000004E-6,16.0000008E-3,
,,,-10.1599999E-6,8.000000380E-3,,,,,-10.1599999E-6,16.0000008E-3,
,,,-10.1200003E-6,0.0,,,,,-10.1200003E-6,16.0000008E-3,
,,,-10.0799998E-6,-8.000000380E-3,,,,,-10.0799998E-6,24.00000021E-3,
,,,-10.0400002E-6,-16.0000008E-3,,,,,-10.0400002E-6,8.000000380E-3,
,,,-9.999999747E-6,-8.000000380E-3,,,,,-9.999999747E-6,24.00000021E-3,
,,,-9.960000170E-6,-8.000000380E-3,,,,,-9.960000170E-6,8.000000380E-3,
,,,-9.919999684E-6,-8.000000380E-3,,,,,-9.919999684E-6,8.000000380E-3,
,,,-9.880000107E-6,0.0,,,,,-9.880000107E-6,16.0000008E-3,
,,,-9.840000530E-6,0.0,,,,,-9.840000530E-6,24.00000021E-3,
,,,-9.800000043E-6,-8.000000380E-3,,,,,-9.800000043E-6,24.00000021E-3,
,,,-9.760000466E-6,-8.000000380E-3,,,,,-9.760000466E-6,16.0000008E-3,
,,,-9.719999980E-6,-8.000000380E-3,,,,,-9.719999980E-6,24.00000021E-3,
,,,-9.680000403E-6,0.0,,,,,-9.680000403E-6,16.0000008E-3,
,,,-9.639999917E-6,0.0,,,,,-9.639999917E-6,16.0000008E-3,
,,,-9.600000340E-6,-8.000000380E-3,,,,,-9.600000340E-6,16.0000008E-3,
,,,-9.559999853E-6,0.0,,,,,-9.559999853E-6,16.0000008E-3,
,,,-9.520000276E-6,0.0,,,,,-9.520000276E-6,16.0000008E-3,
,,,-9.479999790E-6,0.0,,,,,-9.479999790E-6,16.0000008E-3,
,,,-9.440000213E-6,0.0,,,,,-9.440000213E-6,8.000000380E-3,
,,,-9.399999726E-6,8.000000380E-3,,,,,-9.399999726E-6,16.0000008E-3,
,,,-9.360000149E-6,8.000000380E-3,,,,,-9.360000149E-6,8.000000380E-3,
,,,-9.320000572E-6,-8.000000380E-3,,,,,-9.320000572E-6,16.0000008E-3,
,,,-9.280000086E-6,-8.000000380E-3,,,,,-9.280000086E-6,24.00000021E-3,
,,,-9.240000509E-6,0.0,,,,,-9.240000509E-6,16.0000008E-3,
,,,-9.200000022E-6,-8.000000380E-3,,,,,-9.200000022E-6,16.0000008E-3,
,,,-9.160000445E-6,0.0,,,,,-9.160000445E-6,16.0000008E-3,
,,,-9.119999959E-6,0.0,,,,,-9.119999959E-6,8.000000380E-3,
,,,-9.080000382E-6,-8.000000380E-3,,,,,-9.080000382E-6,24.00000021E-3,
,,,-9.039999895E-6,0.0,,,,,-9.039999895E-6,24.00000021E-3,
,,,-9.000000318E-6,-8.000000380E-3,,,,,-9.000000318E-6,8.000000380E-3,
,,,-8.959999832E-6,8.000000380E-3,,,,,-8.959999832E-6,24.00000021E-3,
,,,-8.920000255E-6,0.0,,,,,-8.920000255E-6,16.0000008E-3,
,,,-8.879999768E-6,-8.000000380E-3,,,,,-8.879999768E-6,16.0000008E-3,
,,,-8.840000191E-6,-8.000000380E-3,,,,,-8.840000191E-6,24.00000021E-3,
,,,-8.799999705E-6,0.0,,,,,-8.799999705E-6,24.00000021E-3,
,,,-8.760000128E-6,0.0,,,,,-8.760000128E-6,24.00000021E-3,
,,,-8.720000551E-6,-8.000000380E-3,,,,,-8.720000551E-6,8.000000380E-3,
,,,-8.680000064E-6,8.000000380E-3,,,,,-8.680000064E-6,16.0000008E-3,
,,,-8.640000488E-6,0.0,,,,,-8.640000488E-6,24.00000021E-3,
,,,-8.600000001E-6,0.0,,,,,-8.600000001E-6,16.0000008E-3,
,,,-8.560000424E-6,0.0,,,,,-8.560000424E-6,16.0000008E-3,
,,,-8.519999938E-6,0.0,,,,,-8.519999938E-6,16.0000008E-3,
,,,-8.480000361E-6,0.0,,,,,-8.480000361E-6,16.0000008E-3,
,,,-8.439999874E-6,0.0,,,,,-8.439999874E-6,16.0000008E-3,
,,,-8.400000297E-6,0.0,,,,,-8.400000297E-6,16.0000008E-3,
,,,-8.359999811E-6,0.0,,,,,-8.359999811E-6,16.0000008E-3,
,,,-8.320000234E-6,-8.000000380E-3,,,,,-8.320000234E-6,24.00000021E-3,
,,,-8.279999747E-6,-8.000000380E-3,,,,,-8.279999747E-6,16.0000008E-3,
,,,-8.240000170E-6,8.000000380E-3,,,,,-8.240000170E-6,24.00000021E-3,
,,,-8.199999684E-6,0.0,,,,,-8.199999684E-6,16.0000008E-3,
,,,-8.160000107E-6,-8.000000380E-3,,,,,-8.160000107E-6,24.00000021E-3,
,,,-8.120000530E-6,0.0,,,,,-8.120000530E-6,16.0000008E-3,
,,,-8.080000043E-6,-8.000000380E-3,,,,,-8.080000043E-6,16.0000008E-3,
,,,-8.040000466E-6,0.0,,,,,-8.040000466E-6,16.0000008E-3,
,,,-7.999999980E-6,-8.000000380E-3,,,,,-7.999999980E-6,16.0000008E-3,
,,,-7.960000403E-6,0.0,,,,,-7.960000403E-6,16.0000008E-3,
,,,-7.919999916E-6,0.0,,,,,-7.919999916E-6,16.0000008E-3,
,,,-7.880000339E-6,-8.000000380E-3,,,,,-7.880000339E-6,16.0000008E-3,
,,,-7.839999853E-6,0.0,,,,,-7.839999853E-6,16.0000008E-3,
,,,-7.800000276E-6,-8.000000380E-3,,,,,-7.800000276E-6,16.0000008E-3,
,,,-7.759999789E-6,0.0,,,,,-7.759999789E-6,16.0000008E-3,
,,,-7.720000212E-6,8.000000380E-3,,,,,-7.720000212E-6,16.0000008E-3,
,,,-7.679999726E-6,0.0,,,,,-7.679999726E-6,24.00000021E-3,
,,,-7.640000149E-6,0.0,,,,,-7.640000149E-6,16.0000008E-3,
,,,-7.600000117E-6,0.0,,,,,-7.600000117E-6,8.000000380E-3,
,,,-7.560000086E-6,-8.000000380E-3,,,,,-7.560000086E-6,16.0000008E-3,
,,,-7.520000054E-6,-8.000000380E-3,,,,,-7.520000054E-6,16.0000008E-3,
,,,-7.480000022E-6,0.0,,,,,-7.480000022E-6,16.0000008E-3,
,,,-7.439999990E-6,0.0,,,,,-7.439999990E-6,16.0000008E-3,
,,,-7.399999959E-6,-8.000000380E-3,,,,,-7.399999959E-6,24.00000021E-3,
,,,-7.35999993E-6,-8.000000380E-3,,,,,-7.35999993E-6,16.0000008E-3,
,,,-7.32000035E-6,0.0,,,,,-7.32000035E-6,16.0000008E-3,
,,,-7.28000032E-6,-8.000000380E-3,,,,,-7.28000032E-6,16.0000008E-3,
,,,-7.24000029E-6,0.0,,,,,-7.24000029E-6,8.000000380E-3,
,,,-7.20000025E-6,-8.000000380E-3,,,,,-7.20000025E-6,24.00000021E-3,
,,,-7.16000022E-6,0.0,,,,,-7.16000022E-6,24.00000021E-3,
,,,-7.12000019E-6,0.0,,,,,-7.12000019E-6,16.0000008E-3,
,,,-7.08000016E-6,0.0,,,,,-7.08000016E-6,16.0000008E-3,
,,,-7.04000013E-6,0.0,,,,,-7.04000013E-6,16.0000008E-3,
,,,-7.00000010E-6,-8.000000380E-3,,,,,-7.00000010E-6,16.0000008E-3,
,,,-6.96000006E-6,0.0,,,,,-6.96000006E-6,16.0000008E-3,
,,,-6.92000003E-6,8.000000380E-3,,,,,-6.92000003E-6,16.0000008E-3,
,,,-6.88000000E-6,0.0,,,,,-6.88000000E-6,24.00000021E-3,
,,,-6.83999997E-6,-8.000000380E-3,,,,,-6.83999997E-6,16.0000008E-3,
,,,-6.79999994E-6,0.0,,,,,-6.79999994E-6,16.0000008E-3,
,,,-6.76000036E-6,-8.000000380E-3,,,,,-6.76000036E-6,16.0000008E-3,
,,,-6.72000033E-6,-8.000000380E-3,,,,,-6.72000033E-6,16.0000008E-3,
,,,-6.68000030E-6,0.0,,,,,-6.68000030E-6,24.00000021E-3,
,,,-6.64000027E-6,0.0,,,,,-6.64000027E-6,16.0000008E-3,
,,,-6.60000023E-6,0.0,,,,,-6.60000023E-6,16.0000008E-3,
,,,-6.56000020E-6,0.0,,,,,-6.56000020E-6,16.0000008E-3,
,,,-6.52000017E-6,0.0,,,,,-6.52000017E-6,16.0000008E-3,
,,,-6.48000014E-6,-8.000000380E-3,,,,,-6.48000014E-6,16.0000008E-3,
,,,-6.44000011E-6,0.0,,,,,-6.44000011E-6,8.000000380E-3,
,,,-6.40000007E-6,8.000000380E-3,,,,,-6.40000007E-6,16.0000008E-3,
,,,-6.36000004E-6,-8.000000380E-3,,,,,-6.36000004E-6,16.0000008E-3,
,,,-6.32000001E-6,-16.0000008E-3,,,,,-6.32000001E-6,16.0000008E-3,
,,,-6.27999998E-6,0.0,,,,,-6.27999998E-6,16.0000008E-3,
,,,-6.23999995E-6,0.0,,,,,-6.23999995E-6,16.0000008E-3,
,,,-6.19999992E-6,8.000000380E-3,,,,,-6.19999992E-6,16.0000008E-3,
,,,-6.16000034E-6,0.0,,,,,-6.16000034E-6,24.00000021E-3,
,,,-6.12000031E-6,-8.000000380E-3,,,,,-6.12000031E-6,24.00000021E-3,
,,,-6.08000028E-6,-16.0000008E-3,,,,,-6.08000028E-6,16.0000008E-3,
,,,-6.04000024E-6,-8.000000380E-3,,,,,-6.04000024E-6,16.0000008E-3,
,,,-6.00000021E-6,-8.000000380E-3,,,,,-6.00000021E-6,8.000000380E-3,
,,,-5.96000018E-6,0.0,,,,,-5.96000018E-6,8.000000380E-3,
,,,-5.92000015E-6,0.0,,,,,-5.92000015E-6,8.000000380E-3,
,,,-5.88000012E-6,0.0,,,,,-5.88000012E-6,16.0000008E-3,
,,,-5.84000009E-6,-8.000000380E-3,,,,,-5.84000009E-6,24.00000021E-3,
,,,-5.80000005E-6,0.0,,,,,-5.80000005E-6,16.0000008E-3,
,,,-5.76000002E-6,0.0,,,,,-5.76000002E-6,16.0000008E-3,
,,,-5.71999999E-6,-8.000000380E-3,,,,,-5.71999999E-6,16.0000008E-3,
,,,-5.67999996E-6,-8.000000380E-3,,,,,-5.67999996E-6,16.0000008E-3,
,,,-5.63999993E-6,0.0,,,,,-5.63999993E-6,24.00000021E-3,
,,,-5.60000035E-6,0.0,,,,,-5.60000035E-6,16.0000008E-3,
,,,-5.56000032E-6,0.0,,,,,-5.56000032E-6,16.0000008E-3,
,,,-5.52000029E-6,0.0,,,,,-5.52000029E-6,16.0000008E-3,
,,,-5.48000025E-6,0.0,,,,,-5.48000025E-6,16.0000008E-3,
,,,-5.44000022E-6,-8.000000380E-3,,,,,-5.44000022E-6,8.000000380E-3,
,,,-5.40000019E-6,0.0,,,,,-5.40000019E-6,16.0000008E-3,
,,,-5.36000016E-6,0.0,,,,,-5.36000016E-6,24.00000021E-3,
,,,-5.32000013E-6,0.0,,,,,-5.32000013E-6,24.00000021E-3,
,,,-5.28000010E-6,-8.000000380E-3,,,,,-5.28000010E-6,16.0000008E-3,
,,,-5.24000006E-6,0.0,,,,,-5.24000006E-6,16.0000008E-3,
,,,-5.20000003E-6,0.0,,,,,-5.20000003E-6,16.0000008E-3,
,,,-5.16000000E-6,0.0,,,,,-5.16000000E-6,8.000000380E-3,
,,,-5.11999997E-6,0.0,,,,,-5.11999997E-6,16.0000008E-3,
,,,-5.07999994E-6,8.000000380E-3,,,,,-5.07999994E-6,16.0000008E-3,
,,,-5.04000036E-6,0.0,,,,,-5.04000036E-6,16.0000008E-3,
,,,-5.00000033E-6,0.0,,,,,-5.00000033E-6,16.0000008E-3,
,,,-4.96000030E-6,-8.000000380E-3,,,,,-4.96000030E-6,16.0000008E-3,
,,,-4.92000026E-6,-8.000000380E-3,,,,,-4.92000026E-6,16.0000008E-3,
,,,-4.88000023E-6,8.000000380E-3,,,,,-4.88000023E-6,16.0000008E-3,
,,,-4.84000020E-6,0.0,,,,,-4.84000020E-6,24.00000021E-3,
,,,-4.80000017E-6,-8.000000380E-3,,,,,-4.80000017E-6,8.000000380E-3,
,,,-4.76000014E-6,-8.000000380E-3,,,,,-4.76000014E-6,16.0000008E-3,
,,,-4.72000011E-6,8.000000380E-3,,,,,-4.72000011E-6,16.0000008E-3,
,,,-4.68000007E-6,0.0,,,,,-4.68000007E-6,24.00000021E-3,
,,,-4.64000004E-6,-8.000000380E-3,,,,,-4.64000004E-6,16.0000008E-3,
,,,-4.60000001E-6,0.0,,,,,-4.60000001E-6,16.0000008E-3,
,,,-4.55999998E-6,-8.000000380E-3,,,,,-4.55999998E-6,16.0000008E-3,
,,,-4.51999995E-6,0.0,,,,,-4.51999995E-6,16.0000008E-3,
,,,-4.48000037E-6,0.0,,,,,-4.48000037E-6,16.0000008E-3,
,,,-4.44000034E-6,-8.000000380E-3,,,,,-4.44000034E-6,24.00000021E-3,
,,,-4.40000031E-6,-8.000000380E-3,,,,,-4.40000031E-6,16.0000008E-3,
,,,-4.36000028E-6,0.0,,,,,-4.36000028E-6,16.0000008E-3,
,,,-4.32000024E-6,-8.000000380E-3,,,,,-4.32000024E-6,16.0000008E-3,
,,,-4.28000021E-6,0.0,,,,,-4.28000021E-6,24.00000021E-3,
,,,-4.24000018E-6,0.0,,,,,-4.24000018E-6,24.00000021E-3,
,,,-4.20000015E-6,-16.0000008E-3,,,,,-4.20000015E-6,24.00000021E-3,
,,,-4.16000012E-6,0.0,,,,,-4.16000012E-6,16.0000008E-3,
,,,-4.12000009E-6,-8.000000380E-3,,,,,-4.12000009E-6,16.0000008E-3,
,,,-4.08000005E-6,0.0,,,,,-4.08000005E-6,24.00000021E-3,
,,,-4.04000002E-6,-8.000000380E-3,,,,,-4.04000002E-6,16.0000008E-3,
,,,-3.99999999E-6,0.0,,,,,-3.99999999E-6,16.0000008E-3,
,,,-3.95999996E-6,0.0,,,,,-3.95999996E-6,16.0000008E-3,
,,,-3.92000038E-6,-8.000000380E-3,,,,,-3.92000038E-6,16.0000008E-3,
,,,-3.88000035E-6,0.0,,,,,-3.88000035E-6,8.000000380E-3,
,,,-3.84000032E-6,0.0,,,,,-3.84000032E-6,16.0000008E-3,
,,,-3.80000006E-6,0.0,,,,,-3.80000006E-6,16.0000008E-3,
,,,-3.76000025E-6,0.0,,,,,-3.76000025E-6,16.0000008E-3,
,,,-3.72000022E-6,0.0,,,,,-3.72000022E-6,24.00000021E-3,
,,,-3.68000019E-6,0.0,,,,,-3.68000019E-6,16.0000008E-3,
,,,-3.64000016E-6,-8.000000380E-3,,,,,-3.64000016E-6,16.0000008E-3,
,,,-3.60000013E-6,-8.000000380E-3,,,,,-3.60000013E-6,16.0000008E-3,
,,,-3.56000010E-6,0.0,,,,,-3.56000010E-6,16.0000008E-3,
,,,-3.52000006E-6,0.0,,,,,-3.52000006E-6,8.000000380E-3,
,,,-3.48000026E-6,0.0,,,,,-3.48000026E-6,8.000000380E-3,
,,,-3.44000023E-6,-8.000000380E-3,,,,,-3.44000023E-6,16.0000008E-3,
,,,-3.40000020E-6,-8.000000380E-3,,,,,-3.40000020E-6,16.0000008E-3,
,,,-3.36000016E-6,0.0,,,,,-3.36000016E-6,16.0000008E-3,
,,,-3.32000013E-6,8.000000380E-3,,,,,-3.32000013E-6,24.00000021E-3,
,,,-3.28000010E-6,0.0,,,,,-3.28000010E-6,8.000000380E-3,
,,,-3.24000007E-6,-8.000000380E-3,,,,,-3.24000007E-6,16.0000008E-3,
,,,-3.20000026E-6,8.000000380E-3,,,,,-3.20000026E-6,24.00000021E-3,
,,,-3.16000023E-6,0.0,,,,,-3.16000023E-6,16.0000008E-3,
,,,-3.12000020E-6,0.0,,,,,-3.12000020E-6,16.0000008E-3,
,,,-3.08000017E-6,0.0,,,,,-3.08000017E-6,16.0000008E-3,
,,,-3.04000014E-6,0.0,,,,,-3.04000014E-6,16.0000008E-3,
,,,-3.00000011E-6,0.0,,,,,-3.00000011E-6,16.0000008E-3,
,,,-2.96000007E-6,0.0,,,,,-2.96000007E-6,8.000000380E-3,
,,,-2.92000027E-6,0.0,,,,,-2.92000027E-6,16.0000008E-3,
,,,-2.88000024E-6,0.0,,,,,-2.88000024E-6,16.0000008E-3,
,,,-2.84000021E-6,8.000000380E-3,,,,,-2.84000021E-6,24.00000021E-3,
,,,-2.80000017E-6,0.0,,,,,-2.80000017E-6,16.0000008E-3,
,,,-2.76000014E-6,0.0,,,,,-2.76000014E-6,16.0000008E-3,
,,,-2.72000011E-6,0.0,,,,,-2.72000011E-6,16.0000008E-3,
,,,-2.6800001E-6,0.0,,,,,-2.6800001E-6,16.0000008E-3,
,,,-2.6400003E-6,0.0,,,,,-2.6400003E-6,16.0000008E-3,
,,,-2.6000002E-6,0.0,,,,,-2.6000002E-6,16.0000008E-3,
,,,-2.5600002E-6,0.0,,,,,-2.5600002E-6,24.00000021E-3,
,,,-2.5200002E-6,0.0,,,,,-2.5200002E-6,16.0000008E-3,
,,,-2.4800001E-6,0.0,,,,,-2.4800001E-6,8.000000380E-3,
,,,-2.4400001E-6,0.0,,,,,-2.4400001E-6,16.0000008E-3,
,,,-2.4000001E-6,-8.000000380E-3,,,,,-2.4000001E-6,16.0000008E-3,
,,,-2.3600001E-6,0.0,,,,,-2.3600001E-6,24.00000021E-3,
,,,-2.3200002E-6,0.0,,,,,-2.3200002E-6,16.0000008E-3,
,,,-2.2800002E-6,-8.000000380E-3,,,,,-2.2800002E-6,16.0000008E-3,
,,,-2.2400002E-6,0.0,,,,,-2.2400002E-6,16.0000008E-3,
,,,-2.2000002E-6,0.0,,,,,-2.2000002E-6,16.0000008E-3,
,,,-2.1600001E-6,8.000000380E-3,,,,,-2.1600001E-6,16.0000008E-3,
,,,-2.1200001E-6,0.0,,,,,-2.1200001E-6,16.0000008E-3,
,,,-2.0800001E-6,-8.000000380E-3,,,,,-2.0800001E-6,16.0000008E-3,
,,,-2.0400003E-6,-8.000000380E-3,,,,,-2.0400003E-6,8.000000380E-3,
,,,-2.0000002E-6,0.0,,,,,-2.0000002E-6,16.0000008E-3,
,,,-1.9600002E-6,8.000000380E-3,,,,,-1.9600002E-6,8.000000380E-3,
,,,-1.9200002E-6,0.0,,,,,-1.9200002E-6,16.0000008E-3,
,,,-1.8800001E-6,0.0,,,,,-1.8800001E-6,24.00000021E-3,
,,,-1.8400002E-6,0.0,,,,,-1.8400002E-6,16.0000008E-3,
,,,-1.8000002E-6,0.0,,,,,-1.8000002E-6,16.0000008E-3,
,,,-1.7600001E-6,-8.000000380E-3,,,,,-1.7600001E-6,16.0000008E-3,
,,,-1.7200001E-6,-8.000000380E-3,,,,,-1.7200001E-6,16.0000008E-3,
,,,-1.6800002E-6,0.0,,,,,-1.6800002E-6,16.0000008E-3,
,,,-1.6400002E-6,0.0,,,,,-1.6400002E-6,16.0000008E-3,
,,,-1.6000001E-6,0.0,,,,,-1.6000001E-6,16.0000008E-3,
,,,-1.5600002E-6,-8.000000380E-3,,,,,-1.5600002E-6,16.0000008E-3,
,,,-1.5200002E-6,0.0,,,,,-1.5200002E-6,16.0000008E-3,
,,,-1.4800002E-6,0.0,,,,,-1.4800002E-6,16.0000008E-3,
,,,-1.4400001E-6,0.0,,,,,-1.4400001E-6,16.0000008E-3,
,,,-1.4000002E-6,0.0,,,,,-1.4000002E-6,8.000000380E-3,
,,,-1.3600002E-6,0.0,,,,,-1.3600002E-6,16.0000008E-3,
,,,-1.3200001E-6,0.0,,,,,-1.3200001E-6,24.00000021E-3,
,,,-1.2800002E-6,-8.000000380E-3,,,,,-1.2800002E-6,24.00000021E-3,
,,,-1.2400002E-6,0.0,,,,,-1.2400002E-6,24.00000021E-3,
,,,-1.2000002E-6,-8.000000380E-3,,,,,-1.2000002E-6,16.0000008E-3,
,,,-1.1600001E-6,8.000000380E-3,,,,,-1.1600001E-6,8.000000380E-3,
,,,-1.1200002E-6,0.0,,,,,-1.1200002E-6,16.0000008E-3,
,,,-1.0800002E-6,-8.000000380E-3,,,,,-1.0800002E-6,24.00000021E-3,
,,,-1.0400001E-6,0.0,,,,,-1.0400001E-6,24.00000021E-3,
,,,-1.0000002E-6,-8.000000380E-3,,,,,-1.0000002E-6,16.0000008E-3,
,,,-960.000193118E-9,-8.000000380E-3,,,,,-960.000193118E-9,16.0000008E-3,
,,,-920.000161386E-9,0.0,,,,,-920.000161386E-9,16.0000008E-3,
,,,-880.000186498E-9,8.000000380E-3,,,,,-880.000186498E-9,8.000000380E-3,
,,,-840.000154767E-9,0.0,,,,,-840.000154767E-9,16.0000008E-3,
,,,-800.000179879E-9,-8.000000380E-3,,,,,-800.000179879E-9,8.000000380E-3,
,,,-760.000148148E-9,0.0,,,,,-760.000148148E-9,24.00000021E-3,
,,,-720.000173260E-9,0.0,,,,,-720.000173260E-9,24.00000021E-3,
,,,-680.000198372E-9,-8.000000380E-3,,,,,-680.000198372E-9,16.0000008E-3,
,,,-640.000166641E-9,0.0,,,,,-640.000166641E-9,16.0000008E-3,
,,,-600.000191753E-9,-8.000000380E-3,,,,,-600.000191753E-9,16.0000008E-3,
,,,-560.000160021E-9,0.0,,,,,-560.000160021E-9,16.0000008E-3,
,,,-520.000185134E-9,0.0,,,,,-520.000185134E-9,16.0000008E-3,
,,,-480.000153402E-9,0.0,,,,,-480.000153402E-9,24.00000021E-3,
,,,-440.000178514E-9,-8.000000380E-3,,,,,-440.000178514E-9,16.0000008E-3,
,,,-400.00017520E-9,-8.000000380E-3,,,,,-400.00017520E-9,16.0000008E-3,
,,,-360.00017190E-9,0.0,,,,,-360.00017190E-9,24.00000021E-3,
,,,-320.00016859E-9,-88.000006974E-3,,,,,-320.00016859E-9,16.0000008E-3,
,,,-280.00016528E-9,-32.00000152E-3,,,,,-280.00016528E-9,88.000006974E-3,
,,,-240.00019039E-9,-72.000004351E-3,,,,,-240.00019039E-9,56.000001729E-3,
,,,-200.00017287E-9,-64.000003040E-3,,,,,-200.00017287E-9,48.00000042E-3,
,,,-160.00018377E-9,-88.000006974E-3,,,,,-160.00018377E-9,56.000001729E-3,
,,,-120.0001805E-9,-104.0000021E-3,,,,,-120.0001805E-9,56.000001729E-3,
,,,-80.000177149E-9,-120.0000048E-3,,,,,-80.000177149E-9,24.00000021E-3,
,,,-40.00017739E-9,-64.000003040E-3,,,,,-40.00017739E-9,40.00000283E-3,
,,,-177.63568163E-15,-56.000001729E-3,,,,,-177.63568163E-15,24.00000021E-3,
,,,39.99982212E-9,-48.00000042E-3,,,,,39.99982212E-9,16.0000008E-3,
,,,79.999821878E-9,-8.000000380E-3,,,,,79.999821878E-9,16.0000008E-3,
,,,119.9998252E-9,0.0,,,,,119.9998252E-9,0.0,
,,,159.99981429E-9,16.0000008E-3,,,,,159.99981429E-9,0.0,
,,,199.99981760E-9,48.00000042E-3,,,,,199.99981760E-9,0.0,
,,,239.99982091E-9,64.000003040E-3,,,,,239.99982091E-9,-8.000000380E-3,
,,,279.99982422E-9,80.000005662E-3,,,,,279.99982422E-9,-8.000000380E-3,
,,,319.99982752E-9,88.000006974E-3,,,,,319.99982752E-9,0.0,
,,,359.99983083E-9,96.000000834E-3,,,,,359.99983083E-9,-8.000000380E-3,
,,,399.99980572E-9,104.0000021E-3,,,,,399.99980572E-9,-8.000000380E-3,
,,,439.999809032E-9,112.0000035E-3,,,,,439.999809032E-9,-8.000000380E-3,
,,,479.999812342E-9,104.0000021E-3,,,,,479.999812342E-9,-8.000000380E-3,
,,,519.999844073E-9,80.000005662E-3,,,,,519.999844073E-9,8.000000380E-3,
,,,559.999818961E-9,88.000006974E-3,,,,,559.999818961E-9,0.0,
,,,599.999793849E-9,80.000005662E-3,,,,,599.999793849E-9,0.0,
,,,639.999825580E-9,64.000003040E-3,,,,,639.999825580E-9,8.000000380E-3,
,,,679.999800468E-9,48.00000042E-3,,,,,679.999800468E-9,8.000000380E-3,
,,,719.999832199E-9,32.00000152E-3,,,,,719.999832199E-9,24.00000021E-3,
,,,759.999807087E-9,24.00000021E-3,,,,,759.999807087E-9,32.00000152E-3,
,,,799.999838819E-9,8.000000380E-3,,,,,799.999838819E-9,24.00000021E-3,
