electrode_touching/9_kv.csv

Record Length,2500,Points,-3.99999999E-6,2.0000001E-3,,Record Length,2500,Points,-3.99999999E-6,-4.00000019E-3,,Record Length,2500,Points,-3.99999999E-6,0.0,,Record Length,2500,Points,-3.99999999E-6,-200.00000298E-3,,Record Length,2500,Points,-3.99999999E-6,0.0,
Sample Interval,19.9999999E-9,s,-3.98000020E-6,0.0,,Sample Interval,19.9999999E-9,s,-3.98000020E-6,0.0,,Sample Interval,19.9999999E-9,s,-3.98000020E-6,0.0,,Sample Interval,19.9999999E-9,s,-3.98000020E-6,0.0,,Sample Interval,19.9999999E-9,s,-3.98000020E-6,0.0,
Trigger Point,200.00000071,Samples,-3.95999996E-6,2.0000001E-3,,Trigger Point,200.00000071,Samples,-3.95999996E-6,-4.00000019E-3,,Trigger Point,200.00000071,Samples,-3.95999996E-6,0.0,,Trigger Point,200.00000071,Samples,-3.95999996E-6,0.0,,Trigger Point,200.00000071,Samples,-3.95999996E-6,0.0,
,,,-3.94000017E-6,2.0000001E-3,,,,,-3.94000017E-6,0.0,,,,,-3.94000017E-6,0.0,,,,,-3.94000017E-6,0.0,,,,,-3.94000017E-6,0.0,
,,,-3.91999993E-6,2.0000001E-3,,,,,-3.91999993E-6,0.0,,,,,-3.91999993E-6,-200.00000298E-3,,,,,-3.91999993E-6,0.0,,,,,-3.91999993E-6,-400.00000596E-3,
,,,-3.90000014E-6,4.00000019E-3,,,,,-3.90000014E-6,0.0,,,,,-3.90000014E-6,-200.00000298E-3,,,,,-3.90000014E-6,0.0,,,,,-3.90000014E-6,-400.00000596E-3,
Source,CH1,,-3.87999989E-6,2.0000001E-3,,Source,CH2,,-3.87999989E-6,0.0,,Source,CH3,,-3.87999989E-6,0.0,,Source,CH4,,-3.87999989E-6,0.0,,Source,MATH,,-3.87999989E-6,0.0,
Vertical Units,Volts,,-3.86000011E-6,2.0000001E-3,,Vertical Units,Volts,,-3.86000011E-6,-4.00000019E-3,,Vertical Units,Volts,,-3.86000011E-6,0.0,,Vertical Units,Volts,,-3.86000011E-6,200.00000298E-3,,Vertical Units,Volts,,-3.86000011E-6,-400.00000596E-3,
Vertical Scale,50.00000237E-3,,-3.83999986E-6,2.0000001E-3,,Vertical Scale,100.0000047E-3,,-3.83999986E-6,0.0,,Vertical Scale,5.00000007,,-3.83999986E-6,0.0,,Vertical Scale,5.00000007,,-3.83999986E-6,0.0,,Vertical Scale,10.0000001,,-3.83999986E-6,0.0,
Vertical Offset,0,,-3.82000007E-6,2.0000001E-3,,Vertical Offset,0,,-3.82000007E-6,4.00000019E-3,,Vertical Offset,0,,-3.82000007E-6,-200.00000298E-3,,Vertical Offset,0,,-3.82000007E-6,0.0,,Vertical Offset,0,,-3.82000007E-6,-400.00000596E-3,
Horizontal Units,s,,-3.80000006E-6,2.0000001E-3,,Horizontal Units,s,,-3.80000006E-6,0.0,,Horizontal Units,s,,-3.80000006E-6,0.0,,Horizontal Units,s,,-3.80000006E-6,0.0,,Horizontal Units,s,,-3.80000006E-6,0.0,
Horizontal Scale,4.99999997E-6,,-3.78000004E-6,0.0,,Horizontal Scale,4.99999997E-6,,-3.78000004E-6,0.0,,Horizontal Scale,4.99999997E-6,,-3.78000004E-6,0.0,,Horizontal Scale,4.99999997E-6,,-3.78000004E-6,200.00000298E-3,,Horizontal Scale,4.99999997E-6,,-3.78000004E-6,-400.00000596E-3,
Pt Fmt,Y,,-3.76000003E-6,4.00000019E-3,,Pt Fmt,Y,,-3.76000003E-6,0.0,,Pt Fmt,Y,,-3.76000003E-6,200.00000298E-3,,Pt Fmt,Y,,-3.76000003E-6,200.00000298E-3,,Pt Fmt,Y,,-3.76000003E-6,0.0,
Yzero,0.0,,-3.74000001E-6,2.0000001E-3,,Yzero,40.00000000E-3,,-3.74000001E-6,0.0,,Yzero,40.00000000E-3,,-3.74000001E-6,200.00000298E-3,,Yzero,-120.0000000E-3,,-3.74000001E-6,0.0,,Yzero,-40.00000000E-3,,-3.74000001E-6,0.0,
Probe Atten,1.000000,,-3.72000000E-6,0.0,,Probe Atten,1.000000,,-3.72000000E-6,0.0,,Probe Atten,1.000000,,-3.72000000E-6,-200.00000298E-3,,Probe Atten,1.000000,,-3.72000000E-6,0.0,,,,,-3.72000000E-6,-400.00000596E-3,
,,,-3.69999998E-6,2.0000001E-3,,,,,-3.69999998E-6,-4.00000019E-3,,,,,-3.69999998E-6,0.0,,,,,-3.69999998E-6,0.0,,,,,-3.69999998E-6,0.0,
Note,TBS 1104 - 4:00:56 PM   1/29/2026,,-3.67999996E-6,0.0,,Note,TBS 1104 - 4:00:56 PM   1/29/2026,,-3.67999996E-6,0.0,,Note,TBS 1104 - 4:00:56 PM   1/29/2026,,-3.67999996E-6,-200.00000298E-3,,Note,TBS 1104 - 4:00:56 PM   1/29/2026,,-3.67999996E-6,0.0,,Note,TBS 1104 - 4:00:56 PM   1/29/2026,,-3.67999996E-6,-400.00000596E-3,
,,,-3.65999995E-6,0.0,,,,,-3.65999995E-6,-4.00000019E-3,,,,,-3.65999995E-6,-200.00000298E-3,,,,,-3.65999995E-6,0.0,,,,,-3.65999995E-6,-400.00000596E-3,
,,,-3.63999993E-6,2.0000001E-3,,,,,-3.63999993E-6,4.00000019E-3,,,,,-3.63999993E-6,0.0,,,,,-3.63999993E-6,0.0,,,,,-3.63999993E-6,0.0,
,,,-3.61999992E-6,2.0000001E-3,,,,,-3.61999992E-6,0.0,,,,,-3.61999992E-6,-200.00000298E-3,,,,,-3.61999992E-6,0.0,,,,,-3.61999992E-6,-400.00000596E-3,
,,,-3.59999990E-6,2.0000001E-3,,,,,-3.59999990E-6,4.00000019E-3,,,,,-3.59999990E-6,0.0,,,,,-3.59999990E-6,0.0,,,,,-3.59999990E-6,0.0,
,,,-3.57999988E-6,-2.0000001E-3,,,,,-3.57999988E-6,0.0,,,,,-3.57999988E-6,0.0,,,,,-3.57999988E-6,200.00000298E-3,,,,,-3.57999988E-6,-400.00000596E-3,
,,,-3.56000010E-6,0.0,,,,,-3.56000010E-6,-4.00000019E-3,,,,,-3.56000010E-6,0.0,,,,,-3.56000010E-6,0.0,,,,,-3.56000010E-6,0.0,
,,,-3.54000008E-6,2.0000001E-3,,,,,-3.54000008E-6,0.0,,,,,-3.54000008E-6,0.0,,,,,-3.54000008E-6,0.0,,,,,-3.54000008E-6,0.0,
,,,-3.52000006E-6,2.0000001E-3,,,,,-3.52000006E-6,0.0,,,,,-3.52000006E-6,400.00000596E-3,,,,,-3.52000006E-6,200.00000298E-3,,,,,-3.52000006E-6,0.0,
,,,-3.50000005E-6,0.0,,,,,-3.50000005E-6,0.0,,,,,-3.50000005E-6,0.0,,,,,-3.50000005E-6,0.0,,,,,-3.50000005E-6,0.0,
,,,-3.48000003E-6,2.0000001E-3,,,,,-3.48000003E-6,-4.00000019E-3,,,,,-3.48000003E-6,200.00000298E-3,,,,,-3.48000003E-6,-200.00000298E-3,,,,,-3.48000003E-6,400.00000596E-3,
,,,-3.46000002E-6,2.0000001E-3,,,,,-3.46000002E-6,0.0,,,,,-3.46000002E-6,0.0,,,,,-3.46000002E-6,0.0,,,,,-3.46000002E-6,0.0,
,,,-3.44000000E-6,2.0000001E-3,,,,,-3.44000000E-6,8.000000380E-3,,,,,-3.44000000E-6,0.0,,,,,-3.44000000E-6,200.00000298E-3,,,,,-3.44000000E-6,-400.00000596E-3,
,,,-3.41999998E-6,4.00000019E-3,,,,,-3.41999998E-6,4.00000019E-3,,,,,-3.41999998E-6,0.0,,,,,-3.41999998E-6,0.0,,,,,-3.41999998E-6,0.0,
,,,-3.39999997E-6,2.0000001E-3,,,,,-3.39999997E-6,0.0,,,,,-3.39999997E-6,0.0,,,,,-3.39999997E-6,-200.00000298E-3,,,,,-3.39999997E-6,0.0,
,,,-3.37999995E-6,-2.0000001E-3,,,,,-3.37999995E-6,0.0,,,,,-3.37999995E-6,-200.00000298E-3,,,,,-3.37999995E-6,0.0,,,,,-3.37999995E-6,-400.00000596E-3,
,,,-3.35999994E-6,4.00000019E-3,,,,,-3.35999994E-6,0.0,,,,,-3.35999994E-6,0.0,,,,,-3.35999994E-6,0.0,,,,,-3.35999994E-6,0.0,
,,,-3.33999992E-6,0.0,,,,,-3.33999992E-6,4.00000019E-3,,,,,-3.33999992E-6,200.00000298E-3,,,,,-3.33999992E-6,0.0,,,,,-3.33999992E-6,0.0,
,,,-3.31999991E-6,2.0000001E-3,,,,,-3.31999991E-6,0.0,,,,,-3.31999991E-6,-200.00000298E-3,,,,,-3.31999991E-6,0.0,,,,,-3.31999991E-6,-400.00000596E-3,
,,,-3.29999989E-6,0.0,,,,,-3.29999989E-6,0.0,,,,,-3.29999989E-6,0.0,,,,,-3.29999989E-6,0.0,,,,,-3.29999989E-6,0.0,
,,,-3.28000010E-6,2.0000001E-3,,,,,-3.28000010E-6,-4.00000019E-3,,,,,-3.28000010E-6,0.0,,,,,-3.28000010E-6,0.0,,,,,-3.28000010E-6,0.0,
,,,-3.26000008E-6,0.0,,,,,-3.26000008E-6,-4.00000019E-3,,,,,-3.26000008E-6,-200.00000298E-3,,,,,-3.26000008E-6,-200.00000298E-3,,,,,-3.26000008E-6,0.0,
,,,-3.24000007E-6,0.0,,,,,-3.24000007E-6,0.0,,,,,-3.24000007E-6,0.0,,,,,-3.24000007E-6,0.0,,,,,-3.24000007E-6,0.0,
,,,-3.22000005E-6,2.0000001E-3,,,,,-3.22000005E-6,4.00000019E-3,,,,,-3.22000005E-6,0.0,,,,,-3.22000005E-6,0.0,,,,,-3.22000005E-6,0.0,
,,,-3.20000004E-6,0.0,,,,,-3.20000004E-6,0.0,,,,,-3.20000004E-6,0.0,,,,,-3.20000004E-6,0.0,,,,,-3.20000004E-6,0.0,
,,,-3.18000002E-6,4.00000019E-3,,,,,-3.18000002E-6,0.0,,,,,-3.18000002E-6,0.0,,,,,-3.18000002E-6,0.0,,,,,-3.18000002E-6,0.0,
,,,-3.16000001E-6,4.00000019E-3,,,,,-3.16000001E-6,0.0,,,,,-3.16000001E-6,200.00000298E-3,,,,,-3.16000001E-6,0.0,,,,,-3.16000001E-6,0.0,
,,,-3.13999999E-6,0.0,,,,,-3.13999999E-6,0.0,,,,,-3.13999999E-6,0.0,,,,,-3.13999999E-6,0.0,,,,,-3.13999999E-6,0.0,
,,,-3.11999997E-6,2.0000001E-3,,,,,-3.11999997E-6,0.0,,,,,-3.11999997E-6,0.0,,,,,-3.11999997E-6,-200.00000298E-3,,,,,-3.11999997E-6,0.0,
,,,-3.09999996E-6,2.0000001E-3,,,,,-3.09999996E-6,0.0,,,,,-3.09999996E-6,0.0,,,,,-3.09999996E-6,0.0,,,,,-3.09999996E-6,0.0,
,,,-3.07999994E-6,0.0,,,,,-3.07999994E-6,4.00000019E-3,,,,,-3.07999994E-6,-200.00000298E-3,,,,,-3.07999994E-6,200.00000298E-3,,,,,-3.07999994E-6,-400.00000596E-3,
,,,-3.05999993E-6,2.0000001E-3,,,,,-3.05999993E-6,4.00000019E-3,,,,,-3.05999993E-6,0.0,,,,,-3.05999993E-6,-200.00000298E-3,,,,,-3.05999993E-6,0.0,
,,,-3.03999991E-6,4.00000019E-3,,,,,-3.03999991E-6,-4.00000019E-3,,,,,-3.03999991E-6,0.0,,,,,-3.03999991E-6,0.0,,,,,-3.03999991E-6,0.0,
,,,-3.01999989E-6,2.0000001E-3,,,,,-3.01999989E-6,0.0,,,,,-3.01999989E-6,200.00000298E-3,,,,,-3.01999989E-6,0.0,,,,,-3.01999989E-6,0.0,
,,,-3.00000011E-6,0.0,,,,,-3.00000011E-6,0.0,,,,,-3.00000011E-6,0.0,,,,,-3.00000011E-6,0.0,,,,,-3.00000011E-6,0.0,
,,,-2.98000009E-6,2.0000001E-3,,,,,-2.98000009E-6,0.0,,,,,-2.98000009E-6,0.0,,,,,-2.98000009E-6,0.0,,,,,-2.98000009E-6,0.0,
,,,-2.96000007E-6,2.0000001E-3,,,,,-2.96000007E-6,0.0,,,,,-2.96000007E-6,0.0,,,,,-2.96000007E-6,0.0,,,,,-2.96000007E-6,0.0,
,,,-2.94000006E-6,2.0000001E-3,,,,,-2.94000006E-6,0.0,,,,,-2.94000006E-6,0.0,,,,,-2.94000006E-6,200.00000298E-3,,,,,-2.94000006E-6,-400.00000596E-3,
,,,-2.92000004E-6,2.0000001E-3,,,,,-2.92000004E-6,-4.00000019E-3,,,,,-2.92000004E-6,0.0,,,,,-2.92000004E-6,200.00000298E-3,,,,,-2.92000004E-6,-400.00000596E-3,
,,,-2.90000003E-6,2.0000001E-3,,,,,-2.90000003E-6,0.0,,,,,-2.90000003E-6,200.00000298E-3,,,,,-2.90000003E-6,0.0,,,,,-2.90000003E-6,0.0,
,,,-2.88000001E-6,6.00000005E-3,,,,,-2.88000001E-6,4.00000019E-3,,,,,-2.88000001E-6,0.0,,,,,-2.88000001E-6,-200.00000298E-3,,,,,-2.88000001E-6,0.0,
,,,-2.86000000E-6,6.00000005E-3,,,,,-2.86000000E-6,-4.00000019E-3,,,,,-2.86000000E-6,0.0,,,,,-2.86000000E-6,0.0,,,,,-2.86000000E-6,0.0,
,,,-2.83999998E-6,6.00000005E-3,,,,,-2.83999998E-6,0.0,,,,,-2.83999998E-6,0.0,,,,,-2.83999998E-6,0.0,,,,,-2.83999998E-6,0.0,
,,,-2.81999996E-6,2.0000001E-3,,,,,-2.81999996E-6,0.0,,,,,-2.81999996E-6,0.0,,,,,-2.81999996E-6,0.0,,,,,-2.81999996E-6,0.0,
,,,-2.79999995E-6,-2.0000001E-3,,,,,-2.79999995E-6,-4.00000019E-3,,,,,-2.79999995E-6,200.00000298E-3,,,,,-2.79999995E-6,200.00000298E-3,,,,,-2.79999995E-6,0.0,
,,,-2.77999993E-6,0.0,,,,,-2.77999993E-6,0.0,,,,,-2.77999993E-6,-200.00000298E-3,,,,,-2.77999993E-6,0.0,,,,,-2.77999993E-6,-400.00000596E-3,
,,,-2.75999992E-6,2.0000001E-3,,,,,-2.75999992E-6,-4.00000019E-3,,,,,-2.75999992E-6,0.0,,,,,-2.75999992E-6,0.0,,,,,-2.75999992E-6,0.0,
,,,-2.73999990E-6,4.00000019E-3,,,,,-2.73999990E-6,0.0,,,,,-2.73999990E-6,0.0,,,,,-2.73999990E-6,200.00000298E-3,,,,,-2.73999990E-6,-400.00000596E-3,
,,,-2.71999988E-6,2.0000001E-3,,,,,-2.71999988E-6,0.0,,,,,-2.71999988E-6,200.00000298E-3,,,,,-2.71999988E-6,200.00000298E-3,,,,,-2.71999988E-6,0.0,
,,,-2.7000001E-6,2.0000001E-3,,,,,-2.7000001E-6,0.0,,,,,-2.7000001E-6,0.0,,,,,-2.7000001E-6,-200.00000298E-3,,,,,-2.7000001E-6,0.0,
,,,-2.6800001E-6,0.0,,,,,-2.6800001E-6,0.0,,,,,-2.6800001E-6,-200.00000298E-3,,,,,-2.6800001E-6,0.0,,,,,-2.6800001E-6,-400.00000596E-3,
,,,-2.6600001E-6,0.0,,,,,-2.6600001E-6,0.0,,,,,-2.6600001E-6,0.0,,,,,-2.6600001E-6,0.0,,,,,-2.6600001E-6,0.0,
,,,-2.6400000E-6,2.0000001E-3,,,,,-2.6400000E-6,0.0,,,,,-2.6400000E-6,200.00000298E-3,,,,,-2.6400000E-6,0.0,,,,,-2.6400000E-6,0.0,
,,,-2.6200000E-6,-2.0000001E-3,,,,,-2.6200000E-6,0.0,,,,,-2.6200000E-6,0.0,,,,,-2.6200000E-6,0.0,,,,,-2.6200000E-6,0.0,
,,,-2.6000000E-6,2.0000001E-3,,,,,-2.6000000E-6,0.0,,,,,-2.6000000E-6,-200.00000298E-3,,,,,-2.6000000E-6,0.0,,,,,-2.6000000E-6,-400.00000596E-3,
,,,-2.5800000E-6,2.0000001E-3,,,,,-2.5800000E-6,0.0,,,,,-2.5800000E-6,200.00000298E-3,,,,,-2.5800000E-6,0.0,,,,,-2.5800000E-6,0.0,
,,,-2.5600000E-6,4.00000019E-3,,,,,-2.5600000E-6,-4.00000019E-3,,,,,-2.5600000E-6,0.0,,,,,-2.5600000E-6,200.00000298E-3,,,,,-2.5600000E-6,-400.00000596E-3,
,,,-2.5400000E-6,2.0000001E-3,,,,,-2.5400000E-6,0.0,,,,,-2.5400000E-6,0.0,,,,,-2.5400000E-6,200.00000298E-3,,,,,-2.5400000E-6,-400.00000596E-3,
,,,-2.5200000E-6,2.0000001E-3,,,,,-2.5200000E-6,-4.00000019E-3,,,,,-2.5200000E-6,0.0,,,,,-2.5200000E-6,0.0,,,,,-2.5200000E-6,0.0,
,,,-2.4999999E-6,4.00000019E-3,,,,,-2.4999999E-6,0.0,,,,,-2.4999999E-6,-200.00000298E-3,,,,,-2.4999999E-6,0.0,,,,,-2.4999999E-6,-400.00000596E-3,
,,,-2.4799999E-6,2.0000001E-3,,,,,-2.4799999E-6,4.00000019E-3,,,,,-2.4799999E-6,-200.00000298E-3,,,,,-2.4799999E-6,200.00000298E-3,,,,,-2.4799999E-6,-400.00000596E-3,
,,,-2.4599999E-6,2.0000001E-3,,,,,-2.4599999E-6,0.0,,,,,-2.4599999E-6,0.0,,,,,-2.4599999E-6,0.0,,,,,-2.4599999E-6,0.0,
,,,-2.4399999E-6,0.0,,,,,-2.4399999E-6,0.0,,,,,-2.4399999E-6,-200.00000298E-3,,,,,-2.4399999E-6,0.0,,,,,-2.4399999E-6,-400.00000596E-3,
,,,-2.4200001E-6,2.0000001E-3,,,,,-2.4200001E-6,0.0,,,,,-2.4200001E-6,0.0,,,,,-2.4200001E-6,200.00000298E-3,,,,,-2.4200001E-6,-400.00000596E-3,
,,,-2.4000001E-6,2.0000001E-3,,,,,-2.4000001E-6,4.00000019E-3,,,,,-2.4000001E-6,0.0,,,,,-2.4000001E-6,0.0,,,,,-2.4000001E-6,0.0,
,,,-2.3800001E-6,0.0,,,,,-2.3800001E-6,4.00000019E-3,,,,,-2.3800001E-6,-200.00000298E-3,,,,,-2.3800001E-6,0.0,,,,,-2.3800001E-6,-400.00000596E-3,
,,,-2.3600001E-6,2.0000001E-3,,,,,-2.3600001E-6,0.0,,,,,-2.3600001E-6,0.0,,,,,-2.3600001E-6,-200.00000298E-3,,,,,-2.3600001E-6,0.0,
,,,-2.3400000E-6,0.0,,,,,-2.3400000E-6,0.0,,,,,-2.3400000E-6,200.00000298E-3,,,,,-2.3400000E-6,0.0,,,,,-2.3400000E-6,0.0,
,,,-2.3200000E-6,0.0,,,,,-2.3200000E-6,0.0,,,,,-2.3200000E-6,0.0,,,,,-2.3200000E-6,0.0,,,,,-2.3200000E-6,0.0,
,,,-2.3000000E-6,4.00000019E-3,,,,,-2.3000000E-6,0.0,,,,,-2.3000000E-6,-200.00000298E-3,,,,,-2.3000000E-6,-200.00000298E-3,,,,,-2.3000000E-6,0.0,
,,,-2.2800000E-6,2.0000001E-3,,,,,-2.2800000E-6,0.0,,,,,-2.2800000E-6,0.0,,,,,-2.2800000E-6,-200.00000298E-3,,,,,-2.2800000E-6,0.0,
,,,-2.2600000E-6,4.00000019E-3,,,,,-2.2600000E-6,0.0,,,,,-2.2600000E-6,200.00000298E-3,,,,,-2.2600000E-6,-200.00000298E-3,,,,,-2.2600000E-6,400.00000596E-3,
,,,-2.2400000E-6,2.0000001E-3,,,,,-2.2400000E-6,-4.00000019E-3,,,,,-2.2400000E-6,-200.00000298E-3,,,,,-2.2400000E-6,0.0,,,,,-2.2400000E-6,-400.00000596E-3,
,,,-2.2199999E-6,4.00000019E-3,,,,,-2.2199999E-6,0.0,,,,,-2.2199999E-6,0.0,,,,,-2.2199999E-6,-200.00000298E-3,,,,,-2.2199999E-6,0.0,
,,,-2.1999999E-6,2.0000001E-3,,,,,-2.1999999E-6,0.0,,,,,-2.1999999E-6,-200.00000298E-3,,,,,-2.1999999E-6,0.0,,,,,-2.1999999E-6,-400.00000596E-3,
,,,-2.1799999E-6,0.0,,,,,-2.1799999E-6,0.0,,,,,-2.1799999E-6,0.0,,,,,-2.1799999E-6,0.0,,,,,-2.1799999E-6,0.0,
,,,-2.1599999E-6,0.0,,,,,-2.1599999E-6,-4.00000019E-3,,,,,-2.1599999E-6,200.00000298E-3,,,,,-2.1599999E-6,0.0,,,,,-2.1599999E-6,0.0,
,,,-2.1400001E-6,6.00000005E-3,,,,,-2.1400001E-6,0.0,,,,,-2.1400001E-6,0.0,,,,,-2.1400001E-6,0.0,,,,,-2.1400001E-6,0.0,
,,,-2.1200001E-6,0.0,,,,,-2.1200001E-6,-4.00000019E-3,,,,,-2.1200001E-6,0.0,,,,,-2.1200001E-6,200.00000298E-3,,,,,-2.1200001E-6,-400.00000596E-3,
,,,-2.1000001E-6,2.0000001E-3,,,,,-2.1000001E-6,0.0,,,,,-2.1000001E-6,0.0,,,,,-2.1000001E-6,0.0,,,,,-2.1000001E-6,0.0,
,,,-2.0800001E-6,0.0,,,,,-2.0800001E-6,0.0,,,,,-2.0800001E-6,200.00000298E-3,,,,,-2.0800001E-6,200.00000298E-3,,,,,-2.0800001E-6,0.0,
,,,-2.0600000E-6,0.0,,,,,-2.0600000E-6,0.0,,,,,-2.0600000E-6,200.00000298E-3,,,,,-2.0600000E-6,0.0,,,,,-2.0600000E-6,0.0,
,,,-2.0400000E-6,4.00000019E-3,,,,,-2.0400000E-6,0.0,,,,,-2.0400000E-6,-200.00000298E-3,,,,,-2.0400000E-6,-200.00000298E-3,,,,,-2.0400000E-6,0.0,
,,,-2.0200000E-6,2.0000001E-3,,,,,-2.0200000E-6,0.0,,,,,-2.0200000E-6,0.0,,,,,-2.0200000E-6,200.00000298E-3,,,,,-2.0200000E-6,-400.00000596E-3,
,,,-2.0000000E-6,-20.0000014E-3,,,,,-2.0000000E-6,-8.000000380E-3,,,,,-2.0000000E-6,0.0,,,,,-2.0000000E-6,0.0,,,,,-2.0000000E-6,0.0,
,,,-1.9800000E-6,8.000000380E-3,,,,,-1.9800000E-6,32.00000152E-3,,,,,-1.9800000E-6,-200.00000298E-3,,,,,-1.9800000E-6,200.00000298E-3,,,,,-1.9800000E-6,-400.00000596E-3,
,,,-1.9600000E-6,-20.0000014E-3,,,,,-1.9600000E-6,52.00000107E-3,,,,,-1.9600000E-6,-200.00000298E-3,,,,,-1.9600000E-6,400.00000596E-3,,,,,-1.9600000E-6,-800.000011921E-3,
,,,-1.9399999E-6,-36.00000218E-3,,,,,-1.9399999E-6,56.000001729E-3,,,,,-1.9399999E-6,-400.00000596E-3,,,,,-1.9399999E-6,200.00000298E-3,,,,,-1.9399999E-6,-800.000011921E-3,
,,,-1.9199999E-6,-42.00000316E-3,,,,,-1.9199999E-6,76.000005007E-3,,,,,-1.9199999E-6,-800.000011921E-3,,,,,-1.9199999E-6,800.000011921E-3,,,,,-1.9199999E-6,-1.6000000,
,,,-1.9000000E-6,6.00000005E-3,,,,,-1.9000000E-6,120.0000048E-3,,,,,-1.9000000E-6,-600.000023842E-3,,,,,-1.9000000E-6,800.000011921E-3,,,,,-1.9000000E-6,-1.6000000,
,,,-1.8800000E-6,-12.0000001E-3,,,,,-1.8800000E-6,76.000005007E-3,,,,,-1.8800000E-6,-1.000000,,,,,-1.8800000E-6,800.000011921E-3,,,,,-1.8800000E-6,-2.0000000,
,,,-1.8600000E-6,-36.00000218E-3,,,,,-1.8600000E-6,80.000005662E-3,,,,,-1.8600000E-6,-1.2000000,,,,,-1.8600000E-6,600.000023842E-3,,,,,-1.8600000E-6,-2.0000000,
,,,-1.8400000E-6,-10.0000007E-3,,,,,-1.8400000E-6,112.0000035E-3,,,,,-1.8400000E-6,-1.000000,,,,,-1.8400000E-6,800.000011921E-3,,,,,-1.8400000E-6,-2.0000000,
,,,-1.8200000E-6,-10.0000007E-3,,,,,-1.8200000E-6,88.000006974E-3,,,,,-1.8200000E-6,-1.000000,,,,,-1.8200000E-6,800.000011921E-3,,,,,-1.8200000E-6,-2.0000000,
,,,-1.7999999E-6,-30.00000119E-3,,,,,-1.7999999E-6,68.000003695E-3,,,,,-1.7999999E-6,-1.2000000,,,,,-1.7999999E-6,600.000023842E-3,,,,,-1.7999999E-6,-2.0000000,
,,,-1.7800000E-6,-24.00000021E-3,,,,,-1.7800000E-6,108.0000028E-3,,,,,-1.7800000E-6,-1.2000000,,,,,-1.7800000E-6,1.000000,,,,,-1.7800000E-6,-2.4000001,
,,,-1.7600000E-6,-24.00000021E-3,,,,,-1.7600000E-6,84.000006318E-3,,,,,-1.7600000E-6,-1.2000000,,,,,-1.7600000E-6,800.000011921E-3,,,,,-1.7600000E-6,-2.0000000,
,,,-1.7400000E-6,-18.0000011E-3,,,,,-1.7400000E-6,44.00000349E-3,,,,,-1.7400000E-6,-1.2000000,,,,,-1.7400000E-6,1.000000,,,,,-1.7400000E-6,-2.4000001,
,,,-1.7200000E-6,-14.0000004E-3,,,,,-1.7200000E-6,64.000003040E-3,,,,,-1.7200000E-6,-1.2000000,,,,,-1.7200000E-6,1.2000000,,,,,-1.7200000E-6,-2.4000001,
,,,-1.7000000E-6,-12.0000001E-3,,,,,-1.7000000E-6,56.000001729E-3,,,,,-1.7000000E-6,-1.000000,,,,,-1.7000000E-6,1.000000,,,,,-1.7000000E-6,-2.0000000,
,,,-1.6800000E-6,-12.0000001E-3,,,,,-1.6800000E-6,28.00000086E-3,,,,,-1.6800000E-6,-1.000000,,,,,-1.6800000E-6,1.000000,,,,,-1.6800000E-6,-2.0000000,
,,,-1.6600000E-6,-8.000000380E-3,,,,,-1.6600000E-6,40.00000283E-3,,,,,-1.6600000E-6,-1.000000,,,,,-1.6600000E-6,1.000000,,,,,-1.6600000E-6,-2.0000000,
,,,-1.6400001E-6,-6.00000005E-3,,,,,-1.6400001E-6,28.00000086E-3,,,,,-1.6400001E-6,-1.000000,,,,,-1.6400001E-6,600.000023842E-3,,,,,-1.6400001E-6,-1.6000000,
,,,-1.6200000E-6,2.0000001E-3,,,,,-1.6200000E-6,4.00000019E-3,,,,,-1.6200000E-6,-1.000000,,,,,-1.6200000E-6,800.000011921E-3,,,,,-1.6200000E-6,-2.0000000,
,,,-1.6000000E-6,2.0000001E-3,,,,,-1.6000000E-6,-12.0000001E-3,,,,,-1.6000000E-6,-800.000011921E-3,,,,,-1.6000000E-6,800.000011921E-3,,,,,-1.6000000E-6,-1.6000000,
,,,-1.5800000E-6,2.0000001E-3,,,,,-1.5800000E-6,-12.0000001E-3,,,,,-1.5800000E-6,-1.000000,,,,,-1.5800000E-6,600.000023842E-3,,,,,-1.5800000E-6,-1.6000000,
,,,-1.5600000E-6,8.000000380E-3,,,,,-1.5600000E-6,-8.000000380E-3,,,,,-1.5600000E-6,-800.000011921E-3,,,,,-1.5600000E-6,800.000011921E-3,,,,,-1.5600000E-6,-1.6000000,
,,,-1.5400000E-6,8.000000380E-3,,,,,-1.5400000E-6,-24.00000021E-3,,,,,-1.5400000E-6,-600.000023842E-3,,,,,-1.5400000E-6,800.000011921E-3,,,,,-1.5400000E-6,-1.6000000,
,,,-1.5200000E-6,12.0000001E-3,,,,,-1.5200000E-6,-44.00000349E-3,,,,,-1.5200000E-6,-400.00000596E-3,,,,,-1.5200000E-6,600.000023842E-3,,,,,-1.5200000E-6,-1.2000000,
,,,-1.5000001E-6,14.0000004E-3,,,,,-1.5000001E-6,-52.00000107E-3,,,,,-1.5000001E-6,-400.00000596E-3,,,,,-1.5000001E-6,600.000023842E-3,,,,,-1.5000001E-6,-1.2000000,
,,,-1.4800000E-6,18.0000011E-3,,,,,-1.4800000E-6,-48.00000042E-3,,,,,-1.4800000E-6,-200.00000298E-3,,,,,-1.4800000E-6,400.00000596E-3,,,,,-1.4800000E-6,-800.000011921E-3,
,,,-1.4600000E-6,18.0000011E-3,,,,,-1.4600000E-6,-56.000001729E-3,,,,,-1.4600000E-6,0.0,,,,,-1.4600000E-6,400.00000596E-3,,,,,-1.4600000E-6,-400.00000596E-3,
,,,-1.4400000E-6,22.00000174E-3,,,,,-1.4400000E-6,-72.000004351E-3,,,,,-1.4400000E-6,200.00000298E-3,,,,,-1.4400000E-6,200.00000298E-3,,,,,-1.4400000E-6,0.0,
,,,-1.4200000E-6,22.00000174E-3,,,,,-1.4200000E-6,-76.000005007E-3,,,,,-1.4200000E-6,0.0,,,,,-1.4200000E-6,200.00000298E-3,,,,,-1.4200000E-6,-400.00000596E-3,
,,,-1.4000000E-6,20.0000014E-3,,,,,-1.4000000E-6,-72.000004351E-3,,,,,-1.4000000E-6,200.00000298E-3,,,,,-1.4000000E-6,0.0,,,,,-1.4000000E-6,0.0,
