12_5_cm/10_5_kV_O1_Mir.csv

Record Length,2500,Points,-276.00000863E-9,39.99999911E-3,,Record Length,2500,Points,-276.00000863E-9,599.999964237E-3,,Record Length,2500,Points,-276.00000863E-9,8.000000000,
Sample Interval,400.00000370E-12,s,-275.60000149E-9,39.99999911E-3,,Sample Interval,400.00000370E-12,s,-275.60000149E-9,599.999964237E-3,,Sample Interval,400.00000370E-12,s,-275.60000149E-9,8.000000000,
Trigger Point,690.000012351,Samples,-275.20002277E-9,79.999998212E-3,,Trigger Point,690.000012351,Samples,-275.20002277E-9,599.999964237E-3,,Trigger Point,690.000012351,Samples,-275.20002277E-9,8.000000000,
,,,-274.80001563E-9,39.99999911E-3,,,,,-274.80001563E-9,599.999964237E-3,,,,,-274.80001563E-9,8.000000000,
,,,-274.40000849E-9,39.99999911E-3,,,,,-274.40000849E-9,599.999964237E-3,,,,,-274.40000849E-9,8.000000000,
,,,-274.00000135E-9,0.0,,,,,-274.00000135E-9,560.000002384E-3,,,,,-274.00000135E-9,8.400000572,
Source,CH1,,-273.60002264E-9,0.0,,Source,CH2,,-273.60002264E-9,560.000002384E-3,,Source,MATH,,-273.60002264E-9,8.400000572,
Vertical Units,Volts,,-273.20001550E-9,0.0,,Vertical Units,Volts,,-273.20001550E-9,560.000002384E-3,,Vertical Units,Volts,,-273.20001550E-9,8.400000572,
Vertical Scale,999.999977648E-3,,-272.80000836E-9,0.0,,Vertical Scale,999.999977648E-3,,-272.80000836E-9,560.000002384E-3,,Vertical Scale,10.0000001,,-272.80000836E-9,8.800000191,
Vertical Offset,0,,-272.40000122E-9,39.99999911E-3,,Vertical Offset,0,,-272.40000122E-9,560.000002384E-3,,Vertical Offset,0,,-272.40000122E-9,8.800000191,
Horizontal Units,s,,-272.00002251E-9,39.99999911E-3,,Horizontal Units,s,,-272.00002251E-9,519.999980927E-3,,Horizontal Units,s,,-272.00002251E-9,8.800000191,
Horizontal Scale,100.0000013E-9,,-271.60001537E-9,39.99999911E-3,,Horizontal Scale,100.0000013E-9,,-271.60001537E-9,519.999980927E-3,,Horizontal Scale,100.0000013E-9,,-271.60001537E-9,8.800000191,
Pt Fmt,Y,,-271.20000823E-9,39.99999911E-3,,Pt Fmt,Y,,-271.20000823E-9,519.999980927E-3,,Pt Fmt,Y,,-271.20000823E-9,8.800000191,
Yzero,-1.7200000,,-270.80000109E-9,39.99999911E-3,,Yzero,-1.5600000,,-270.80000109E-9,519.999980927E-3,,Yzero,0.0,,-270.80000109E-9,8.800000191,
Probe Atten,1.000000,,-270.40002237E-9,79.999998212E-3,,Probe Atten,1.000000,,-270.40002237E-9,519.999980927E-3,,,,,-270.40002237E-9,8.800000191,
,,,-270.00001523E-9,79.999998212E-3,,,,,-270.00001523E-9,519.999980927E-3,,,,,-270.00001523E-9,8.800000191,
Note,TBS 1104 - 3:29:33 PM   2/3/2026,,-269.60000810E-9,79.999998212E-3,,Note,TBS 1104 - 3:29:33 PM   2/3/2026,,-269.60000810E-9,519.999980927E-3,,Note,TBS 1104 - 3:29:33 PM   2/3/2026,,-269.60000810E-9,8.800000191,
,,,-269.20000096E-9,79.999998212E-3,,,,,-269.20000096E-9,519.999980927E-3,,,,,-269.20000096E-9,8.800000191,
,,,-268.80002224E-9,79.999998212E-3,,,,,-268.80002224E-9,519.999980927E-3,,,,,-268.80002224E-9,8.800000191,
,,,-268.40001510E-9,79.999998212E-3,,,,,-268.40001510E-9,519.999980927E-3,,,,,-268.40001510E-9,8.800000191,
,,,-268.00000796E-9,79.999998212E-3,,,,,-268.00000796E-9,519.999980927E-3,,,,,-268.00000796E-9,9.199999809,
,,,-267.60000083E-9,79.999998212E-3,,,,,-267.60000083E-9,519.999980927E-3,,,,,-267.60000083E-9,9.199999809,
,,,-267.20002211E-9,119.9999973E-3,,,,,-267.20002211E-9,519.999980927E-3,,,,,-267.20002211E-9,9.199999809,
,,,-266.80001497E-9,119.9999973E-3,,,,,-266.80001497E-9,519.999980927E-3,,,,,-266.80001497E-9,8.800000191,
,,,-266.40000783E-9,119.9999973E-3,,,,,-266.40000783E-9,519.999980927E-3,,,,,-266.40000783E-9,8.800000191,
,,,-266.00000069E-9,119.9999973E-3,,,,,-266.00000069E-9,519.999980927E-3,,,,,-266.00000069E-9,8.800000191,
,,,-265.60002198E-9,119.9999973E-3,,,,,-265.60002198E-9,519.999980927E-3,,,,,-265.60002198E-9,8.400000572,
,,,-265.20001484E-9,119.9999973E-3,,,,,-265.20001484E-9,519.999980927E-3,,,,,-265.20001484E-9,8.400000572,
,,,-264.80000770E-9,119.9999973E-3,,,,,-264.80000770E-9,519.999980927E-3,,,,,-264.80000770E-9,8.400000572,
,,,-264.40000056E-9,119.9999973E-3,,,,,-264.40000056E-9,519.999980927E-3,,,,,-264.40000056E-9,8.400000572,
,,,-264.00002184E-9,119.9999973E-3,,,,,-264.00002184E-9,519.999980927E-3,,,,,-264.00002184E-9,8.400000572,
,,,-263.60001470E-9,119.9999973E-3,,,,,-263.60001470E-9,519.999980927E-3,,,,,-263.60001470E-9,8.400000572,
,,,-263.20000757E-9,79.999998212E-3,,,,,-263.20000757E-9,560.000002384E-3,,,,,-263.20000757E-9,8.400000572,
,,,-262.80000043E-9,79.999998212E-3,,,,,-262.80000043E-9,560.000002384E-3,,,,,-262.80000043E-9,8.000000000,
,,,-262.40002171E-9,79.999998212E-3,,,,,-262.40002171E-9,560.000002384E-3,,,,,-262.40002171E-9,8.000000000,
,,,-262.00001457E-9,39.99999911E-3,,,,,-262.00001457E-9,519.999980927E-3,,,,,-262.00001457E-9,8.000000000,
,,,-261.60000743E-9,39.99999911E-3,,,,,-261.60000743E-9,519.999980927E-3,,,,,-261.60000743E-9,8.000000000,
,,,-261.20000030E-9,39.99999911E-3,,,,,-261.20000030E-9,479.999989271E-3,,,,,-261.20000030E-9,8.400000572,
,,,-260.80002158E-9,39.99999911E-3,,,,,-260.80002158E-9,479.999989271E-3,,,,,-260.80002158E-9,8.400000572,
,,,-260.40001444E-9,79.999998212E-3,,,,,-260.40001444E-9,479.999989271E-3,,,,,-260.40001444E-9,8.400000572,
,,,-260.00000730E-9,79.999998212E-3,,,,,-260.00000730E-9,479.999989271E-3,,,,,-260.00000730E-9,8.400000572,
,,,-259.60000016E-9,119.9999973E-3,,,,,-259.60000016E-9,479.999989271E-3,,,,,-259.60000016E-9,8.400000572,
,,,-259.20002145E-9,79.999998212E-3,,,,,-259.20002145E-9,519.999980927E-3,,,,,-259.20002145E-9,8.400000572,
,,,-258.80001431E-9,79.999998212E-3,,,,,-258.80001431E-9,479.999989271E-3,,,,,-258.80001431E-9,8.400000572,
,,,-258.40000717E-9,79.999998212E-3,,,,,-258.40000717E-9,479.999989271E-3,,,,,-258.40000717E-9,8.400000572,
,,,-258.00000003E-9,79.999998212E-3,,,,,-258.00000003E-9,439.999997616E-3,,,,,-258.00000003E-9,8.400000572,
,,,-257.60002131E-9,79.999998212E-3,,,,,-257.60002131E-9,439.999997616E-3,,,,,-257.60002131E-9,8.400000572,
,,,-257.20001418E-9,119.9999973E-3,,,,,-257.20001418E-9,439.999997616E-3,,,,,-257.20001418E-9,8.800000191,
,,,-256.80000704E-9,119.9999973E-3,,,,,-256.80000704E-9,439.999997616E-3,,,,,-256.80000704E-9,8.800000191,
,,,-256.39999990E-9,119.9999973E-3,,,,,-256.39999990E-9,479.999989271E-3,,,,,-256.39999990E-9,8.800000191,
,,,-256.00002118E-9,119.9999973E-3,,,,,-256.00002118E-9,479.999989271E-3,,,,,-256.00002118E-9,8.800000191,
,,,-255.60001404E-9,119.9999973E-3,,,,,-255.60001404E-9,479.999989271E-3,,,,,-255.60001404E-9,8.800000191,
,,,-255.20000690E-9,119.9999973E-3,,,,,-255.20000690E-9,479.999989271E-3,,,,,-255.20000690E-9,8.800000191,
,,,-254.79999977E-9,119.9999973E-3,,,,,-254.79999977E-9,479.999989271E-3,,,,,-254.79999977E-9,8.800000191,
,,,-254.40002105E-9,159.99999642E-3,,,,,-254.40002105E-9,479.999989271E-3,,,,,-254.40002105E-9,8.800000191,
,,,-254.00001391E-9,159.99999642E-3,,,,,-254.00001391E-9,479.999989271E-3,,,,,-254.00001391E-9,8.800000191,
,,,-253.60000677E-9,159.99999642E-3,,,,,-253.60000677E-9,479.999989271E-3,,,,,-253.60000677E-9,8.800000191,
,,,-253.19999963E-9,199.99998808E-3,,,,,-253.19999963E-9,439.999997616E-3,,,,,-253.19999963E-9,8.800000191,
,,,-252.80002092E-9,199.99998808E-3,,,,,-252.80002092E-9,399.99997616E-3,,,,,-252.80002092E-9,9.199999809,
,,,-252.40001378E-9,199.99998808E-3,,,,,-252.40001378E-9,399.99997616E-3,,,,,-252.40001378E-9,9.199999809,
,,,-252.00000664E-9,159.99999642E-3,,,,,-252.00000664E-9,359.99998450E-3,,,,,-252.00000664E-9,9.199999809,
,,,-251.59999950E-9,159.99999642E-3,,,,,-251.59999950E-9,359.99998450E-3,,,,,-251.59999950E-9,9.199999809,
,,,-251.20002078E-9,159.99999642E-3,,,,,-251.20002078E-9,399.99997616E-3,,,,,-251.20002078E-9,9.199999809,
,,,-250.80001365E-9,159.99999642E-3,,,,,-250.80001365E-9,399.99997616E-3,,,,,-250.80001365E-9,9.199999809,
,,,-250.40000651E-9,199.99998808E-3,,,,,-250.40000651E-9,439.999997616E-3,,,,,-250.40000651E-9,9.199999809,
,,,-249.99999937E-9,159.99999642E-3,,,,,-249.99999937E-9,439.999997616E-3,,,,,-249.99999937E-9,9.199999809,
,,,-249.60002065E-9,159.99999642E-3,,,,,-249.60002065E-9,439.999997616E-3,,,,,-249.60002065E-9,8.800000191,
,,,-249.20001351E-9,159.99999642E-3,,,,,-249.20001351E-9,399.99997616E-3,,,,,-249.20001351E-9,8.800000191,
,,,-248.80000637E-9,159.99999642E-3,,,,,-248.80000637E-9,359.99998450E-3,,,,,-248.80000637E-9,9.199999809,
,,,-248.39999924E-9,159.99999642E-3,,,,,-248.39999924E-9,359.99998450E-3,,,,,-248.39999924E-9,9.199999809,
,,,-248.00002052E-9,119.9999973E-3,,,,,-248.00002052E-9,319.99999285E-3,,,,,-248.00002052E-9,9.600000381,
,,,-247.60001338E-9,119.9999973E-3,,,,,-247.60001338E-9,319.99999285E-3,,,,,-247.60001338E-9,9.600000381,
,,,-247.20000624E-9,79.999998212E-3,,,,,-247.20000624E-9,359.99998450E-3,,,,,-247.20000624E-9,9.600000381,
,,,-246.79999910E-9,79.999998212E-3,,,,,-246.79999910E-9,359.99998450E-3,,,,,-246.79999910E-9,9.199999809,
,,,-246.40002039E-9,119.9999973E-3,,,,,-246.40002039E-9,399.99997616E-3,,,,,-246.40002039E-9,8.800000191,
,,,-246.00001325E-9,119.9999973E-3,,,,,-246.00001325E-9,399.99997616E-3,,,,,-246.00001325E-9,8.800000191,
,,,-245.60000611E-9,159.99999642E-3,,,,,-245.60000611E-9,439.999997616E-3,,,,,-245.60000611E-9,8.800000191,
,,,-245.19999897E-9,199.99998808E-3,,,,,-245.19999897E-9,399.99997616E-3,,,,,-245.19999897E-9,9.199999809,
,,,-244.80002025E-9,199.99998808E-3,,,,,-244.80002025E-9,399.99997616E-3,,,,,-244.80002025E-9,9.199999809,
,,,-244.40001312E-9,239.99999464E-3,,,,,-244.40001312E-9,399.99997616E-3,,,,,-244.40001312E-9,9.199999809,
,,,-244.00000598E-9,199.99998808E-3,,,,,-244.00000598E-9,399.99997616E-3,,,,,-244.00000598E-9,9.600000381,
,,,-243.59999884E-9,199.99998808E-3,,,,,-243.59999884E-9,399.99997616E-3,,,,,-243.59999884E-9,9.199999809,
,,,-243.20002012E-9,199.99998808E-3,,,,,-243.20002012E-9,399.99997616E-3,,,,,-243.20002012E-9,9.199999809,
,,,-242.80001298E-9,199.99998808E-3,,,,,-242.80001298E-9,399.99997616E-3,,,,,-242.80001298E-9,9.199999809,
,,,-242.40000585E-9,199.99998808E-3,,,,,-242.40000585E-9,399.99997616E-3,,,,,-242.40000585E-9,9.199999809,
,,,-241.99999871E-9,199.99998808E-3,,,,,-241.99999871E-9,399.99997616E-3,,,,,-241.99999871E-9,9.199999809,
,,,-241.60001999E-9,199.99998808E-3,,,,,-241.60001999E-9,399.99997616E-3,,,,,-241.60001999E-9,9.199999809,
,,,-241.20001285E-9,159.99999642E-3,,,,,-241.20001285E-9,439.999997616E-3,,,,,-241.20001285E-9,9.199999809,
,,,-240.80000571E-9,119.9999973E-3,,,,,-240.80000571E-9,439.999997616E-3,,,,,-240.80000571E-9,9.600000381,
,,,-240.39999857E-9,119.9999973E-3,,,,,-240.39999857E-9,439.999997616E-3,,,,,-240.39999857E-9,9.600000381,
,,,-240.00001986E-9,79.999998212E-3,,,,,-240.00001986E-9,439.999997616E-3,,,,,-240.00001986E-9,9.600000381,
,,,-239.60001272E-9,79.999998212E-3,,,,,-239.60001272E-9,439.999997616E-3,,,,,-239.60001272E-9,9.600000381,
,,,-239.20000558E-9,39.99999911E-3,,,,,-239.20000558E-9,399.99997616E-3,,,,,-239.20000558E-9,9.600000381,
,,,-238.79999844E-9,39.99999911E-3,,,,,-238.79999844E-9,359.99998450E-3,,,,,-238.79999844E-9,9.600000381,
,,,-238.40000551E-9,39.99999911E-3,,,,,-238.40000551E-9,359.99998450E-3,,,,,-238.40000551E-9,10.0000000,
,,,-238.00001259E-9,0.0,,,,,-238.00001259E-9,319.99999285E-3,,,,,-238.00001259E-9,10.0000000,
,,,-237.60000545E-9,39.99999911E-3,,,,,-237.60000545E-9,319.99999285E-3,,,,,-237.60000545E-9,10.0000000,
,,,-237.20001252E-9,39.99999911E-3,,,,,-237.20001252E-9,319.99999285E-3,,,,,-237.20001252E-9,10.0000000,
,,,-236.80000538E-9,39.99999911E-3,,,,,-236.80000538E-9,319.99999285E-3,,,,,-236.80000538E-9,10.0000000,
,,,-236.40001245E-9,79.999998212E-3,,,,,-236.40001245E-9,359.99998450E-3,,,,,-236.40001245E-9,10.0000000,
,,,-236.00000532E-9,79.999998212E-3,,,,,-236.00000532E-9,359.99998450E-3,,,,,-236.00000532E-9,10.0000000,
,,,-235.60001239E-9,79.999998212E-3,,,,,-235.60001239E-9,359.99998450E-3,,,,,-235.60001239E-9,10.0000000,
,,,-235.20000525E-9,79.999998212E-3,,,,,-235.20000525E-9,359.99998450E-3,,,,,-235.20000525E-9,10.0000000,
,,,-234.80001232E-9,79.999998212E-3,,,,,-234.80001232E-9,359.99998450E-3,,,,,-234.80001232E-9,10.0000000,
,,,-234.40000518E-9,119.9999973E-3,,,,,-234.40000518E-9,399.99997616E-3,,,,,-234.40000518E-9,10.0000000,
,,,-234.00001226E-9,79.999998212E-3,,,,,-234.00001226E-9,399.99997616E-3,,,,,-234.00001226E-9,10.0000000,
,,,-233.60000512E-9,79.999998212E-3,,,,,-233.60000512E-9,399.99997616E-3,,,,,-233.60000512E-9,10.4000006,
,,,-233.20001219E-9,39.99999911E-3,,,,,-233.20001219E-9,399.99997616E-3,,,,,-233.20001219E-9,10.4000006,
,,,-232.80000505E-9,39.99999911E-3,,,,,-232.80000505E-9,399.99997616E-3,,,,,-232.80000505E-9,10.4000006,
,,,-232.40001212E-9,79.999998212E-3,,,,,-232.40001212E-9,439.999997616E-3,,,,,-232.40001212E-9,10.4000006,
,,,-232.00000498E-9,79.999998212E-3,,,,,-232.00000498E-9,439.999997616E-3,,,,,-232.00000498E-9,10.4000006,
,,,-231.60001206E-9,119.9999973E-3,,,,,-231.60001206E-9,439.999997616E-3,,,,,-231.60001206E-9,10.4000006,
,,,-231.20000492E-9,159.99999642E-3,,,,,-231.20000492E-9,479.999989271E-3,,,,,-231.20000492E-9,10.4000006,
,,,-230.80001199E-9,159.99999642E-3,,,,,-230.80001199E-9,479.999989271E-3,,,,,-230.80001199E-9,10.4000006,
,,,-230.40000485E-9,199.99998808E-3,,,,,-230.40000485E-9,519.999980927E-3,,,,,-230.40000485E-9,10.4000006,
,,,-230.00001192E-9,159.99999642E-3,,,,,-230.00001192E-9,519.999980927E-3,,,,,-230.00001192E-9,10.4000006,
,,,-229.60000479E-9,159.99999642E-3,,,,,-229.60000479E-9,560.000002384E-3,,,,,-229.60000479E-9,10.4000006,
,,,-229.20001186E-9,119.9999973E-3,,,,,-229.20001186E-9,519.999980927E-3,,,,,-229.20001186E-9,10.4000006,
,,,-228.80000472E-9,79.999998212E-3,,,,,-228.80000472E-9,519.999980927E-3,,,,,-228.80000472E-9,10.4000006,
,,,-228.40001179E-9,79.999998212E-3,,,,,-228.40001179E-9,519.999980927E-3,,,,,-228.40001179E-9,10.4000006,
,,,-228.00000465E-9,39.99999911E-3,,,,,-228.00000465E-9,519.999980927E-3,,,,,-228.00000465E-9,10.4000006,
,,,-227.60001173E-9,0.0,,,,,-227.60001173E-9,519.999980927E-3,,,,,-227.60001173E-9,10.4000006,
,,,-227.20000459E-9,-39.99999911E-3,,,,,-227.20000459E-9,479.999989271E-3,,,,,-227.20000459E-9,10.4000006,
,,,-226.80001166E-9,-39.99999911E-3,,,,,-226.80001166E-9,439.999997616E-3,,,,,-226.80001166E-9,10.4000006,
,,,-226.40000452E-9,-39.99999911E-3,,,,,-226.40000452E-9,439.999997616E-3,,,,,-226.40000452E-9,10.4000006,
,,,-226.00001159E-9,-39.99999911E-3,,,,,-226.00001159E-9,399.99997616E-3,,,,,-226.00001159E-9,10.8000002,
,,,-225.60000446E-9,-39.99999911E-3,,,,,-225.60000446E-9,399.99997616E-3,,,,,-225.60000446E-9,10.8000002,
,,,-225.20001153E-9,0.0,,,,,-225.20001153E-9,399.99997616E-3,,,,,-225.20001153E-9,10.8000002,
,,,-224.80000439E-9,0.0,,,,,-224.80000439E-9,399.99997616E-3,,,,,-224.80000439E-9,10.8000002,
,,,-224.40001146E-9,0.0,,,,,-224.40001146E-9,439.999997616E-3,,,,,-224.40001146E-9,10.4000006,
,,,-224.00000432E-9,0.0,,,,,-224.00000432E-9,439.999997616E-3,,,,,-224.00000432E-9,10.8000002,
,,,-223.60001140E-9,0.0,,,,,-223.60001140E-9,439.999997616E-3,,,,,-223.60001140E-9,10.8000002,
,,,-223.20000426E-9,0.0,,,,,-223.20000426E-9,439.999997616E-3,,,,,-223.20000426E-9,10.8000002,
,,,-222.80001133E-9,0.0,,,,,-222.80001133E-9,439.999997616E-3,,,,,-222.80001133E-9,10.8000002,
,,,-222.40000419E-9,39.99999911E-3,,,,,-222.40000419E-9,479.999989271E-3,,,,,-222.40000419E-9,10.8000002,
,,,-222.00001126E-9,79.999998212E-3,,,,,-222.00001126E-9,479.999989271E-3,,,,,-222.00001126E-9,10.8000002,
,,,-221.60000412E-9,79.999998212E-3,,,,,-221.60000412E-9,519.999980927E-3,,,,,-221.60000412E-9,11.1999998,
,,,-221.20001120E-9,119.9999973E-3,,,,,-221.20001120E-9,560.000002384E-3,,,,,-221.20001120E-9,11.1999998,
,,,-220.80000406E-9,79.999998212E-3,,,,,-220.80000406E-9,560.000002384E-3,,,,,-220.80000406E-9,11.1999998,
,,,-220.40001113E-9,79.999998212E-3,,,,,-220.40001113E-9,560.000002384E-3,,,,,-220.40001113E-9,11.1999998,
,,,-220.00000399E-9,79.999998212E-3,,,,,-220.00000399E-9,560.000002384E-3,,,,,-220.00000399E-9,11.1999998,
,,,-219.60001106E-9,79.999998212E-3,,,,,-219.60001106E-9,560.000002384E-3,,,,,-219.60001106E-9,11.6000004,
,,,-219.20000393E-9,79.999998212E-3,,,,,-219.20000393E-9,519.999980927E-3,,,,,-219.20000393E-9,11.6000004,
,,,-218.80001100E-9,79.999998212E-3,,,,,-218.80001100E-9,519.999980927E-3,,,,,-218.80001100E-9,11.1999998,
,,,-218.40000386E-9,79.999998212E-3,,,,,-218.40000386E-9,519.999980927E-3,,,,,-218.40000386E-9,11.1999998,
,,,-218.00001093E-9,39.99999911E-3,,,,,-218.00001093E-9,519.999980927E-3,,,,,-218.00001093E-9,11.1999998,
,,,-217.60000379E-9,0.0,,,,,-217.60000379E-9,519.999980927E-3,,,,,-217.60000379E-9,11.1999998,
,,,-217.20001087E-9,-39.99999911E-3,,,,,-217.20001087E-9,519.999980927E-3,,,,,-217.20001087E-9,11.1999998,
,,,-216.80000373E-9,-39.99999911E-3,,,,,-216.80000373E-9,519.999980927E-3,,,,,-216.80000373E-9,11.6000004,
,,,-216.40001080E-9,0.0,,,,,-216.40001080E-9,519.999980927E-3,,,,,-216.40001080E-9,11.6000004,
,,,-216.00000366E-9,0.0,,,,,-216.00000366E-9,479.999989271E-3,,,,,-216.00000366E-9,11.6000004,
,,,-215.60001073E-9,39.99999911E-3,,,,,-215.60001073E-9,479.999989271E-3,,,,,-215.60001073E-9,11.6000004,
,,,-215.20000359E-9,0.0,,,,,-215.20000359E-9,479.999989271E-3,,,,,-215.20000359E-9,11.6000004,
,,,-214.80001067E-9,-39.99999911E-3,,,,,-214.80001067E-9,439.999997616E-3,,,,,-214.80001067E-9,11.6000004,
,,,-214.40000353E-9,-39.99999911E-3,,,,,-214.40000353E-9,479.999989271E-3,,,,,-214.40000353E-9,11.6000004,
,,,-214.00001060E-9,-39.99999911E-3,,,,,-214.00001060E-9,479.999989271E-3,,,,,-214.00001060E-9,12.0000000,
,,,-213.60000346E-9,-39.99999911E-3,,,,,-213.60000346E-9,479.999989271E-3,,,,,-213.60000346E-9,11.6000004,
,,,-213.20001053E-9,0.0,,,,,-213.20001053E-9,519.999980927E-3,,,,,-213.20001053E-9,11.6000004,
,,,-212.80000340E-9,0.0,,,,,-212.80000340E-9,519.999980927E-3,,,,,-212.80000340E-9,11.6000004,
,,,-212.40001047E-9,0.0,,,,,-212.40001047E-9,519.999980927E-3,,,,,-212.40001047E-9,11.6000004,
,,,-212.00000333E-9,-39.99999911E-3,,,,,-212.00000333E-9,479.999989271E-3,,,,,-212.00000333E-9,12.0000000,
,,,-211.60001040E-9,0.0,,,,,-211.60001040E-9,519.999980927E-3,,,,,-211.60001040E-9,11.6000004,
,,,-211.20000326E-9,0.0,,,,,-211.20000326E-9,519.999980927E-3,,,,,-211.20000326E-9,11.6000004,
,,,-210.80001034E-9,39.99999911E-3,,,,,-210.80001034E-9,560.000002384E-3,,,,,-210.80001034E-9,11.6000004,
,,,-210.40000320E-9,79.999998212E-3,,,,,-210.40000320E-9,599.999964237E-3,,,,,-210.40000320E-9,11.6000004,
,,,-210.00001027E-9,79.999998212E-3,,,,,-210.00001027E-9,599.999964237E-3,,,,,-210.00001027E-9,11.6000004,
,,,-209.60000313E-9,79.999998212E-3,,,,,-209.60000313E-9,639.999985695E-3,,,,,-209.60000313E-9,11.6000004,
,,,-209.20001020E-9,39.99999911E-3,,,,,-209.20001020E-9,639.999985695E-3,,,,,-209.20001020E-9,12.0000000,
,,,-208.80000307E-9,39.99999911E-3,,,,,-208.80000307E-9,639.999985695E-3,,,,,-208.80000307E-9,12.4000006,
,,,-208.40001014E-9,39.99999911E-3,,,,,-208.40001014E-9,639.999985695E-3,,,,,-208.40001014E-9,12.4000006,
,,,-208.00000300E-9,39.99999911E-3,,,,,-208.00000300E-9,639.999985695E-3,,,,,-208.00000300E-9,12.4000006,
,,,-207.60001007E-9,39.99999911E-3,,,,,-207.60001007E-9,639.999985695E-3,,,,,-207.60001007E-9,12.4000006,
,,,-207.20000293E-9,79.999998212E-3,,,,,-207.20000293E-9,599.999964237E-3,,,,,-207.20000293E-9,12.4000006,
,,,-206.80001001E-9,79.999998212E-3,,,,,-206.80001001E-9,599.999964237E-3,,,,,-206.80001001E-9,12.4000006,
,,,-206.40000287E-9,79.999998212E-3,,,,,-206.40000287E-9,599.999964237E-3,,,,,-206.40000287E-9,12.4000006,
,,,-206.00000994E-9,79.999998212E-3,,,,,-206.00000994E-9,560.000002384E-3,,,,,-206.00000994E-9,12.4000006,
,,,-205.60000280E-9,79.999998212E-3,,,,,-205.60000280E-9,599.999964237E-3,,,,,-205.60000280E-9,12.8000002,
,,,-205.20000987E-9,39.99999911E-3,,,,,-205.20000987E-9,599.999964237E-3,,,,,-205.20000987E-9,12.8000002,
,,,-204.80000273E-9,0.0,,,,,-204.80000273E-9,599.999964237E-3,,,,,-204.80000273E-9,12.8000002,
,,,-204.40000981E-9,0.0,,,,,-204.40000981E-9,639.999985695E-3,,,,,-204.40000981E-9,12.8000002,
,,,-204.00000267E-9,-39.99999911E-3,,,,,-204.00000267E-9,599.999964237E-3,,,,,-204.00000267E-9,12.4000006,
