12_5_cm/12_0_kV_O1_Rog.csv

Record Length,2500,Points,-680.000027842E-9,0.0,
Sample Interval,1.9999999E-9,s,-678.000048993E-9,0.0,
Trigger Point,340.00002354,Samples,-676.000013300E-9,0.0,
,,,-674.000034451E-9,400.00000596E-3,
,,,-672.000055602E-9,0.0,
,,,-670.000019909E-9,400.00000596E-3,
Source,MATH,,-668.000041060E-9,-400.00000596E-3,
Vertical Units,Volts,,-666.000005367E-9,400.00000596E-3,
Vertical Scale,10.0000001,,-664.000026518E-9,0.0,
Vertical Offset,0,,-662.000047669E-9,0.0,
Horizontal Units,s,,-660.000011976E-9,400.00000596E-3,
Horizontal Scale,499.999985859E-9,,-658.000033127E-9,400.00000596E-3,
Pt Fmt,Y,,-656.000054278E-9,0.0,
Yzero,0.0,,-654.000018585E-9,0.0,
,,,-652.000039736E-9,0.0,
,,,-650.000004043E-9,400.00000596E-3,
Note,TBS 1104 - 3:22:23 PM   2/3/2026,,-648.000025194E-9,0.0,
,,,-646.000046345E-9,0.0,
,,,-644.000010652E-9,-400.00000596E-3,
,,,-642.000031803E-9,400.00000596E-3,
,,,-640.000052954E-9,400.00000596E-3,
,,,-638.000017261E-9,-400.00000596E-3,
,,,-636.000038412E-9,400.00000596E-3,
,,,-634.000002719E-9,0.0,
,,,-632.000023870E-9,0.0,
,,,-630.000045021E-9,0.0,
,,,-628.000009328E-9,0.0,
,,,-626.000030479E-9,0.0,
,,,-624.000051630E-9,0.0,
,,,-622.000015937E-9,-400.00000596E-3,
,,,-620.000037088E-9,-400.00000596E-3,
,,,-618.000001396E-9,0.0,
,,,-616.000022546E-9,0.0,
,,,-614.000043697E-9,0.0,
,,,-612.000008005E-9,400.00000596E-3,
,,,-610.000029155E-9,0.0,
,,,-608.000050306E-9,0.0,
,,,-606.000014614E-9,0.0,
,,,-604.000035764E-9,400.00000596E-3,
,,,-602.000056915E-9,0.0,
,,,-600.000021223E-9,0.0,
,,,-598.000042373E-9,0.0,
,,,-596.000006681E-9,0.0,
,,,-594.000027831E-9,-400.00000596E-3,
,,,-592.000048982E-9,0.0,
,,,-590.000013290E-9,0.0,
,,,-588.000034440E-9,0.0,
,,,-586.000055591E-9,0.0,
,,,-584.000019899E-9,0.0,
,,,-582.000041049E-9,0.0,
,,,-580.000005357E-9,400.00000596E-3,
,,,-578.000026508E-9,0.0,
,,,-576.000047658E-9,400.00000596E-3,
,,,-574.000011966E-9,0.0,
,,,-572.000033117E-9,0.0,
,,,-570.000054267E-9,400.00000596E-3,
,,,-568.000018575E-9,0.0,
,,,-566.000039726E-9,0.0,
,,,-564.000004033E-9,0.0,
,,,-562.000025184E-9,0.0,
,,,-560.000046335E-9,400.00000596E-3,
,,,-558.000010642E-9,0.0,
,,,-556.000031793E-9,0.0,
,,,-554.000052944E-9,400.00000596E-3,
,,,-552.000017251E-9,0.0,
,,,-550.000038402E-9,-400.00000596E-3,
,,,-548.000059553E-9,0.0,
,,,-546.000023860E-9,400.00000596E-3,
,,,-544.000045011E-9,400.00000596E-3,
,,,-542.000009318E-9,0.0,
,,,-540.000030469E-9,0.0,
,,,-538.000051620E-9,0.0,
,,,-536.000015927E-9,0.0,
,,,-534.000037078E-9,0.0,
,,,-532.000058229E-9,-400.00000596E-3,
,,,-530.000022536E-9,0.0,
,,,-528.000043687E-9,0.0,
,,,-526.000007994E-9,0.0,
,,,-524.000029145E-9,-400.00000596E-3,
,,,-522.000050296E-9,0.0,
,,,-520.000014603E-9,0.0,
,,,-518.000035754E-9,0.0,
,,,-516.000056905E-9,0.0,
,,,-514.000021212E-9,0.0,
,,,-512.000042363E-9,0.0,
,,,-510.000006670E-9,400.00000596E-3,
,,,-508.000027821E-9,0.0,
,,,-506.000048972E-9,0.0,
,,,-504.000013279E-9,0.0,
,,,-502.000034430E-9,400.00000596E-3,
,,,-500.000055581E-9,-400.00000596E-3,
,,,-498.000019888E-9,0.0,
,,,-496.000041039E-9,0.0,
,,,-494.000005347E-9,0.0,
,,,-492.000026497E-9,-400.00000596E-3,
,,,-490.000047648E-9,0.0,
,,,-488.000011956E-9,400.00000596E-3,
,,,-486.000033106E-9,0.0,
,,,-484.000054257E-9,0.0,
,,,-482.000018565E-9,0.0,
,,,-480.000039715E-9,0.0,
,,,-478.000060866E-9,0.0,
,,,-476.000025174E-9,0.0,
,,,-474.000046324E-9,400.00000596E-3,
,,,-472.000039053E-9,400.00000596E-3,
,,,-470.000031783E-9,400.00000596E-3,
,,,-468.000024512E-9,400.00000596E-3,
,,,-466.000045662E-9,0.0,
,,,-464.000038392E-9,400.00000596E-3,
,,,-462.000031121E-9,400.00000596E-3,
,,,-460.000023850E-9,400.00000596E-3,
,,,-458.000045001E-9,0.0,
,,,-456.000037730E-9,400.00000596E-3,
,,,-454.000030459E-9,400.00000596E-3,
,,,-452.000023188E-9,0.0,
,,,-450.000044339E-9,400.00000596E-3,
,,,-448.000037068E-9,400.00000596E-3,
,,,-446.000029797E-9,400.00000596E-3,
,,,-444.000022526E-9,0.0,
,,,-442.000043677E-9,0.0,
,,,-440.000036406E-9,0.0,
,,,-438.000029135E-9,-400.00000596E-3,
,,,-436.000021864E-9,0.0,
,,,-434.000043015E-9,0.0,
,,,-432.000035744E-9,0.0,
,,,-430.000028473E-9,0.0,
,,,-428.000021202E-9,0.0,
,,,-426.000042353E-9,0.0,
,,,-424.000035082E-9,0.0,
,,,-422.000027811E-9,-400.00000596E-3,
,,,-420.000048962E-9,-400.00000596E-3,
,,,-418.000041691E-9,-1.2000000,
,,,-416.000034420E-9,-400.00000596E-3,
,,,-414.000027149E-9,0.0,
,,,-412.000048300E-9,400.00000596E-3,
,,,-410.000041029E-9,400.00000596E-3,
,,,-408.000033758E-9,800.000011921E-3,
,,,-406.000026487E-9,800.000011921E-3,
,,,-404.000047638E-9,400.00000596E-3,
,,,-402.00004037E-9,0.0,
,,,-400.00003310E-9,0.0,
,,,-398.00002583E-9,400.00000596E-3,
,,,-396.00004698E-9,400.00000596E-3,
,,,-394.00003971E-9,400.00000596E-3,
,,,-392.00003243E-9,400.00000596E-3,
,,,-390.00002516E-9,1.2000000,
,,,-388.00004631E-9,1.6000000,
,,,-386.00003904E-9,1.6000000,
,,,-384.00003177E-9,2.0000000,
,,,-382.00002450E-9,2.4000001,
,,,-380.00004565E-9,2.0000000,
,,,-378.00003838E-9,2.0000000,
,,,-376.00003111E-9,1.6000000,
,,,-374.00002384E-9,2.0000000,
,,,-372.00004499E-9,2.79999995,
,,,-370.00003772E-9,2.79999995,
,,,-368.00003045E-9,3.20000005,
,,,-366.00002318E-9,3.60000014,
,,,-364.00004433E-9,4.40000010,
,,,-362.00003706E-9,4.40000010,
,,,-360.00002979E-9,4.40000010,
,,,-358.00005094E-9,4.80000019,
,,,-356.00004367E-9,4.80000019,
,,,-354.00003640E-9,4.80000019,
,,,-352.00002912E-9,4.40000010,
,,,-350.00005028E-9,4.80000019,
,,,-348.00004300E-9,5.59999990,
,,,-346.00003573E-9,6.00000000,
,,,-344.00002846E-9,6.00000000,
,,,-342.00004961E-9,6.00000000,
,,,-340.00004234E-9,6.80000019,
,,,-338.00003507E-9,6.40000010,
,,,-336.00002780E-9,6.40000010,
,,,-334.00004895E-9,6.80000019,
,,,-332.00004168E-9,7.20000029,
,,,-330.00003441E-9,7.20000029,
,,,-328.00002714E-9,7.20000029,
,,,-326.00004829E-9,6.80000019,
,,,-324.00004102E-9,7.20000029,
,,,-322.00003375E-9,7.599999905,
,,,-320.00002648E-9,8.000000000,
,,,-318.00004763E-9,7.599999905,
,,,-316.00004036E-9,8.000000000,
,,,-314.00003309E-9,7.599999905,
,,,-312.00002581E-9,8.000000000,
,,,-310.00004697E-9,8.400000572,
,,,-308.00003969E-9,8.800000191,
,,,-306.00003242E-9,8.800000191,
,,,-304.00002515E-9,8.400000572,
,,,-302.00004630E-9,8.400000572,
,,,-300.00003903E-9,8.400000572,
,,,-298.00003176E-9,8.000000000,
,,,-296.00005291E-9,8.400000572,
,,,-294.00004564E-9,8.400000572,
,,,-292.00003837E-9,8.800000191,
,,,-290.00003110E-9,8.800000191,
,,,-288.00005225E-9,9.199999809,
,,,-286.00004498E-9,8.800000191,
,,,-284.00003771E-9,8.800000191,
,,,-282.00003044E-9,8.800000191,
,,,-280.00005159E-9,8.800000191,
,,,-278.00004432E-9,8.800000191,
,,,-276.00003705E-9,8.400000572,
,,,-274.00002978E-9,8.400000572,
,,,-272.00005093E-9,8.800000191,
,,,-270.00004366E-9,8.800000191,
,,,-268.00003639E-9,8.400000572,
,,,-266.00002911E-9,8.800000191,
,,,-264.00005027E-9,8.800000191,
,,,-262.00004299E-9,9.199999809,
,,,-260.00003572E-9,8.800000191,
,,,-258.00002845E-9,9.199999809,
,,,-256.00004960E-9,8.800000191,
,,,-254.00004233E-9,8.800000191,
,,,-252.00003506E-9,8.400000572,
,,,-250.00002779E-9,9.199999809,
,,,-248.00004894E-9,8.800000191,
,,,-246.00004167E-9,9.199999809,
,,,-244.00003440E-9,8.800000191,
,,,-242.00002713E-9,9.199999809,
,,,-240.00004828E-9,8.800000191,
,,,-238.00004101E-9,9.199999809,
,,,-236.00003374E-9,9.199999809,
,,,-234.00004068E-9,9.199999809,
,,,-232.00004762E-9,9.199999809,
,,,-230.00004035E-9,9.600000381,
,,,-228.00004729E-9,9.199999809,
,,,-226.00004002E-9,9.199999809,
,,,-224.00004696E-9,9.199999809,
,,,-222.00003968E-9,9.600000381,
,,,-220.00004662E-9,10.0000000,
,,,-218.00003935E-9,10.0000000,
,,,-216.00004629E-9,10.4000006,
,,,-214.00003902E-9,10.0000000,
,,,-212.00004596E-9,10.4000006,
,,,-210.00003869E-9,10.4000006,
,,,-208.00004563E-9,10.8000002,
,,,-206.00003836E-9,10.4000006,
,,,-204.00004530E-9,10.8000002,
,,,-202.00003803E-9,11.1999998,
,,,-200.00004497E-9,11.6000004,
,,,-198.00003770E-9,11.6000004,
,,,-196.00004464E-9,11.6000004,
,,,-194.00003737E-9,11.6000004,
,,,-192.00004431E-9,12.0000000,
,,,-190.00003704E-9,12.4000006,
,,,-188.00004398E-9,12.4000006,
,,,-186.00003671E-9,12.8000002,
,,,-184.00004365E-9,12.8000002,
,,,-182.00003638E-9,13.1999998,
,,,-180.00004331E-9,13.1999998,
,,,-178.00003604E-9,13.6000004,
,,,-176.00004298E-9,13.6000004,
,,,-174.00003571E-9,13.6000004,
,,,-172.00004265E-9,14.0000000,
,,,-170.00003538E-9,14.0000000,
,,,-168.00004232E-9,14.0000000,
,,,-166.00004926E-9,14.0000000,
,,,-164.00004199E-9,14.4000006,
,,,-162.00004893E-9,14.4000006,
,,,-160.00004166E-9,14.4000006,
,,,-158.00004860E-9,14.8000002,
,,,-156.00004133E-9,14.8000002,
,,,-154.00004827E-9,14.8000002,
,,,-152.00004100E-9,15.1999998,
,,,-150.00004794E-9,15.1999998,
,,,-148.0000407E-9,15.1999998,
,,,-146.0000476E-9,15.6000004,
,,,-144.0000403E-9,15.1999998,
,,,-142.0000473E-9,15.1999998,
,,,-140.0000400E-9,15.6000004,
,,,-138.0000469E-9,15.1999998,
,,,-136.0000397E-9,15.6000004,
,,,-134.0000466E-9,16.0000000,
,,,-132.0000393E-9,16.0000000,
,,,-130.0000463E-9,16.0000000,
,,,-128.0000390E-9,15.6000004,
,,,-126.0000460E-9,15.6000004,
,,,-124.0000387E-9,15.6000004,
,,,-122.0000456E-9,15.6000004,
,,,-120.0000384E-9,16.0000000,
,,,-118.0000453E-9,16.0000000,
,,,-116.0000451E-9,16.3999996,
,,,-114.0000450E-9,16.0000000,
,,,-112.0000448E-9,16.0000000,
,,,-110.0000446E-9,16.0000000,
,,,-108.0000445E-9,15.6000004,
,,,-106.0000443E-9,15.6000004,
,,,-104.0000441E-9,16.0000000,
,,,-102.0000440E-9,16.0000000,
,,,-100.0000438E-9,16.3999996,
,,,-98.000043636E-9,16.3999996,
,,,-96.000043470E-9,16.3999996,
,,,-94.000043305E-9,16.0000000,
,,,-92.000043139E-9,16.0000000,
,,,-90.000042974E-9,16.0000000,
,,,-88.000042808E-9,16.0000000,
,,,-86.000042643E-9,16.0000000,
,,,-84.000042477E-9,16.3999996,
,,,-82.000042312E-9,16.3999996,
,,,-80.000042146E-9,16.0000000,
,,,-78.000041981E-9,16.0000000,
,,,-76.000041815E-9,16.0000000,
,,,-74.000041650E-9,16.0000000,
,,,-72.000048590E-9,16.0000000,
,,,-70.000048424E-9,16.0000000,
,,,-68.000048259E-9,16.0000000,
,,,-66.000048093E-9,16.3999996,
,,,-64.000047928E-9,16.3999996,
,,,-62.000047762E-9,16.0000000,
,,,-60.000047597E-9,16.3999996,
,,,-58.000043879E-9,16.3999996,
,,,-56.000047266E-9,16.3999996,
,,,-54.00004710E-9,16.8000011,
,,,-52.00004694E-9,16.3999996,
,,,-50.00004677E-9,16.8000011,
,,,-48.00004660E-9,17.2000008,
,,,-46.00004644E-9,16.3999996,
,,,-44.00004627E-9,16.8000011,
,,,-42.00004611E-9,16.8000011,
,,,-40.00004594E-9,17.2000008,
,,,-38.00004578E-9,17.6000004,
,,,-36.00004561E-9,17.2000008,
,,,-34.00004545E-9,17.6000004,
,,,-32.00004528E-9,17.6000004,
,,,-30.00004511E-9,17.6000004,
,,,-28.00004673E-9,17.2000008,
,,,-26.00004656E-9,18.0000000,
,,,-24.00004639E-9,17.6000004,
,,,-22.00004623E-9,17.2000008,
,,,-20.0000461E-9,18.3999996,
,,,-18.0000459E-9,18.3999996,
,,,-16.0000475E-9,16.3999996,
,,,-14.0000465E-9,18.0000000,
,,,-12.0000472E-9,18.3999996,
,,,-10.0000470E-9,16.8000011,
,,,-8.000046847E-9,16.8000011,
,,,-6.00004668E-9,19.6000004,
,,,-4.00004696E-9,18.0000000,
,,,-2.0000470E-9,17.6000004,
,,,-47.07345563E-15,18.8000011,
,,,1.9999529E-9,19.2000008,
,,,3.99995281E-9,18.0000000,
,,,5.99995253E-9,17.6000004,
,,,7.999952700E-9,18.8000011,
,,,9.999952866E-9,16.3999996,
,,,11.9999530E-9,16.3999996,
,,,13.9999523E-9,16.8000011,
,,,15.9999516E-9,17.6000004,
,,,17.9999518E-9,20.80000114,
,,,19.9999519E-9,19.6000004,
,,,21.99995208E-9,20.0000000,
,,,23.99995225E-9,22.39999962,
,,,25.99995241E-9,21.20000076,
,,,27.99995258E-9,21.20000076,
,,,29.99995274E-9,22.00000000,
,,,31.99995291E-9,22.80000114,
,,,33.99995308E-9,20.0000000,
,,,35.99995324E-9,18.3999996,
,,,37.99995341E-9,18.0000000,
,,,39.99995357E-9,19.6000004,
,,,41.99995018E-9,24.00000000,
,,,43.99995035E-9,25.60000038,
,,,45.99995052E-9,26.39999962,
,,,47.99995068E-9,24.39999962,
,,,49.99995085E-9,22.00000000,
,,,51.99995101E-9,21.20000076,
,,,53.99995118E-9,20.0000000,
,,,55.999951343E-9,19.6000004,
,,,57.999951508E-9,19.6000004,
,,,59.999948121E-9,21.60000038,
,,,61.999948286E-9,22.00000000,
,,,63.999948452E-9,23.20000076,
,,,65.999948617E-9,26.39999962,
,,,67.999948783E-9,25.60000038,
,,,69.999948948E-9,24.00000000,
,,,71.999949114E-9,23.60000038,
,,,73.999949279E-9,23.20000076,
,,,75.999949445E-9,21.60000038,
,,,77.999949610E-9,19.6000004,
,,,79.999949776E-9,19.6000004,
,,,81.999949941E-9,20.80000114,
,,,83.999950107E-9,24.00000000,
,,,85.999950272E-9,25.20000076,
,,,87.999950438E-9,26.80000114,
,,,89.999950603E-9,25.20000076,
,,,91.999950769E-9,25.60000038,
,,,93.999950934E-9,26.39999962,
,,,95.999951100E-9,22.39999962,
,,,97.999951265E-9,20.80000114,
,,,99.999951431E-9,17.2000008,
,,,101.9999516E-9,20.39999962,
,,,103.9999518E-9,23.20000076,
,,,105.9999519E-9,25.60000038,
,,,107.9999521E-9,29.20000076,
,,,109.9999523E-9,26.80000114,
,,,111.9999524E-9,25.20000076,
,,,113.9999526E-9,25.20000076,
,,,115.9999528E-9,23.60000038,
,,,117.9999529E-9,22.39999962,
,,,119.9999531E-9,20.39999962,
,,,121.9999461E-9,20.39999962,
,,,123.9999534E-9,22.39999962,
,,,125.9999465E-9,25.20000076,
,,,127.9999537E-9,28.00000000,
,,,129.9999468E-9,29.20000076,
,,,131.9999541E-9,26.80000114,
,,,133.9999471E-9,26.80000114,
,,,135.9999544E-9,25.60000038,
,,,137.9999475E-9,22.39999962,
,,,139.9999547E-9,21.20000076,
,,,141.9999478E-9,19.6000004,
,,,143.9999551E-9,22.80000114,
,,,145.9999481E-9,26.00000000,
,,,147.9999554E-9,27.20000076,
,,,149.99994846E-9,30.80000114,
,,,151.99995573E-9,28.80000114,
,,,153.99994879E-9,28.00000000,
,,,155.99994185E-9,27.20000076,
,,,157.99994912E-9,24.80000114,
,,,159.99994218E-9,22.39999962,
,,,161.99994946E-9,20.0000000,
,,,163.99994252E-9,22.39999962,
,,,165.99994979E-9,26.00000000,
,,,167.99994285E-9,28.00000000,
,,,169.99995012E-9,31.20000076,
,,,171.99994318E-9,30.00000000,
,,,173.99995045E-9,28.00000000,
,,,175.99994351E-9,28.80000114,
,,,177.99995078E-9,26.39999962,
,,,179.99994384E-9,23.60000038,
,,,181.99995111E-9,21.20000076,
,,,183.99994417E-9,22.00000000,
,,,185.99995144E-9,26.00000000,
,,,187.99994450E-9,28.80000114,
,,,189.99995177E-9,32.40000153,
,,,191.99994483E-9,33.60000229,
,,,193.99995210E-9,29.60000038,
,,,195.99994516E-9,28.39999962,
,,,197.99995243E-9,26.80000114,
,,,199.99994549E-9,24.39999962,
,,,201.99995276E-9,24.00000000,
,,,203.99994582E-9,23.60000038,
,,,205.99995310E-9,25.60000038,
,,,207.99994616E-9,28.39999962,
,,,209.99995343E-9,32.00000000,
,,,211.99994649E-9,34.00000000,
,,,213.99995376E-9,31.20000076,
,,,215.99994682E-9,30.00000000,
,,,217.99993988E-9,30.00000000,
,,,219.99994715E-9,24.80000114,
,,,221.99994021E-9,22.39999962,
,,,223.99994748E-9,23.60000038,
,,,225.99994054E-9,26.39999962,
,,,227.99994781E-9,30.00000000,
,,,229.99994087E-9,34.00000000,
,,,231.99994814E-9,34.40000153,
,,,233.99994120E-9,32.40000153,
,,,235.99994847E-9,30.39999962,
,,,237.99994153E-9,29.60000038,
,,,239.99993459E-9,26.00000000,
,,,241.99994186E-9,23.20000076,
,,,243.99994913E-9,24.39999962,
,,,245.99995641E-9,26.80000114,
,,,247.99993525E-9,30.00000000,
,,,249.99994253E-9,35.20000076,
,,,251.99994980E-9,35.60000229,
,,,253.99995707E-9,33.60000229,
,,,255.99993592E-9,30.80000114,
,,,257.99994319E-9,28.39999962,
,,,259.99995046E-9,27.20000076,
,,,261.99995773E-9,25.20000076,
,,,263.99993658E-9,26.00000000,
,,,265.99994385E-9,27.20000076,
,,,267.99995112E-9,30.39999962,
,,,269.99995839E-9,33.60000229,
,,,271.99993724E-9,33.60000229,
,,,273.99994451E-9,34.79999924,
,,,275.99995178E-9,32.40000153,
,,,277.99995905E-9,30.00000000,
,,,279.99993790E-9,26.39999962,
,,,281.99994517E-9,24.80000114,
,,,283.99995244E-9,24.80000114,
,,,285.99993129E-9,27.20000076,
,,,287.99993856E-9,33.20000076,
,,,289.99994584E-9,34.79999924,
,,,291.99995311E-9,34.00000000,
,,,293.99993196E-9,33.60000229,
,,,295.99993923E-9,28.39999962,
,,,297.99994650E-9,29.60000038,
,,,299.99995377E-9,28.39999962,
,,,301.99993262E-9,27.60000038,
,,,303.99993989E-9,27.60000038,
,,,305.99994716E-9,27.60000038,
,,,307.99995443E-9,31.20000076,
,,,309.99993328E-9,32.00000000,
,,,311.99994055E-9,32.40000153,
,,,313.99994782E-9,33.20000076,
,,,315.99995509E-9,29.60000038,
,,,317.99993394E-9,30.80000114,
,,,319.99994121E-9,29.20000076,
,,,321.99994848E-9,28.39999962,
,,,323.99995575E-9,28.00000000,
,,,325.99993460E-9,27.20000076,
,,,327.99994187E-9,28.00000000,
,,,329.99994914E-9,28.80000114,
,,,331.99995642E-9,29.60000038,
,,,333.99993526E-9,31.20000076,
,,,335.99994254E-9,32.79999924,
,,,337.99994981E-9,34.00000000,
,,,339.99995708E-9,32.40000153,
,,,341.99993593E-9,27.20000076,
,,,343.99994320E-9,23.60000038,
,,,345.99995047E-9,22.80000114,
,,,347.99992932E-9,26.00000000,
,,,349.99993659E-9,30.00000000,
,,,351.99994386E-9,32.79999924,
,,,353.99995113E-9,34.79999924,
,,,355.99992998E-9,32.79999924,
,,,357.99993725E-9,29.20000076,
,,,359.99994452E-9,27.20000076,
,,,361.99995179E-9,24.39999962,
,,,363.99993064E-9,24.39999962,
,,,365.99993791E-9,26.00000000,
,,,367.99994518E-9,27.60000038,
,,,369.99995245E-9,30.00000000,
,,,371.99993130E-9,30.00000000,
,,,373.99993857E-9,29.20000076,
,,,375.99994585E-9,28.39999962,
,,,377.99995312E-9,27.60000038,
,,,379.99993197E-9,26.00000000,
,,,381.99993924E-9,25.60000038,
,,,383.99994651E-9,25.20000076,
,,,385.99995378E-9,26.00000000,
,,,387.99993263E-9,27.20000076,
,,,389.99993990E-9,26.80000114,
,,,391.99994717E-9,26.80000114,
,,,393.99995444E-9,26.00000000,
,,,395.99993329E-9,27.20000076,
,,,397.99994056E-9,28.00000000,
,,,399.99994783E-9,28.39999962,
,,,401.99995510E-9,28.00000000,
,,,403.999933951E-9,26.00000000,
,,,405.999941222E-9,23.60000038,
,,,407.999948493E-9,23.60000038,
,,,409.999927342E-9,24.80000114,
,,,411.999934613E-9,26.39999962,
,,,413.999941884E-9,28.00000000,
,,,415.999949155E-9,28.80000114,
,,,417.999928004E-9,28.39999962,
,,,419.999935275E-9,27.20000076,
,,,421.999942546E-9,25.60000038,
,,,423.999949817E-9,24.00000000,
,,,425.999928666E-9,24.00000000,
,,,427.999935937E-9,25.60000038,
,,,429.999943208E-9,26.00000000,
,,,431.999950479E-9,25.60000038,
,,,433.999929328E-9,26.00000000,
,,,435.999936599E-9,26.39999962,
,,,437.999943870E-9,27.20000076,
,,,439.999951141E-9,27.60000038,
,,,441.999929990E-9,26.80000114,
,,,443.999937261E-9,25.20000076,
,,,445.999944532E-9,24.00000000,
,,,447.999951803E-9,23.20000076,
,,,449.999930652E-9,24.00000000,
,,,451.999937923E-9,25.60000038,
,,,453.999945194E-9,27.20000076,
,,,455.999952464E-9,28.00000000,
,,,457.999931314E-9,28.00000000,
,,,459.999938585E-9,27.20000076,
,,,461.999945855E-9,25.60000038,
,,,463.999953126E-9,24.39999962,
,,,465.999931976E-9,24.00000000,
,,,467.999939247E-9,24.80000114,
,,,469.999946517E-9,26.00000000,
,,,471.999953788E-9,26.80000114,
,,,473.999932638E-9,26.39999962,
,,,475.999939908E-9,26.00000000,
,,,477.999947179E-9,26.39999962,
,,,479.999926029E-9,26.39999962,
,,,481.999961721E-9,26.00000000,
,,,483.999940570E-9,26.00000000,
,,,485.999919420E-9,26.00000000,
,,,487.999955112E-9,25.60000038,
,,,489.999933961E-9,25.20000076,
,,,491.999912811E-9,25.20000076,
,,,493.999948503E-9,25.20000076,
,,,495.999927352E-9,25.60000038,
,,,497.999963045E-9,26.80000114,
,,,499.999941894E-9,27.20000076,
,,,501.999920743E-9,27.20000076,
,,,503.999956436E-9,26.39999962,
,,,505.999935285E-9,25.60000038,
,,,507.999914134E-9,24.80000114,
,,,509.999949827E-9,24.80000114,
,,,511.999928676E-9,24.39999962,
,,,513.999964369E-9,25.20000076,
,,,515.999943218E-9,26.39999962,
,,,517.999922067E-9,27.20000076,
,,,519.999957760E-9,27.20000076,
,,,521.999936609E-9,26.39999962,
,,,523.999915458E-9,25.60000038,
,,,525.999951151E-9,24.39999962,
,,,527.999930000E-9,24.39999962,
,,,529.999965693E-9,24.39999962,
,,,531.999944542E-9,24.39999962,
,,,533.999923391E-9,25.20000076,
,,,535.999959084E-9,25.20000076,
,,,537.999937933E-9,25.60000038,
,,,539.999916782E-9,26.00000000,
,,,541.999952475E-9,24.80000114,
,,,543.999931324E-9,24.39999962,
,,,545.999910173E-9,24.00000000,
,,,547.999945866E-9,23.60000038,
,,,549.999924715E-9,23.60000038,
,,,551.999960408E-9,24.00000000,
,,,553.999939257E-9,24.39999962,
,,,555.999918106E-9,24.39999962,
,,,557.999953799E-9,25.20000076,
,,,559.999932648E-9,24.39999962,
,,,561.999911497E-9,24.00000000,
,,,563.999947190E-9,23.20000076,
