12_5_cm/9_kV_O1_Mir.csv

Record Length,2500,Points,-208.00000300E-9,0.0,,Record Length,2500,Points,-208.00000300E-9,479.999989271E-3,,Record Length,2500,Points,-208.00000300E-9,10.4000006,
Sample Interval,400.00000370E-12,s,-207.60001007E-9,-39.99999911E-3,,Sample Interval,400.00000370E-12,s,-207.60001007E-9,439.999997616E-3,,Sample Interval,400.00000370E-12,s,-207.60001007E-9,10.4000006,
Trigger Point,520.000000555,Samples,-207.20000293E-9,-39.99999911E-3,,Trigger Point,520.000000555,Samples,-207.20000293E-9,479.999989271E-3,,Trigger Point,520.000000555,Samples,-207.20000293E-9,10.4000006,
,,,-206.80001001E-9,-39.99999911E-3,,,,,-206.80001001E-9,479.999989271E-3,,,,,-206.80001001E-9,10.4000006,
,,,-206.40000287E-9,-39.99999911E-3,,,,,-206.40000287E-9,479.999989271E-3,,,,,-206.40000287E-9,10.0000000,
,,,-206.00000994E-9,0.0,,,,,-206.00000994E-9,519.999980927E-3,,,,,-206.00000994E-9,10.0000000,
Source,CH1,,-205.60000280E-9,0.0,,Source,CH2,,-205.60000280E-9,519.999980927E-3,,Source,MATH,,-205.60000280E-9,10.0000000,
Vertical Units,Volts,,-205.20000987E-9,0.0,,Vertical Units,Volts,,-205.20000987E-9,519.999980927E-3,,Vertical Units,Volts,,-205.20000987E-9,10.0000000,
Vertical Scale,999.999977648E-3,,-204.80000273E-9,39.99999911E-3,,Vertical Scale,999.999977648E-3,,-204.80000273E-9,519.999980927E-3,,Vertical Scale,10.0000001,,-204.80000273E-9,10.0000000,
Vertical Offset,0,,-204.40000981E-9,39.99999911E-3,,Vertical Offset,0,,-204.40000981E-9,519.999980927E-3,,Vertical Offset,0,,-204.40000981E-9,10.4000006,
Horizontal Units,s,,-204.00000267E-9,39.99999911E-3,,Horizontal Units,s,,-204.00000267E-9,560.000002384E-3,,Horizontal Units,s,,-204.00000267E-9,10.4000006,
Horizontal Scale,100.0000013E-9,,-203.60000974E-9,0.0,,Horizontal Scale,100.0000013E-9,,-203.60000974E-9,560.000002384E-3,,Horizontal Scale,100.0000013E-9,,-203.60000974E-9,10.4000006,
Pt Fmt,Y,,-203.20000260E-9,0.0,,Pt Fmt,Y,,-203.20000260E-9,560.000002384E-3,,Pt Fmt,Y,,-203.20000260E-9,10.8000002,
Yzero,-1.7200000,,-202.80000967E-9,0.0,,Yzero,-1.5600000,,-202.80000967E-9,560.000002384E-3,,Yzero,0.0,,-202.80000967E-9,10.8000002,
Probe Atten,1.000000,,-202.40000254E-9,0.0,,Probe Atten,1.000000,,-202.40000254E-9,560.000002384E-3,,,,,-202.40000254E-9,10.8000002,
,,,-202.00000961E-9,39.99999911E-3,,,,,-202.00000961E-9,560.000002384E-3,,,,,-202.00000961E-9,10.8000002,
Note,TBS 1104 - 3:34:57 PM   2/3/2026,,-201.60000247E-9,39.99999911E-3,,Note,TBS 1104 - 3:34:57 PM   2/3/2026,,-201.60000247E-9,560.000002384E-3,,Note,TBS 1104 - 3:34:57 PM   2/3/2026,,-201.60000247E-9,10.8000002,
,,,-201.20000954E-9,39.99999911E-3,,,,,-201.20000954E-9,560.000002384E-3,,,,,-201.20000954E-9,10.8000002,
,,,-200.80000240E-9,0.0,,,,,-200.80000240E-9,599.999964237E-3,,,,,-200.80000240E-9,10.8000002,
,,,-200.40000948E-9,-39.99999911E-3,,,,,-200.40000948E-9,599.999964237E-3,,,,,-200.40000948E-9,10.8000002,
,,,-200.00000234E-9,-39.99999911E-3,,,,,-200.00000234E-9,599.999964237E-3,,,,,-200.00000234E-9,10.8000002,
,,,-199.60000941E-9,-79.999998212E-3,,,,,-199.60000941E-9,560.000002384E-3,,,,,-199.60000941E-9,10.8000002,
,,,-199.20000227E-9,-79.999998212E-3,,,,,-199.20000227E-9,560.000002384E-3,,,,,-199.20000227E-9,10.8000002,
,,,-198.80000934E-9,-39.99999911E-3,,,,,-198.80000934E-9,560.000002384E-3,,,,,-198.80000934E-9,10.8000002,
,,,-198.40000220E-9,0.0,,,,,-198.40000220E-9,560.000002384E-3,,,,,-198.40000220E-9,10.4000006,
,,,-198.00000928E-9,39.99999911E-3,,,,,-198.00000928E-9,599.999964237E-3,,,,,-198.00000928E-9,10.4000006,
,,,-197.60000214E-9,39.99999911E-3,,,,,-197.60000214E-9,560.000002384E-3,,,,,-197.60000214E-9,10.4000006,
,,,-197.20000921E-9,39.99999911E-3,,,,,-197.20000921E-9,519.999980927E-3,,,,,-197.20000921E-9,10.8000002,
,,,-196.80000207E-9,0.0,,,,,-196.80000207E-9,479.999989271E-3,,,,,-196.80000207E-9,10.8000002,
,,,-196.40000914E-9,0.0,,,,,-196.40000914E-9,479.999989271E-3,,,,,-196.40000914E-9,11.1999998,
,,,-196.00000201E-9,0.0,,,,,-196.00000201E-9,519.999980927E-3,,,,,-196.00000201E-9,11.1999998,
,,,-195.60000908E-9,0.0,,,,,-195.60000908E-9,519.999980927E-3,,,,,-195.60000908E-9,10.8000002,
,,,-195.20000194E-9,0.0,,,,,-195.20000194E-9,519.999980927E-3,,,,,-195.20000194E-9,10.8000002,
,,,-194.80000901E-9,0.0,,,,,-194.80000901E-9,519.999980927E-3,,,,,-194.80000901E-9,10.8000002,
,,,-194.40000187E-9,0.0,,,,,-194.40000187E-9,519.999980927E-3,,,,,-194.40000187E-9,10.8000002,
,,,-194.00000895E-9,0.0,,,,,-194.00000895E-9,519.999980927E-3,,,,,-194.00000895E-9,10.8000002,
,,,-193.60000181E-9,0.0,,,,,-193.60000181E-9,519.999980927E-3,,,,,-193.60000181E-9,11.1999998,
,,,-193.20000888E-9,0.0,,,,,-193.20000888E-9,519.999980927E-3,,,,,-193.20000888E-9,11.1999998,
,,,-192.80000174E-9,39.99999911E-3,,,,,-192.80000174E-9,560.000002384E-3,,,,,-192.80000174E-9,11.1999998,
,,,-192.40000881E-9,39.99999911E-3,,,,,-192.40000881E-9,560.000002384E-3,,,,,-192.40000881E-9,11.1999998,
,,,-192.00000168E-9,39.99999911E-3,,,,,-192.00000168E-9,560.000002384E-3,,,,,-192.00000168E-9,11.1999998,
,,,-191.60000875E-9,0.0,,,,,-191.60000875E-9,560.000002384E-3,,,,,-191.60000875E-9,10.8000002,
,,,-191.20000161E-9,0.0,,,,,-191.20000161E-9,560.000002384E-3,,,,,-191.20000161E-9,11.1999998,
,,,-190.80000868E-9,0.0,,,,,-190.80000868E-9,519.999980927E-3,,,,,-190.80000868E-9,11.1999998,
,,,-190.40000154E-9,-39.99999911E-3,,,,,-190.40000154E-9,519.999980927E-3,,,,,-190.40000154E-9,11.6000004,
,,,-190.00000862E-9,0.0,,,,,-190.00000862E-9,519.999980927E-3,,,,,-190.00000862E-9,11.6000004,
,,,-189.60000148E-9,0.0,,,,,-189.60000148E-9,519.999980927E-3,,,,,-189.60000148E-9,11.1999998,
,,,-189.20000855E-9,0.0,,,,,-189.20000855E-9,519.999980927E-3,,,,,-189.20000855E-9,11.1999998,
,,,-188.80000141E-9,39.99999911E-3,,,,,-188.80000141E-9,560.000002384E-3,,,,,-188.80000141E-9,11.1999998,
,,,-188.40000848E-9,39.99999911E-3,,,,,-188.40000848E-9,560.000002384E-3,,,,,-188.40000848E-9,11.1999998,
,,,-188.00000134E-9,39.99999911E-3,,,,,-188.00000134E-9,560.000002384E-3,,,,,-188.00000134E-9,11.1999998,
,,,-187.60000842E-9,39.99999911E-3,,,,,-187.60000842E-9,519.999980927E-3,,,,,-187.60000842E-9,11.1999998,
,,,-187.20000128E-9,39.99999911E-3,,,,,-187.20000128E-9,479.999989271E-3,,,,,-187.20000128E-9,11.6000004,
,,,-186.80000835E-9,39.99999911E-3,,,,,-186.80000835E-9,439.999997616E-3,,,,,-186.80000835E-9,11.6000004,
,,,-186.40000121E-9,39.99999911E-3,,,,,-186.40000121E-9,439.999997616E-3,,,,,-186.40000121E-9,11.6000004,
,,,-186.00000828E-9,39.99999911E-3,,,,,-186.00000828E-9,479.999989271E-3,,,,,-186.00000828E-9,11.6000004,
,,,-185.60000115E-9,39.99999911E-3,,,,,-185.60000115E-9,479.999989271E-3,,,,,-185.60000115E-9,11.6000004,
,,,-185.20000822E-9,39.99999911E-3,,,,,-185.20000822E-9,479.999989271E-3,,,,,-185.20000822E-9,11.6000004,
,,,-184.80000108E-9,39.99999911E-3,,,,,-184.80000108E-9,479.999989271E-3,,,,,-184.80000108E-9,11.6000004,
,,,-184.40000815E-9,39.99999911E-3,,,,,-184.40000815E-9,479.999989271E-3,,,,,-184.40000815E-9,11.6000004,
,,,-184.00000101E-9,79.999998212E-3,,,,,-184.00000101E-9,479.999989271E-3,,,,,-184.00000101E-9,11.6000004,
,,,-183.60000809E-9,79.999998212E-3,,,,,-183.60000809E-9,479.999989271E-3,,,,,-183.60000809E-9,11.6000004,
,,,-183.20000095E-9,79.999998212E-3,,,,,-183.20000095E-9,479.999989271E-3,,,,,-183.20000095E-9,11.6000004,
,,,-182.80000802E-9,119.9999973E-3,,,,,-182.80000802E-9,479.999989271E-3,,,,,-182.80000802E-9,11.6000004,
,,,-182.40000088E-9,119.9999973E-3,,,,,-182.40000088E-9,479.999989271E-3,,,,,-182.40000088E-9,12.0000000,
,,,-182.00000795E-9,159.99999642E-3,,,,,-182.00000795E-9,479.999989271E-3,,,,,-182.00000795E-9,11.6000004,
,,,-181.60000081E-9,159.99999642E-3,,,,,-181.60000081E-9,479.999989271E-3,,,,,-181.60000081E-9,11.6000004,
,,,-181.20000789E-9,159.99999642E-3,,,,,-181.20000789E-9,479.999989271E-3,,,,,-181.20000789E-9,11.6000004,
,,,-180.80000075E-9,159.99999642E-3,,,,,-180.80000075E-9,479.999989271E-3,,,,,-180.80000075E-9,11.6000004,
,,,-180.40000782E-9,159.99999642E-3,,,,,-180.40000782E-9,479.999989271E-3,,,,,-180.40000782E-9,11.6000004,
,,,-180.00000068E-9,159.99999642E-3,,,,,-180.00000068E-9,479.999989271E-3,,,,,-180.00000068E-9,11.6000004,
,,,-179.60000775E-9,159.99999642E-3,,,,,-179.60000775E-9,479.999989271E-3,,,,,-179.60000775E-9,11.6000004,
,,,-179.20000062E-9,159.99999642E-3,,,,,-179.20000062E-9,479.999989271E-3,,,,,-179.20000062E-9,11.6000004,
,,,-178.80000769E-9,199.99998808E-3,,,,,-178.80000769E-9,479.999989271E-3,,,,,-178.80000769E-9,12.0000000,
,,,-178.40000055E-9,199.99998808E-3,,,,,-178.40000055E-9,479.999989271E-3,,,,,-178.40000055E-9,11.6000004,
,,,-178.00000762E-9,199.99998808E-3,,,,,-178.00000762E-9,479.999989271E-3,,,,,-178.00000762E-9,11.6000004,
,,,-177.60000048E-9,159.99999642E-3,,,,,-177.60000048E-9,439.999997616E-3,,,,,-177.60000048E-9,11.6000004,
,,,-177.20000756E-9,119.9999973E-3,,,,,-177.20000756E-9,439.999997616E-3,,,,,-177.20000756E-9,11.6000004,
,,,-176.80000042E-9,119.9999973E-3,,,,,-176.80000042E-9,439.999997616E-3,,,,,-176.80000042E-9,11.6000004,
,,,-176.40000749E-9,119.9999973E-3,,,,,-176.40000749E-9,399.99997616E-3,,,,,-176.40000749E-9,11.6000004,
,,,-176.00000035E-9,159.99999642E-3,,,,,-176.00000035E-9,439.999997616E-3,,,,,-176.00000035E-9,11.6000004,
,,,-175.60000742E-9,119.9999973E-3,,,,,-175.60000742E-9,439.999997616E-3,,,,,-175.60000742E-9,11.6000004,
,,,-175.20000029E-9,119.9999973E-3,,,,,-175.20000029E-9,439.999997616E-3,,,,,-175.20000029E-9,12.0000000,
,,,-174.80000736E-9,119.9999973E-3,,,,,-174.80000736E-9,479.999989271E-3,,,,,-174.80000736E-9,12.0000000,
,,,-174.40000022E-9,119.9999973E-3,,,,,-174.40000022E-9,479.999989271E-3,,,,,-174.40000022E-9,12.0000000,
,,,-174.00000729E-9,119.9999973E-3,,,,,-174.00000729E-9,479.999989271E-3,,,,,-174.00000729E-9,12.0000000,
,,,-173.60000015E-9,79.999998212E-3,,,,,-173.60000015E-9,439.999997616E-3,,,,,-173.60000015E-9,12.0000000,
,,,-173.20000723E-9,79.999998212E-3,,,,,-173.20000723E-9,399.99997616E-3,,,,,-173.20000723E-9,11.6000004,
,,,-172.80000009E-9,79.999998212E-3,,,,,-172.80000009E-9,399.99997616E-3,,,,,-172.80000009E-9,11.6000004,
,,,-172.40000716E-9,79.999998212E-3,,,,,-172.40000716E-9,399.99997616E-3,,,,,-172.40000716E-9,11.6000004,
,,,-172.00000002E-9,119.9999973E-3,,,,,-172.00000002E-9,439.999997616E-3,,,,,-172.00000002E-9,11.6000004,
,,,-171.60000709E-9,119.9999973E-3,,,,,-171.60000709E-9,439.999997616E-3,,,,,-171.60000709E-9,11.6000004,
,,,-171.19999995E-9,119.9999973E-3,,,,,-171.19999995E-9,439.999997616E-3,,,,,-171.19999995E-9,12.0000000,
,,,-170.80000703E-9,119.9999973E-3,,,,,-170.80000703E-9,399.99997616E-3,,,,,-170.80000703E-9,12.0000000,
,,,-170.39999989E-9,119.9999973E-3,,,,,-170.39999989E-9,399.99997616E-3,,,,,-170.39999989E-9,12.0000000,
,,,-170.00000696E-9,159.99999642E-3,,,,,-170.00000696E-9,399.99997616E-3,,,,,-170.00000696E-9,12.0000000,
,,,-169.59999982E-9,159.99999642E-3,,,,,-169.59999982E-9,399.99997616E-3,,,,,-169.59999982E-9,12.0000000,
,,,-169.20000689E-9,159.99999642E-3,,,,,-169.20000689E-9,399.99997616E-3,,,,,-169.20000689E-9,12.0000000,
,,,-168.79999976E-9,119.9999973E-3,,,,,-168.79999976E-9,439.999997616E-3,,,,,-168.79999976E-9,12.0000000,
,,,-168.40000683E-9,119.9999973E-3,,,,,-168.40000683E-9,439.999997616E-3,,,,,-168.40000683E-9,12.0000000,
,,,-167.99999969E-9,119.9999973E-3,,,,,-167.99999969E-9,439.999997616E-3,,,,,-167.99999969E-9,11.6000004,
,,,-167.60000676E-9,79.999998212E-3,,,,,-167.60000676E-9,399.99997616E-3,,,,,-167.60000676E-9,12.0000000,
,,,-167.19999962E-9,79.999998212E-3,,,,,-167.19999962E-9,359.99998450E-3,,,,,-167.19999962E-9,12.0000000,
,,,-166.80000670E-9,79.999998212E-3,,,,,-166.80000670E-9,359.99998450E-3,,,,,-166.80000670E-9,12.0000000,
,,,-166.39999956E-9,79.999998212E-3,,,,,-166.39999956E-9,359.99998450E-3,,,,,-166.39999956E-9,12.4000006,
,,,-166.00000663E-9,119.9999973E-3,,,,,-166.00000663E-9,399.99997616E-3,,,,,-166.00000663E-9,12.4000006,
,,,-165.59999949E-9,119.9999973E-3,,,,,-165.59999949E-9,399.99997616E-3,,,,,-165.59999949E-9,12.4000006,
,,,-165.20000656E-9,159.99999642E-3,,,,,-165.20000656E-9,399.99997616E-3,,,,,-165.20000656E-9,12.4000006,
,,,-164.79999942E-9,119.9999973E-3,,,,,-164.79999942E-9,399.99997616E-3,,,,,-164.79999942E-9,12.4000006,
,,,-164.40000650E-9,119.9999973E-3,,,,,-164.40000650E-9,399.99997616E-3,,,,,-164.40000650E-9,12.4000006,
,,,-163.99999936E-9,119.9999973E-3,,,,,-163.99999936E-9,399.99997616E-3,,,,,-163.99999936E-9,12.4000006,
,,,-163.60000643E-9,119.9999973E-3,,,,,-163.60000643E-9,399.99997616E-3,,,,,-163.60000643E-9,12.4000006,
,,,-163.19999929E-9,119.9999973E-3,,,,,-163.19999929E-9,399.99997616E-3,,,,,-163.19999929E-9,12.4000006,
,,,-162.80000636E-9,119.9999973E-3,,,,,-162.80000636E-9,439.999997616E-3,,,,,-162.80000636E-9,12.4000006,
,,,-162.39999923E-9,119.9999973E-3,,,,,-162.39999923E-9,439.999997616E-3,,,,,-162.39999923E-9,12.4000006,
,,,-162.00000630E-9,119.9999973E-3,,,,,-162.00000630E-9,439.999997616E-3,,,,,-162.00000630E-9,12.4000006,
,,,-161.59999916E-9,119.9999973E-3,,,,,-161.59999916E-9,399.99997616E-3,,,,,-161.59999916E-9,12.4000006,
,,,-161.20000623E-9,119.9999973E-3,,,,,-161.20000623E-9,399.99997616E-3,,,,,-161.20000623E-9,12.4000006,
,,,-160.79999909E-9,159.99999642E-3,,,,,-160.79999909E-9,399.99997616E-3,,,,,-160.79999909E-9,12.4000006,
,,,-160.40000617E-9,159.99999642E-3,,,,,-160.40000617E-9,399.99997616E-3,,,,,-160.40000617E-9,12.4000006,
,,,-159.99999903E-9,159.99999642E-3,,,,,-159.99999903E-9,439.999997616E-3,,,,,-159.99999903E-9,12.0000000,
,,,-159.60000610E-9,159.99999642E-3,,,,,-159.60000610E-9,439.999997616E-3,,,,,-159.60000610E-9,12.0000000,
,,,-159.19999896E-9,159.99999642E-3,,,,,-159.19999896E-9,439.999997616E-3,,,,,-159.19999896E-9,12.0000000,
,,,-158.80000603E-9,159.99999642E-3,,,,,-158.80000603E-9,399.99997616E-3,,,,,-158.80000603E-9,12.0000000,
,,,-158.39999890E-9,159.99999642E-3,,,,,-158.39999890E-9,399.99997616E-3,,,,,-158.39999890E-9,12.0000000,
,,,-158.00000597E-9,159.99999642E-3,,,,,-158.00000597E-9,399.99997616E-3,,,,,-158.00000597E-9,12.0000000,
,,,-157.59999883E-9,119.9999973E-3,,,,,-157.59999883E-9,399.99997616E-3,,,,,-157.59999883E-9,12.0000000,
,,,-157.20000590E-9,79.999998212E-3,,,,,-157.20000590E-9,399.99997616E-3,,,,,-157.20000590E-9,12.0000000,
,,,-156.79999876E-9,39.99999911E-3,,,,,-156.79999876E-9,399.99997616E-3,,,,,-156.79999876E-9,12.0000000,
,,,-156.40000584E-9,39.99999911E-3,,,,,-156.40000584E-9,399.99997616E-3,,,,,-156.40000584E-9,12.0000000,
,,,-155.99999870E-9,79.999998212E-3,,,,,-155.99999870E-9,399.99997616E-3,,,,,-155.99999870E-9,12.0000000,
,,,-155.60000577E-9,79.999998212E-3,,,,,-155.60000577E-9,359.99998450E-3,,,,,-155.60000577E-9,12.0000000,
,,,-155.19999863E-9,79.999998212E-3,,,,,-155.19999863E-9,359.99998450E-3,,,,,-155.19999863E-9,12.4000006,
,,,-154.80000570E-9,79.999998212E-3,,,,,-154.80000570E-9,359.99998450E-3,,,,,-154.80000570E-9,12.4000006,
,,,-154.39999856E-9,79.999998212E-3,,,,,-154.39999856E-9,319.99999285E-3,,,,,-154.39999856E-9,12.4000006,
,,,-154.00000564E-9,79.999998212E-3,,,,,-154.00000564E-9,359.99998450E-3,,,,,-154.00000564E-9,12.4000006,
,,,-153.59999850E-9,79.999998212E-3,,,,,-153.59999850E-9,359.99998450E-3,,,,,-153.59999850E-9,12.4000006,
,,,-153.20000557E-9,79.999998212E-3,,,,,-153.20000557E-9,359.99998450E-3,,,,,-153.20000557E-9,12.0000000,
,,,-152.79999843E-9,79.999998212E-3,,,,,-152.79999843E-9,399.99997616E-3,,,,,-152.79999843E-9,12.0000000,
,,,-152.40000550E-9,79.999998212E-3,,,,,-152.40000550E-9,399.99997616E-3,,,,,-152.40000550E-9,12.4000006,
,,,-151.99999837E-9,79.999998212E-3,,,,,-151.99999837E-9,399.99997616E-3,,,,,-151.99999837E-9,12.4000006,
,,,-151.60000544E-9,39.99999911E-3,,,,,-151.60000544E-9,399.99997616E-3,,,,,-151.60000544E-9,12.4000006,
,,,-151.19999830E-9,79.999998212E-3,,,,,-151.19999830E-9,399.99997616E-3,,,,,-151.19999830E-9,12.4000006,
,,,-150.80000537E-9,79.999998212E-3,,,,,-150.80000537E-9,399.99997616E-3,,,,,-150.80000537E-9,12.4000006,
,,,-150.39999823E-9,79.999998212E-3,,,,,-150.39999823E-9,399.99997616E-3,,,,,-150.39999823E-9,12.4000006,
,,,-150.00000531E-9,119.9999973E-3,,,,,-150.00000531E-9,399.99997616E-3,,,,,-150.00000531E-9,12.4000006,
,,,-149.59999817E-9,79.999998212E-3,,,,,-149.59999817E-9,399.99997616E-3,,,,,-149.59999817E-9,12.4000006,
,,,-149.20000524E-9,79.999998212E-3,,,,,-149.20000524E-9,399.99997616E-3,,,,,-149.20000524E-9,12.4000006,
,,,-148.79999810E-9,79.999998212E-3,,,,,-148.79999810E-9,399.99997616E-3,,,,,-148.79999810E-9,12.4000006,
,,,-148.4000052E-9,79.999998212E-3,,,,,-148.4000052E-9,399.99997616E-3,,,,,-148.4000052E-9,12.4000006,
,,,-147.9999980E-9,79.999998212E-3,,,,,-147.9999980E-9,399.99997616E-3,,,,,-147.9999980E-9,12.4000006,
,,,-147.6000051E-9,79.999998212E-3,,,,,-147.6000051E-9,399.99997616E-3,,,,,-147.6000051E-9,12.4000006,
,,,-147.1999980E-9,79.999998212E-3,,,,,-147.1999980E-9,399.99997616E-3,,,,,-147.1999980E-9,12.4000006,
,,,-146.8000050E-9,79.999998212E-3,,,,,-146.8000050E-9,399.99997616E-3,,,,,-146.8000050E-9,12.4000006,
,,,-146.3999979E-9,79.999998212E-3,,,,,-146.3999979E-9,399.99997616E-3,,,,,-146.3999979E-9,12.4000006,
,,,-146.0000050E-9,79.999998212E-3,,,,,-146.0000050E-9,399.99997616E-3,,,,,-146.0000050E-9,12.4000006,
,,,-145.5999978E-9,79.999998212E-3,,,,,-145.5999978E-9,399.99997616E-3,,,,,-145.5999978E-9,12.4000006,
,,,-145.2000049E-9,79.999998212E-3,,,,,-145.2000049E-9,399.99997616E-3,,,,,-145.2000049E-9,12.4000006,
,,,-144.7999978E-9,119.9999973E-3,,,,,-144.7999978E-9,399.99997616E-3,,,,,-144.7999978E-9,12.4000006,
,,,-144.4000048E-9,119.9999973E-3,,,,,-144.4000048E-9,399.99997616E-3,,,,,-144.4000048E-9,12.8000002,
,,,-143.9999977E-9,119.9999973E-3,,,,,-143.9999977E-9,399.99997616E-3,,,,,-143.9999977E-9,12.8000002,
,,,-143.6000048E-9,79.999998212E-3,,,,,-143.6000048E-9,399.99997616E-3,,,,,-143.6000048E-9,12.8000002,
,,,-143.1999976E-9,79.999998212E-3,,,,,-143.1999976E-9,399.99997616E-3,,,,,-143.1999976E-9,12.8000002,
,,,-142.8000047E-9,79.999998212E-3,,,,,-142.8000047E-9,439.999997616E-3,,,,,-142.8000047E-9,12.8000002,
,,,-142.3999976E-9,79.999998212E-3,,,,,-142.3999976E-9,439.999997616E-3,,,,,-142.3999976E-9,12.4000006,
,,,-142.0000046E-9,79.999998212E-3,,,,,-142.0000046E-9,439.999997616E-3,,,,,-142.0000046E-9,12.4000006,
,,,-141.5999975E-9,39.99999911E-3,,,,,-141.5999975E-9,399.99997616E-3,,,,,-141.5999975E-9,12.4000006,
,,,-141.2000046E-9,39.99999911E-3,,,,,-141.2000046E-9,399.99997616E-3,,,,,-141.2000046E-9,12.8000002,
,,,-140.7999974E-9,39.99999911E-3,,,,,-140.7999974E-9,399.99997616E-3,,,,,-140.7999974E-9,12.8000002,
,,,-140.4000045E-9,39.99999911E-3,,,,,-140.4000045E-9,359.99998450E-3,,,,,-140.4000045E-9,12.4000006,
,,,-139.9999974E-9,39.99999911E-3,,,,,-139.9999974E-9,399.99997616E-3,,,,,-139.9999974E-9,12.8000002,
,,,-139.6000044E-9,39.99999911E-3,,,,,-139.6000044E-9,399.99997616E-3,,,,,-139.6000044E-9,12.4000006,
,,,-139.1999973E-9,39.99999911E-3,,,,,-139.1999973E-9,399.99997616E-3,,,,,-139.1999973E-9,12.4000006,
,,,-138.8000044E-9,39.99999911E-3,,,,,-138.8000044E-9,399.99997616E-3,,,,,-138.8000044E-9,12.4000006,
,,,-138.3999972E-9,39.99999911E-3,,,,,-138.3999972E-9,399.99997616E-3,,,,,-138.3999972E-9,12.4000006,
,,,-138.0000043E-9,39.99999911E-3,,,,,-138.0000043E-9,399.99997616E-3,,,,,-138.0000043E-9,12.4000006,
,,,-137.5999972E-9,39.99999911E-3,,,,,-137.5999972E-9,399.99997616E-3,,,,,-137.5999972E-9,12.4000006,
,,,-137.2000042E-9,39.99999911E-3,,,,,-137.2000042E-9,399.99997616E-3,,,,,-137.2000042E-9,12.4000006,
,,,-136.7999971E-9,39.99999911E-3,,,,,-136.7999971E-9,439.999997616E-3,,,,,-136.7999971E-9,12.4000006,
,,,-136.4000042E-9,39.99999911E-3,,,,,-136.4000042E-9,439.999997616E-3,,,,,-136.4000042E-9,12.4000006,
,,,-135.9999970E-9,39.99999911E-3,,,,,-135.9999970E-9,439.999997616E-3,,,,,-135.9999970E-9,12.4000006,
,,,-135.6000041E-9,39.99999911E-3,,,,,-135.6000041E-9,439.999997616E-3,,,,,-135.6000041E-9,12.4000006,
,,,-135.1999970E-9,39.99999911E-3,,,,,-135.1999970E-9,439.999997616E-3,,,,,-135.1999970E-9,12.4000006,
,,,-134.8000040E-9,39.99999911E-3,,,,,-134.8000040E-9,439.999997616E-3,,,,,-134.8000040E-9,12.4000006,
