15_5_cm/10_5_kV_Rog.csv

Record Length,2500,Points,419.999992118E-9,0.0,
Sample Interval,1.9999999E-9,s,421.999999389E-9,400.00000596E-3,
Trigger Point,-210.00000200,Samples,423.999978238E-9,0.0,
,,,425.999985509E-9,0.0,
,,,427.999992780E-9,400.00000596E-3,
,,,430.000000051E-9,0.0,
Source,MATH,,431.999978900E-9,400.00000596E-3,
Vertical Units,Volts,,433.999986171E-9,400.00000596E-3,
Vertical Scale,10.0000001,,435.999993442E-9,0.0,
Vertical Offset,0,,438.000000713E-9,0.0,
Horizontal Units,s,,439.999979562E-9,400.00000596E-3,
Horizontal Scale,499.999985859E-9,,441.999986833E-9,400.00000596E-3,
Pt Fmt,Y,,443.999994104E-9,0.0,
Yzero,0.0,,446.000001375E-9,400.00000596E-3,
,,,447.999980224E-9,400.00000596E-3,
,,,449.999987495E-9,0.0,
Note,TBS 1104 - 3:00:20 PM   2/3/2026,,451.999994766E-9,400.00000596E-3,
,,,454.000002037E-9,400.00000596E-3,
,,,455.999980886E-9,400.00000596E-3,
,,,457.999988157E-9,0.0,
,,,459.999995428E-9,400.00000596E-3,
,,,462.000002699E-9,400.00000596E-3,
,,,463.999981548E-9,0.0,
,,,465.999988819E-9,400.00000596E-3,
,,,467.999996090E-9,0.0,
,,,470.000003361E-9,400.00000596E-3,
,,,471.999982210E-9,400.00000596E-3,
,,,473.999989481E-9,400.00000596E-3,
,,,475.999996752E-9,400.00000596E-3,
,,,478.000004023E-9,0.0,
,,,479.999982872E-9,0.0,
,,,482.000018565E-9,400.00000596E-3,
,,,483.999997414E-9,0.0,
,,,485.999976263E-9,0.0,
,,,488.000011956E-9,400.00000596E-3,
,,,489.999990805E-9,0.0,
,,,491.999969654E-9,0.0,
,,,494.000005347E-9,400.00000596E-3,
,,,495.999984196E-9,0.0,
,,,497.999963045E-9,400.00000596E-3,
,,,499.999998738E-9,0.0,
,,,501.999977587E-9,0.0,
,,,504.000013279E-9,400.00000596E-3,
,,,505.999992129E-9,400.00000596E-3,
,,,507.999970978E-9,400.00000596E-3,
,,,510.000006670E-9,0.0,
,,,511.999985520E-9,400.00000596E-3,
,,,513.999964369E-9,400.00000596E-3,
,,,516.000000061E-9,0.0,
,,,517.999978911E-9,0.0,
,,,520.000014603E-9,0.0,
,,,521.999993452E-9,0.0,
,,,523.999972302E-9,400.00000596E-3,
,,,526.000007994E-9,0.0,
,,,527.999986843E-9,400.00000596E-3,
,,,529.999965693E-9,0.0,
,,,532.000001385E-9,400.00000596E-3,
,,,533.999980235E-9,400.00000596E-3,
,,,536.000015927E-9,400.00000596E-3,
,,,537.999994776E-9,400.00000596E-3,
,,,539.999973626E-9,0.0,
,,,542.000009318E-9,0.0,
,,,543.999988167E-9,-400.00000596E-3,
,,,545.999967017E-9,0.0,
,,,548.000002709E-9,0.0,
,,,549.999981558E-9,400.00000596E-3,
,,,551.999960408E-9,400.00000596E-3,
,,,553.999996100E-9,800.000011921E-3,
,,,555.999974949E-9,400.00000596E-3,
,,,558.000010642E-9,-400.00000596E-3,
,,,559.999989491E-9,0.0,
,,,561.999968340E-9,0.0,
,,,564.000004033E-9,0.0,
,,,565.999982882E-9,0.0,
,,,567.999961731E-9,0.0,
,,,569.999997424E-9,0.0,
,,,571.999976273E-9,0.0,
,,,574.000011966E-9,0.0,
,,,575.999990815E-9,0.0,
,,,577.999969664E-9,400.00000596E-3,
,,,580.000005357E-9,0.0,
,,,581.999984206E-9,0.0,
,,,583.999963055E-9,400.00000596E-3,
,,,585.999998748E-9,400.00000596E-3,
,,,587.999977597E-9,400.00000596E-3,
,,,590.000013290E-9,0.0,
,,,591.999992139E-9,-400.00000596E-3,
,,,593.999970988E-9,0.0,
,,,596.000006681E-9,0.0,
,,,597.999985530E-9,-400.00000596E-3,
,,,599.999964379E-9,-400.00000596E-3,
,,,602.000000072E-9,0.0,
,,,603.999978921E-9,-400.00000596E-3,
,,,606.000014614E-9,0.0,
,,,607.999993463E-9,0.0,
,,,609.999972312E-9,400.00000596E-3,
,,,612.000008005E-9,400.00000596E-3,
,,,613.999986854E-9,400.00000596E-3,
,,,615.999965703E-9,-400.00000596E-3,
,,,618.000001396E-9,0.0,
,,,619.999980245E-9,-400.00000596E-3,
,,,621.999959094E-9,0.0,
,,,623.999994787E-9,0.0,
,,,625.999973636E-9,0.0,
,,,628.000009328E-9,0.0,
,,,629.999988178E-9,0.0,
,,,631.999967027E-9,-400.00000596E-3,
,,,634.000002719E-9,-400.00000596E-3,
,,,635.999981569E-9,0.0,
,,,637.999960418E-9,-400.00000596E-3,
,,,639.999996110E-9,0.0,
,,,641.999974960E-9,-800.000011921E-3,
,,,644.000010652E-9,-400.00000596E-3,
,,,645.999989501E-9,0.0,
,,,647.999968351E-9,0.0,
,,,650.000004043E-9,0.0,
,,,651.999982892E-9,0.0,
,,,653.999961742E-9,400.00000596E-3,
,,,655.999997434E-9,0.0,
,,,657.999976283E-9,0.0,
,,,660.000011976E-9,0.0,
,,,661.999990825E-9,0.0,
,,,663.999969674E-9,-400.00000596E-3,
,,,666.000005367E-9,0.0,
,,,667.999984216E-9,0.0,
,,,669.999963065E-9,0.0,
,,,671.999998758E-9,0.0,
,,,673.999977607E-9,400.00000596E-3,
,,,676.000013300E-9,0.0,
,,,677.999992149E-9,0.0,
,,,679.999970998E-9,0.0,
,,,682.000006691E-9,0.0,
,,,683.999985540E-9,0.0,
,,,685.999964389E-9,0.0,
,,,688.000000082E-9,-400.00000596E-3,
,,,689.999978931E-9,0.0,
,,,691.999957780E-9,0.0,
,,,693.999993473E-9,-400.00000596E-3,
,,,695.999972322E-9,0.0,
,,,698.000008015E-9,-400.00000596E-3,
,,,699.999986864E-9,0.0,
,,,701.999965713E-9,0.0,
,,,704.000001406E-9,0.0,
,,,705.999980255E-9,0.0,
,,,707.999959104E-9,-400.00000596E-3,
,,,709.999994797E-9,400.00000596E-3,
,,,711.999973646E-9,0.0,
,,,714.000009339E-9,0.0,
,,,715.999988188E-9,0.0,
,,,717.999967037E-9,0.0,
,,,720.000002730E-9,0.0,
,,,721.999981579E-9,0.0,
,,,723.999960428E-9,0.0,
,,,725.999996121E-9,-400.00000596E-3,
,,,727.999974970E-9,0.0,
,,,730.000010662E-9,0.0,
,,,731.999989512E-9,0.0,
,,,733.999968361E-9,0.0,
,,,736.000004053E-9,0.0,
,,,737.999982903E-9,0.0,
,,,739.999961752E-9,0.0,
,,,741.999997445E-9,-400.00000596E-3,
,,,743.999976294E-9,0.0,
,,,745.999955143E-9,0.0,
,,,747.999990836E-9,-400.00000596E-3,
,,,749.999969685E-9,0.0,
,,,752.000005377E-9,400.00000596E-3,
,,,753.999984227E-9,400.00000596E-3,
,,,755.999963076E-9,0.0,
,,,757.999998768E-9,400.00000596E-3,
,,,759.999977618E-9,0.0,
,,,761.999956467E-9,-400.00000596E-3,
,,,763.999992159E-9,-400.00000596E-3,
,,,765.999971009E-9,0.0,
,,,768.000006701E-9,0.0,
,,,769.999985550E-9,0.0,
,,,771.999964400E-9,0.0,
,,,774.000000092E-9,400.00000596E-3,
,,,775.999978941E-9,0.0,
,,,777.999957791E-9,0.0,
,,,779.999993483E-9,0.0,
,,,781.999972332E-9,0.0,
,,,784.000008025E-9,0.0,
,,,785.999986874E-9,0.0,
,,,787.999965723E-9,-400.00000596E-3,
,,,790.000001416E-9,-400.00000596E-3,
,,,791.999980265E-9,0.0,
,,,793.999959114E-9,0.0,
,,,795.999994807E-9,0.0,
,,,797.999973656E-9,0.0,
,,,800.000009349E-9,0.0,
,,,801.999988198E-9,-400.00000596E-3,
,,,803.999967047E-9,-400.00000596E-3,
,,,806.000002740E-9,-400.00000596E-3,
,,,807.999981589E-9,-800.000011921E-3,
,,,809.999960438E-9,-400.00000596E-3,
,,,811.999996131E-9,400.00000596E-3,
,,,813.999974980E-9,0.0,
,,,815.999953829E-9,400.00000596E-3,
,,,817.999989522E-9,400.00000596E-3,
,,,819.999968371E-9,0.0,
,,,822.000004064E-9,-400.00000596E-3,
,,,823.999982913E-9,0.0,
,,,825.999961762E-9,400.00000596E-3,
,,,827.999997455E-9,800.000011921E-3,
,,,829.999976304E-9,400.00000596E-3,
,,,831.999955153E-9,400.00000596E-3,
,,,833.999990846E-9,1.2000000,
,,,835.999969695E-9,1.2000000,
,,,838.000005388E-9,1.2000000,
,,,839.999984237E-9,1.6000000,
,,,841.999963086E-9,1.6000000,
,,,843.999998779E-9,2.0000000,
,,,845.999977628E-9,2.0000000,
,,,847.999956477E-9,1.6000000,
,,,849.999992170E-9,2.0000000,
,,,851.999971019E-9,2.4000001,
,,,854.000006711E-9,2.79999995,
,,,855.999985561E-9,2.4000001,
,,,857.999964410E-9,3.60000014,
,,,860.000000102E-9,3.20000005,
,,,861.999978952E-9,4.00000000,
,,,863.999957801E-9,4.40000010,
,,,865.999993493E-9,4.80000019,
,,,867.999972343E-9,4.80000019,
,,,869.999951192E-9,4.40000010,
,,,871.999986884E-9,4.40000010,
,,,873.999965734E-9,4.80000019,
,,,876.000001426E-9,5.20000029,
,,,877.999980275E-9,5.20000029,
,,,879.999959125E-9,5.59999990,
,,,881.999994817E-9,5.59999990,
,,,883.999973667E-9,6.00000000,
,,,885.999952516E-9,6.00000000,
,,,887.999988208E-9,6.40000010,
,,,889.999967058E-9,6.00000000,
,,,892.000002750E-9,6.00000000,
,,,893.999981599E-9,6.80000019,
,,,895.999960449E-9,6.40000010,
,,,897.999996141E-9,6.80000019,
,,,899.999974990E-9,6.80000019,
,,,901.999953840E-9,6.80000019,
,,,903.999989532E-9,7.20000029,
,,,905.999968381E-9,7.20000029,
,,,908.000004074E-9,7.599999905,
,,,909.999982923E-9,7.599999905,
,,,911.999961772E-9,8.000000000,
,,,913.999997465E-9,8.000000000,
,,,915.999976314E-9,8.000000000,
,,,917.999955163E-9,8.000000000,
,,,919.999990856E-9,8.000000000,
,,,921.999969705E-9,8.000000000,
,,,924.000005398E-9,7.599999905,
,,,925.999984247E-9,8.000000000,
,,,927.999963096E-9,8.000000000,
,,,929.999998789E-9,8.000000000,
,,,931.999977638E-9,8.000000000,
,,,933.999956487E-9,8.000000000,
,,,935.999992180E-9,8.400000572,
,,,937.999971029E-9,8.400000572,
,,,939.999949878E-9,8.400000572,
,,,941.999985571E-9,8.400000572,
,,,943.999964420E-9,8.400000572,
,,,946.000000113E-9,8.400000572,
,,,947.999978962E-9,8.400000572,
,,,949.999957811E-9,8.000000000,
,,,951.999993504E-9,8.000000000,
,,,954.000029196E-9,8.000000000,
,,,956.000008046E-9,8.000000000,
,,,957.999986895E-9,8.400000572,
,,,959.999965744E-9,8.400000572,
,,,961.999944593E-9,8.400000572,
,,,963.999923442E-9,8.800000191,
,,,966.000015978E-9,8.800000191,
,,,967.999994828E-9,8.400000572,
,,,969.999973677E-9,8.000000000,
,,,971.999952526E-9,8.400000572,
,,,973.999931375E-9,8.000000000,
,,,976.000023911E-9,8.400000572,
,,,978.000002760E-9,8.400000572,
,,,979.999981610E-9,8.400000572,
,,,981.999960459E-9,8.400000572,
,,,983.999939308E-9,8.800000191,
,,,986.000031844E-9,8.800000191,
,,,988.000010693E-9,8.400000572,
,,,989.999989542E-9,8.800000191,
,,,991.999968392E-9,8.400000572,
,,,993.999947241E-9,8.800000191,
,,,995.999926090E-9,8.800000191,
,,,998.000018626E-9,8.800000191,
,,,1.000000E-6,8.800000191,
,,,1.0020000E-6,8.800000191,
,,,1.0040000E-6,9.199999809,
,,,1.0059999E-6,9.199999809,
,,,1.0080000E-6,9.600000381,
,,,1.0100000E-6,9.600000381,
,,,1.0120000E-6,9.600000381,
,,,1.0140000E-6,9.600000381,
,,,1.0159999E-6,9.199999809,
,,,1.0179999E-6,10.0000000,
,,,1.0200000E-6,10.0000000,
,,,1.0220000E-6,10.0000000,
,,,1.0240000E-6,10.4000006,
,,,1.0259999E-6,10.8000002,
,,,1.0279999E-6,10.8000002,
,,,1.0300000E-6,10.8000002,
,,,1.0320000E-6,11.1999998,
,,,1.0340000E-6,11.1999998,
,,,1.0360000E-6,11.6000004,
,,,1.0379999E-6,11.6000004,
,,,1.0400000E-6,12.0000000,
,,,1.0420000E-6,12.0000000,
,,,1.0440000E-6,12.0000000,
,,,1.0460000E-6,12.0000000,
,,,1.0479999E-6,12.4000006,
,,,1.0499999E-6,12.4000006,
,,,1.0520000E-6,12.4000006,
,,,1.0540000E-6,12.4000006,
,,,1.0560000E-6,12.8000002,
,,,1.0580000E-6,12.8000002,
,,,1.0599999E-6,13.1999998,
,,,1.0620000E-6,13.1999998,
,,,1.0640000E-6,13.1999998,
,,,1.0660000E-6,13.1999998,
,,,1.0680000E-6,14.0000000,
,,,1.0699999E-6,13.6000004,
,,,1.0719999E-6,13.1999998,
,,,1.0740000E-6,13.1999998,
,,,1.0760000E-6,13.6000004,
,,,1.0780000E-6,14.0000000,
,,,1.0799999E-6,14.0000000,
,,,1.0819999E-6,13.6000004,
,,,1.0840000E-6,14.0000000,
,,,1.0860000E-6,14.0000000,
,,,1.0880000E-6,14.0000000,
,,,1.0900000E-6,14.0000000,
,,,1.0919999E-6,14.0000000,
,,,1.0940000E-6,14.4000006,
,,,1.0960000E-6,14.4000006,
,,,1.0980000E-6,14.4000006,
,,,1.1000000E-6,14.4000006,
,,,1.1019999E-6,14.4000006,
,,,1.1039999E-6,14.4000006,
,,,1.1060000E-6,14.4000006,
,,,1.1080000E-6,14.4000006,
,,,1.1100000E-6,14.8000002,
,,,1.1119999E-6,14.4000006,
,,,1.1139999E-6,14.4000006,
,,,1.1160000E-6,14.4000006,
,,,1.1180000E-6,14.4000006,
,,,1.1200000E-6,14.8000002,
,,,1.1220000E-6,14.8000002,
,,,1.1239999E-6,14.4000006,
,,,1.1259999E-6,14.8000002,
,,,1.1280000E-6,14.8000002,
,,,1.1300000E-6,14.8000002,
,,,1.1320000E-6,14.8000002,
,,,1.1339999E-6,14.8000002,
,,,1.1359999E-6,14.8000002,
,,,1.1380000E-6,14.8000002,
,,,1.1400000E-6,14.8000002,
,,,1.1420000E-6,14.8000002,
,,,1.1440000E-6,14.8000002,
,,,1.1459999E-6,14.8000002,
,,,1.1480000E-6,14.8000002,
,,,1.1500000E-6,14.8000002,
,,,1.1520000E-6,14.8000002,
,,,1.1540000E-6,14.8000002,
,,,1.1559999E-6,14.8000002,
,,,1.1579999E-6,14.8000002,
,,,1.1600000E-6,14.8000002,
,,,1.1620000E-6,14.8000002,
,,,1.1640000E-6,15.1999998,
,,,1.1659999E-6,14.8000002,
,,,1.1679999E-6,15.6000004,
,,,1.1700000E-6,14.8000002,
,,,1.1720000E-6,15.6000004,
,,,1.1740000E-6,14.8000002,
,,,1.1760000E-6,15.1999998,
,,,1.1779999E-6,15.6000004,
,,,1.1800000E-6,16.0000000,
,,,1.1820000E-6,16.0000000,
,,,1.1840000E-6,15.6000004,
,,,1.1860000E-6,14.4000006,
,,,1.1879999E-6,16.8000011,
,,,1.1899999E-6,14.8000002,
,,,1.1920000E-6,16.8000011,
,,,1.1940000E-6,14.8000002,
,,,1.1960000E-6,13.6000004,
,,,1.1979999E-6,14.8000002,
,,,1.1999999E-6,16.3999996,
,,,1.2020000E-6,16.3999996,
,,,1.2040000E-6,15.1999998,
,,,1.2060000E-6,17.6000004,
,,,1.2080000E-6,18.0000000,
,,,1.2099999E-6,16.3999996,
,,,1.2119999E-6,18.0000000,
,,,1.2140000E-6,20.0000000,
,,,1.2160000E-6,18.8000011,
,,,1.2180000E-6,18.0000000,
,,,1.2199999E-6,18.8000011,
,,,1.2219999E-6,19.2000008,
,,,1.2240000E-6,18.0000000,
,,,1.2260000E-6,18.0000000,
,,,1.2280000E-6,17.6000004,
,,,1.2300000E-6,17.2000008,
,,,1.2319999E-6,19.6000004,
,,,1.2340000E-6,22.00000000,
,,,1.2360000E-6,20.0000000,
,,,1.2380000E-6,20.39999962,
,,,1.2400000E-6,23.60000038,
,,,1.2419999E-6,26.00000000,
,,,1.2439999E-6,22.00000000,
,,,1.2460000E-6,22.39999962,
,,,1.2480000E-6,20.39999962,
,,,1.2500000E-6,22.39999962,
,,,1.2519999E-6,22.00000000,
,,,1.2539999E-6,22.00000000,
,,,1.2560000E-6,18.3999996,
,,,1.2580000E-6,17.2000008,
,,,1.2600000E-6,17.2000008,
,,,1.2620000E-6,19.6000004,
,,,1.2639999E-6,18.8000011,
,,,1.2659999E-6,19.6000004,
,,,1.2680000E-6,18.0000000,
,,,1.2700000E-6,18.8000011,
,,,1.2720000E-6,16.8000011,
,,,1.2739999E-6,16.3999996,
,,,1.2759999E-6,14.8000002,
,,,1.2780000E-6,14.4000006,
,,,1.2800000E-6,15.6000004,
,,,1.2820000E-6,18.3999996,
,,,1.2839999E-6,20.80000114,
,,,1.2859999E-6,17.6000004,
,,,1.2880000E-6,18.0000000,
,,,1.2900000E-6,16.8000011,
,,,1.2920000E-6,16.3999996,
,,,1.2940000E-6,15.1999998,
,,,1.2959999E-6,12.8000002,
,,,1.2979999E-6,15.1999998,
,,,1.3000000E-6,17.6000004,
,,,1.3020000E-6,19.6000004,
,,,1.3040000E-6,21.60000038,
,,,1.3059999E-6,20.39999962,
,,,1.3079999E-6,16.0000000,
,,,1.3100000E-6,15.6000004,
,,,1.3120000E-6,16.8000011,
,,,1.3140000E-6,15.6000004,
,,,1.3160000E-6,15.6000004,
,,,1.3179999E-6,15.1999998,
,,,1.3199999E-6,17.2000008,
,,,1.3220000E-6,18.0000000,
,,,1.3240000E-6,20.39999962,
,,,1.3260000E-6,20.80000114,
,,,1.3279999E-6,18.8000011,
,,,1.3299999E-6,20.39999962,
,,,1.3320000E-6,19.6000004,
,,,1.3340000E-6,17.6000004,
,,,1.3360000E-6,15.6000004,
,,,1.3379999E-6,13.6000004,
,,,1.3399999E-6,15.6000004,
,,,1.3420000E-6,17.6000004,
,,,1.3440000E-6,21.20000076,
,,,1.3460000E-6,22.80000114,
,,,1.3480000E-6,22.00000000,
,,,1.3499999E-6,21.20000076,
,,,1.3519999E-6,20.80000114,
,,,1.3540000E-6,19.6000004,
,,,1.3560000E-6,18.0000000,
,,,1.3580000E-6,14.8000002,
,,,1.3599999E-6,14.8000002,
,,,1.3619999E-6,18.8000011,
,,,1.3640000E-6,20.80000114,
,,,1.3660000E-6,22.80000114,
,,,1.3680000E-6,24.39999962,
,,,1.3699999E-6,22.00000000,
,,,1.3719999E-6,21.60000038,
,,,1.3740000E-6,20.0000000,
,,,1.3760000E-6,19.6000004,
,,,1.3780000E-6,18.8000011,
,,,1.3800000E-6,18.3999996,
,,,1.3819999E-6,18.8000011,
,,,1.3839999E-6,19.2000008,
,,,1.3860000E-6,21.60000038,
,,,1.3880000E-6,23.20000076,
,,,1.3900000E-6,25.60000038,
,,,1.3919999E-6,25.20000076,
,,,1.3939999E-6,23.20000076,
,,,1.3960000E-6,20.39999962,
,,,1.3980000E-6,19.2000008,
,,,1.4000000E-6,17.6000004,
,,,1.4020000E-6,18.0000000,
,,,1.4039999E-6,21.60000038,
,,,1.4059999E-6,22.80000114,
,,,1.4080000E-6,24.00000000,
,,,1.4100000E-6,24.39999962,
,,,1.4120000E-6,24.00000000,
,,,1.4139999E-6,23.60000038,
,,,1.4159999E-6,23.20000076,
,,,1.4180000E-6,22.00000000,
,,,1.4200000E-6,20.0000000,
,,,1.4220000E-6,18.8000011,
,,,1.4239999E-6,18.8000011,
,,,1.4259999E-6,21.60000038,
,,,1.4280000E-6,24.00000000,
,,,1.4300000E-6,26.80000114,
,,,1.4320000E-6,26.39999962,
,,,1.4340000E-6,24.80000114,
,,,1.4359999E-6,22.80000114,
,,,1.4379999E-6,21.20000076,
,,,1.4400000E-6,20.0000000,
,,,1.4420000E-6,21.20000076,
,,,1.4440000E-6,19.6000004,
,,,1.4459999E-6,21.60000038,
,,,1.4479999E-6,22.80000114,
,,,1.4500000E-6,24.39999962,
,,,1.4520000E-6,26.00000000,
,,,1.4540000E-6,27.60000038,
,,,1.4559999E-6,24.80000114,
,,,1.4579999E-6,23.60000038,
,,,1.4599999E-6,20.0000000,
,,,1.4620000E-6,19.6000004,
,,,1.4640000E-6,20.0000000,
,,,1.4660000E-6,20.80000114,
,,,1.4679999E-6,24.39999962,
,,,1.4699999E-6,24.80000114,
,,,1.4720000E-6,26.80000114,
,,,1.4740000E-6,28.00000000,
,,,1.4760000E-6,24.39999962,
,,,1.4779999E-6,23.60000038,
,,,1.4799999E-6,22.00000000,
,,,1.4820000E-6,20.39999962,
,,,1.4840000E-6,20.80000114,
,,,1.4860000E-6,19.6000004,
,,,1.4880000E-6,23.20000076,
,,,1.4899999E-6,24.39999962,
,,,1.4919999E-6,28.39999962,
,,,1.4940000E-6,29.20000076,
,,,1.4960000E-6,26.80000114,
,,,1.4980000E-6,24.39999962,
,,,1.4999999E-6,22.80000114,
,,,1.5019999E-6,21.20000076,
,,,1.5040000E-6,21.20000076,
,,,1.5060000E-6,21.60000038,
,,,1.5080000E-6,23.20000076,
,,,1.5099999E-6,25.60000038,
,,,1.5119999E-6,26.39999962,
,,,1.5139999E-6,29.20000076,
,,,1.5160000E-6,28.80000114,
,,,1.5180000E-6,25.20000076,
,,,1.5200000E-6,26.00000000,
,,,1.5219999E-6,22.80000114,
,,,1.5239999E-6,21.20000076,
,,,1.5260000E-6,20.39999962,
,,,1.5280000E-6,22.00000000,
,,,1.5300000E-6,26.39999962,
,,,1.5319999E-6,28.00000000,
,,,1.5339999E-6,31.20000076,
,,,1.5360000E-6,30.39999962,
,,,1.5380000E-6,24.80000114,
,,,1.5400000E-6,24.80000114,
,,,1.5419999E-6,23.60000038,
,,,1.5439999E-6,22.39999962,
,,,1.5459999E-6,22.39999962,
,,,1.5480000E-6,24.00000000,
,,,1.5500000E-6,26.00000000,
,,,1.5520000E-6,27.20000076,
,,,1.5539999E-6,31.20000076,
,,,1.5559999E-6,31.60000038,
,,,1.5580000E-6,27.20000076,
,,,1.5600000E-6,27.20000076,
,,,1.5620000E-6,25.20000076,
,,,1.5639999E-6,22.00000000,
,,,1.5659999E-6,21.20000076,
,,,1.5680000E-6,24.00000000,
,,,1.5700000E-6,27.20000076,
,,,1.5720000E-6,29.20000076,
,,,1.5740000E-6,33.60000229,
,,,1.5759999E-6,32.00000000,
,,,1.5779999E-6,27.60000038,
,,,1.5800000E-6,26.80000114,
,,,1.5820000E-6,24.00000000,
,,,1.5840000E-6,24.00000000,
,,,1.5859999E-6,23.20000076,
,,,1.5879999E-6,25.20000076,
,,,1.5900000E-6,26.80000114,
,,,1.5920000E-6,29.20000076,
,,,1.5940000E-6,32.00000000,
,,,1.5959999E-6,30.80000114,
,,,1.5979999E-6,28.80000114,
,,,1.5999999E-6,26.39999962,
,,,1.6020000E-6,24.00000000,
,,,1.6040000E-6,23.60000038,
,,,1.6060000E-6,23.20000076,
,,,1.6079999E-6,24.80000114,
,,,1.6099999E-6,27.20000076,
,,,1.6120000E-6,29.60000038,
,,,1.6140000E-6,28.39999962,
,,,1.6160000E-6,28.39999962,
,,,1.6179999E-6,27.20000076,
,,,1.6199999E-6,25.20000076,
,,,1.6220000E-6,26.39999962,
,,,1.6240000E-6,25.20000076,
,,,1.6260000E-6,26.00000000,
,,,1.6279999E-6,22.00000000,
,,,1.6299999E-6,24.00000000,
,,,1.6319999E-6,25.60000038,
,,,1.6340000E-6,26.00000000,
,,,1.6360000E-6,29.60000038,
,,,1.6380000E-6,28.00000000,
,,,1.6399999E-6,27.20000076,
,,,1.6419999E-6,25.60000038,
,,,1.6440000E-6,23.60000038,
,,,1.6460000E-6,21.60000038,
,,,1.6480000E-6,20.39999962,
,,,1.6499999E-6,23.60000038,
,,,1.6519999E-6,24.80000114,
,,,1.6539999E-6,26.00000000,
,,,1.6560000E-6,27.60000038,
,,,1.6580000E-6,26.00000000,
,,,1.6600000E-6,25.20000076,
,,,1.6619999E-6,23.60000038,
,,,1.6639999E-6,22.80000114,
,,,1.6660000E-6,20.39999962,
,,,1.6680000E-6,20.0000000,
,,,1.6700000E-6,22.00000000,
,,,1.6719999E-6,23.60000038,
,,,1.6739999E-6,25.60000038,
,,,1.6760000E-6,26.00000000,
,,,1.6780000E-6,24.80000114,
,,,1.6800000E-6,22.39999962,
,,,1.6819999E-6,22.00000000,
,,,1.6839999E-6,21.60000038,
,,,1.6859999E-6,21.20000076,
,,,1.6880000E-6,21.60000038,
,,,1.6900000E-6,21.60000038,
,,,1.6920000E-6,22.80000114,
,,,1.6939999E-6,22.80000114,
,,,1.6959999E-6,22.80000114,
,,,1.6980000E-6,23.60000038,
,,,1.7000000E-6,23.60000038,
,,,1.7020000E-6,23.20000076,
,,,1.7039999E-6,22.39999962,
,,,1.7059999E-6,20.80000114,
,,,1.7079999E-6,19.6000004,
,,,1.7100000E-6,20.0000000,
,,,1.7120000E-6,22.00000000,
,,,1.7139999E-6,22.80000114,
,,,1.7159999E-6,23.60000038,
,,,1.7179999E-6,23.20000076,
,,,1.7200000E-6,22.80000114,
,,,1.7220000E-6,22.39999962,
,,,1.7240000E-6,22.39999962,
,,,1.7259999E-6,22.00000000,
,,,1.7279999E-6,20.80000114,
,,,1.7300000E-6,20.80000114,
,,,1.7320000E-6,21.20000076,
,,,1.7340000E-6,21.60000038,
,,,1.7359999E-6,23.20000076,
,,,1.7379999E-6,23.60000038,
,,,1.7399999E-6,24.39999962,
,,,1.7420000E-6,24.00000000,
,,,1.7440000E-6,23.20000076,
,,,1.7460000E-6,22.00000000,
,,,1.7479999E-6,20.39999962,
,,,1.7499999E-6,20.80000114,
,,,1.7520000E-6,21.60000038,
