15_5_cm/12_0_kV_O1_Rog.csv

Record Length,2500,Points,260.00000730E-9,0.0,
Sample Interval,1.9999999E-9,s,262.00001457E-9,0.0,
Trigger Point,-130.0000073,Samples,263.99999342E-9,0.0,
,,,266.00000069E-9,0.0,
,,,268.00000796E-9,400.00000596E-3,
,,,270.00001523E-9,400.00000596E-3,
Source,MATH,,271.99999408E-9,0.0,
Vertical Units,Volts,,274.00000135E-9,0.0,
Vertical Scale,10.0000001,,276.00000863E-9,0.0,
Vertical Offset,0,,278.00001590E-9,0.0,
Horizontal Units,s,,279.99999475E-9,400.00000596E-3,
Horizontal Scale,499.999985859E-9,,282.00000202E-9,0.0,
Pt Fmt,Y,,284.00000929E-9,0.0,
Yzero,0.0,,286.00001656E-9,0.0,
,,,287.99999541E-9,0.0,
,,,290.00000268E-9,400.00000596E-3,
Note,TBS 1104 - 2:49:17 PM   2/3/2026,,292.00000995E-9,0.0,
,,,294.00001722E-9,0.0,
,,,295.99999607E-9,0.0,
,,,298.00000334E-9,0.0,
,,,300.00001061E-9,0.0,
,,,302.00001788E-9,0.0,
,,,303.99999673E-9,0.0,
,,,306.00000400E-9,400.00000596E-3,
,,,308.00001127E-9,0.0,
,,,310.00001854E-9,0.0,
,,,311.99999739E-9,0.0,
,,,314.00000466E-9,0.0,
,,,316.00001194E-9,0.0,
,,,318.00001921E-9,400.00000596E-3,
,,,319.99999806E-9,0.0,
,,,322.00000533E-9,0.0,
,,,324.00001260E-9,0.0,
,,,325.99999145E-9,-400.00000596E-3,
,,,327.99999872E-9,0.0,
,,,330.00000599E-9,400.00000596E-3,
,,,332.00001326E-9,0.0,
,,,333.99999211E-9,400.00000596E-3,
,,,335.99999938E-9,0.0,
,,,338.00000665E-9,-400.00000596E-3,
,,,340.00001392E-9,0.0,
,,,341.99999277E-9,0.0,
,,,344.00000004E-9,0.0,
,,,346.00000731E-9,0.0,
,,,348.00001458E-9,0.0,
,,,349.99999343E-9,0.0,
,,,352.00000070E-9,0.0,
,,,354.00000797E-9,0.0,
,,,356.00001524E-9,0.0,
,,,357.99999409E-9,400.00000596E-3,
,,,360.00000136E-9,0.0,
,,,362.00000864E-9,0.0,
,,,364.00001591E-9,0.0,
,,,365.99999476E-9,400.00000596E-3,
,,,368.00000203E-9,0.0,
,,,370.00000930E-9,0.0,
,,,372.00001657E-9,0.0,
,,,373.99999542E-9,400.00000596E-3,
,,,376.00000269E-9,400.00000596E-3,
,,,378.00000996E-9,0.0,
,,,380.00001723E-9,0.0,
,,,381.99999608E-9,0.0,
,,,384.00000335E-9,400.00000596E-3,
,,,386.00001062E-9,0.0,
,,,387.99998947E-9,0.0,
,,,389.99999674E-9,0.0,
,,,392.00000401E-9,400.00000596E-3,
,,,394.00001128E-9,400.00000596E-3,
,,,395.99999013E-9,0.0,
,,,397.99999740E-9,400.00000596E-3,
,,,400.00000467E-9,0.0,
,,,402.00001195E-9,400.00000596E-3,
,,,403.999990795E-9,0.0,
,,,405.999998065E-9,400.00000596E-3,
,,,408.000005336E-9,0.0,
,,,410.000012607E-9,400.00000596E-3,
,,,411.999991456E-9,400.00000596E-3,
,,,413.999998727E-9,400.00000596E-3,
,,,416.000005998E-9,400.00000596E-3,
,,,418.000013269E-9,400.00000596E-3,
,,,419.999992118E-9,400.00000596E-3,
,,,421.999999389E-9,0.0,
,,,424.000006660E-9,0.0,
,,,426.000013931E-9,400.00000596E-3,
,,,427.999992780E-9,400.00000596E-3,
,,,430.000000051E-9,400.00000596E-3,
,,,432.000007322E-9,400.00000596E-3,
,,,434.000014593E-9,400.00000596E-3,
,,,435.999993442E-9,400.00000596E-3,
,,,438.000000713E-9,0.0,
,,,440.000007984E-9,-400.00000596E-3,
,,,442.000015255E-9,0.0,
,,,443.999994104E-9,0.0,
,,,446.000001375E-9,400.00000596E-3,
,,,448.000008646E-9,400.00000596E-3,
,,,450.000015917E-9,0.0,
,,,451.999994766E-9,0.0,
,,,454.000002037E-9,0.0,
,,,456.000009308E-9,400.00000596E-3,
,,,457.999988157E-9,400.00000596E-3,
,,,459.999995428E-9,400.00000596E-3,
,,,462.000002699E-9,400.00000596E-3,
,,,464.000009970E-9,400.00000596E-3,
,,,465.999988819E-9,400.00000596E-3,
,,,467.999996090E-9,0.0,
,,,470.000003361E-9,0.0,
,,,472.000010632E-9,0.0,
,,,473.999989481E-9,0.0,
,,,475.999996752E-9,0.0,
,,,478.000004023E-9,400.00000596E-3,
,,,479.999982872E-9,0.0,
,,,482.000018565E-9,0.0,
,,,483.999997414E-9,400.00000596E-3,
,,,485.999976263E-9,0.0,
,,,488.000011956E-9,0.0,
,,,489.999990805E-9,0.0,
,,,492.000026497E-9,400.00000596E-3,
,,,494.000005347E-9,0.0,
,,,495.999984196E-9,400.00000596E-3,
,,,498.000019888E-9,400.00000596E-3,
,,,499.999998738E-9,0.0,
,,,501.999977587E-9,0.0,
,,,504.000013279E-9,0.0,
,,,505.999992129E-9,0.0,
,,,508.000027821E-9,-400.00000596E-3,
,,,510.000006670E-9,0.0,
,,,511.999985520E-9,0.0,
,,,514.000021212E-9,0.0,
,,,516.000000061E-9,0.0,
,,,517.999978911E-9,0.0,
,,,520.000014603E-9,400.00000596E-3,
,,,521.999993452E-9,0.0,
,,,523.999972302E-9,0.0,
,,,526.000007994E-9,0.0,
,,,527.999986843E-9,0.0,
,,,530.000022536E-9,0.0,
,,,532.000001385E-9,0.0,
,,,533.999980235E-9,0.0,
,,,536.000015927E-9,-400.00000596E-3,
,,,537.999994776E-9,0.0,
,,,539.999973626E-9,-400.00000596E-3,
,,,542.000009318E-9,0.0,
,,,543.999988167E-9,0.0,
,,,546.000023860E-9,0.0,
,,,548.000002709E-9,0.0,
,,,549.999981558E-9,0.0,
,,,552.000017251E-9,400.00000596E-3,
,,,553.999996100E-9,0.0,
,,,555.999974949E-9,0.0,
,,,558.000010642E-9,0.0,
,,,559.999989491E-9,0.0,
,,,562.000025184E-9,0.0,
,,,564.000004033E-9,0.0,
,,,565.999982882E-9,0.0,
,,,568.000018575E-9,-400.00000596E-3,
,,,569.999997424E-9,0.0,
,,,571.999976273E-9,0.0,
,,,574.000011966E-9,0.0,
,,,575.999990815E-9,0.0,
,,,578.000026508E-9,-400.00000596E-3,
,,,580.000005357E-9,0.0,
,,,581.999984206E-9,400.00000596E-3,
,,,584.000019899E-9,400.00000596E-3,
,,,585.999998748E-9,0.0,
,,,587.999977597E-9,0.0,
,,,590.000013290E-9,0.0,
,,,591.999992139E-9,0.0,
,,,593.999970988E-9,-400.00000596E-3,
,,,596.000006681E-9,0.0,
,,,597.999985530E-9,0.0,
,,,600.000021223E-9,-400.00000596E-3,
,,,602.000000072E-9,0.0,
,,,603.999978921E-9,0.0,
,,,606.000014614E-9,-400.00000596E-3,
,,,607.999993463E-9,-400.00000596E-3,
,,,609.999972312E-9,0.0,
,,,612.000008005E-9,0.0,
,,,613.999986854E-9,0.0,
,,,616.000022546E-9,0.0,
,,,618.000001396E-9,0.0,
,,,619.999980245E-9,0.0,
,,,622.000015937E-9,-400.00000596E-3,
,,,623.999994787E-9,-400.00000596E-3,
,,,625.999973636E-9,-400.00000596E-3,
,,,628.000009328E-9,-400.00000596E-3,
,,,629.999988178E-9,0.0,
,,,632.000023870E-9,0.0,
,,,634.000002719E-9,0.0,
,,,635.999981569E-9,0.0,
,,,638.000017261E-9,-400.00000596E-3,
,,,639.999996110E-9,400.00000596E-3,
,,,641.999974960E-9,-400.00000596E-3,
,,,644.000010652E-9,400.00000596E-3,
,,,645.999989501E-9,400.00000596E-3,
,,,647.999968351E-9,400.00000596E-3,
,,,650.000004043E-9,-400.00000596E-3,
,,,651.999982892E-9,0.0,
,,,654.000018585E-9,0.0,
,,,655.999997434E-9,400.00000596E-3,
,,,657.999976283E-9,400.00000596E-3,
,,,660.000011976E-9,0.0,
,,,661.999990825E-9,0.0,
,,,663.999969674E-9,0.0,
,,,666.000005367E-9,-400.00000596E-3,
,,,667.999984216E-9,-400.00000596E-3,
,,,670.000019909E-9,400.00000596E-3,
,,,671.999998758E-9,0.0,
,,,673.999977607E-9,0.0,
,,,676.000013300E-9,400.00000596E-3,
,,,677.999992149E-9,0.0,
,,,679.999970998E-9,400.00000596E-3,
,,,682.000006691E-9,0.0,
,,,683.999985540E-9,0.0,
,,,686.000021233E-9,0.0,
,,,688.000000082E-9,0.0,
,,,689.999978931E-9,400.00000596E-3,
,,,692.000014624E-9,0.0,
,,,693.999993473E-9,0.0,
,,,695.999972322E-9,0.0,
,,,698.000008015E-9,400.00000596E-3,
,,,699.999986864E-9,0.0,
,,,702.000022557E-9,400.00000596E-3,
,,,704.000001406E-9,0.0,
,,,705.999980255E-9,400.00000596E-3,
,,,708.000015948E-9,-400.00000596E-3,
,,,709.999994797E-9,0.0,
,,,711.999973646E-9,400.00000596E-3,
,,,714.000009339E-9,0.0,
,,,715.999988188E-9,-400.00000596E-3,
,,,717.999967037E-9,0.0,
,,,720.000002730E-9,-400.00000596E-3,
,,,721.999981579E-9,-400.00000596E-3,
,,,724.000017271E-9,-400.00000596E-3,
,,,725.999996121E-9,0.0,
,,,727.999974970E-9,0.0,
,,,730.000010662E-9,400.00000596E-3,
,,,731.999989512E-9,0.0,
,,,733.999968361E-9,-400.00000596E-3,
,,,736.000004053E-9,-400.00000596E-3,
,,,737.999982903E-9,0.0,
,,,740.000018595E-9,0.0,
,,,741.999997445E-9,400.00000596E-3,
,,,743.999976294E-9,400.00000596E-3,
,,,746.000011986E-9,400.00000596E-3,
,,,747.999990836E-9,800.000011921E-3,
,,,749.999969685E-9,1.2000000,
,,,752.000005377E-9,1.6000000,
,,,753.999984227E-9,1.6000000,
,,,756.000019919E-9,2.4000001,
,,,757.999998768E-9,1.6000000,
,,,759.999977618E-9,2.0000000,
,,,762.000013310E-9,1.6000000,
,,,763.999992159E-9,2.0000000,
,,,765.999971009E-9,2.0000000,
,,,768.000006701E-9,2.4000001,
,,,769.999985550E-9,3.20000005,
,,,772.000021243E-9,3.20000005,
,,,774.000000092E-9,4.00000000,
,,,775.999978941E-9,4.00000000,
,,,778.000014634E-9,4.40000010,
,,,779.999993483E-9,4.80000019,
,,,781.999972332E-9,4.80000019,
,,,784.000008025E-9,4.80000019,
,,,785.999986874E-9,4.80000019,
,,,787.999965723E-9,5.20000029,
,,,790.000001416E-9,5.20000029,
,,,791.999980265E-9,5.20000029,
,,,794.000015958E-9,5.59999990,
,,,795.999994807E-9,6.00000000,
,,,797.999973656E-9,6.40000010,
,,,800.000009349E-9,6.40000010,
,,,801.999988198E-9,6.80000019,
,,,803.999967047E-9,6.80000019,
,,,806.000002740E-9,7.20000029,
,,,807.999981589E-9,7.599999905,
,,,810.000017282E-9,7.599999905,
,,,811.999996131E-9,7.20000029,
,,,813.999974980E-9,7.599999905,
,,,816.000010673E-9,7.599999905,
,,,817.999989522E-9,7.599999905,
,,,819.999968371E-9,8.000000000,
,,,822.000004064E-9,8.400000572,
,,,823.999982913E-9,8.400000572,
,,,826.000018606E-9,8.000000000,
,,,827.999997455E-9,8.800000191,
,,,829.999976304E-9,8.800000191,
,,,832.000011997E-9,8.800000191,
,,,833.999990846E-9,9.199999809,
,,,835.999969695E-9,8.800000191,
,,,838.000005388E-9,8.800000191,
,,,839.999984237E-9,8.800000191,
,,,841.999963086E-9,9.199999809,
,,,843.999998779E-9,9.199999809,
,,,845.999977628E-9,9.199999809,
,,,848.000013320E-9,9.199999809,
,,,849.999992170E-9,9.199999809,
,,,851.999971019E-9,9.199999809,
,,,854.000006711E-9,9.600000381,
,,,855.999985561E-9,9.600000381,
,,,857.999964410E-9,9.600000381,
,,,860.000000102E-9,9.600000381,
,,,861.999978952E-9,9.199999809,
,,,864.000014644E-9,8.800000191,
,,,865.999993493E-9,9.199999809,
,,,867.999972343E-9,9.199999809,
,,,870.000008035E-9,9.199999809,
,,,871.999986884E-9,8.800000191,
,,,873.999965734E-9,8.800000191,
,,,876.000001426E-9,9.199999809,
,,,877.999980275E-9,9.199999809,
,,,880.000015968E-9,9.600000381,
,,,881.999994817E-9,9.600000381,
,,,883.999973667E-9,9.600000381,
,,,886.000009359E-9,9.199999809,
,,,887.999988208E-9,9.600000381,
,,,889.999967058E-9,9.199999809,
,,,892.000002750E-9,9.199999809,
,,,893.999981599E-9,9.199999809,
,,,896.000017292E-9,9.600000381,
,,,897.999996141E-9,9.600000381,
,,,899.999974990E-9,9.600000381,
,,,902.000010683E-9,9.600000381,
,,,903.999989532E-9,9.600000381,
,,,905.999968381E-9,9.600000381,
,,,908.000004074E-9,9.600000381,
,,,909.999982923E-9,9.600000381,
,,,911.999961772E-9,9.600000381,
,,,913.999997465E-9,9.600000381,
,,,915.999976314E-9,10.0000000,
,,,918.000012007E-9,10.0000000,
,,,919.999990856E-9,10.0000000,
,,,921.999969705E-9,10.4000006,
,,,924.000005398E-9,10.4000006,
,,,925.999984247E-9,10.4000006,
,,,927.999963096E-9,10.8000002,
,,,929.999998789E-9,10.8000002,
,,,931.999977638E-9,11.1999998,
,,,934.000013331E-9,10.8000002,
,,,935.999992180E-9,11.6000004,
,,,937.999971029E-9,11.6000004,
,,,940.000006722E-9,11.6000004,
,,,941.999985571E-9,11.6000004,
,,,943.999964420E-9,12.0000000,
,,,946.000000113E-9,12.8000002,
,,,947.999978962E-9,12.4000006,
,,,950.000014655E-9,12.8000002,
,,,951.999993504E-9,12.8000002,
,,,954.000029196E-9,12.8000002,
,,,956.000008046E-9,13.1999998,
,,,957.999986895E-9,13.6000004,
,,,959.999965744E-9,13.6000004,
,,,961.999944593E-9,14.0000000,
,,,964.000037129E-9,14.0000000,
,,,966.000015978E-9,14.4000006,
,,,967.999994828E-9,14.4000006,
,,,969.999973677E-9,14.4000006,
,,,971.999952526E-9,14.0000000,
,,,973.999931375E-9,14.4000006,
,,,976.000023911E-9,14.8000002,
,,,978.000002760E-9,15.1999998,
,,,979.999981610E-9,15.1999998,
,,,981.999960459E-9,15.6000004,
,,,983.999939308E-9,15.1999998,
,,,986.000031844E-9,15.6000004,
,,,988.000010693E-9,16.0000000,
,,,989.999989542E-9,15.6000004,
,,,991.999968392E-9,15.6000004,
,,,993.999947241E-9,16.0000000,
,,,996.000039777E-9,16.0000000,
,,,998.000018626E-9,16.3999996,
,,,1.000000E-6,16.3999996,
,,,1.0020000E-6,16.3999996,
,,,1.0040000E-6,16.3999996,
,,,1.0059999E-6,16.8000011,
,,,1.0080000E-6,16.3999996,
,,,1.0100000E-6,16.8000011,
,,,1.0120000E-6,16.3999996,
,,,1.0140000E-6,16.8000011,
,,,1.0159999E-6,16.8000011,
,,,1.0180000E-6,16.8000011,
,,,1.0200000E-6,17.2000008,
,,,1.0220000E-6,16.8000011,
,,,1.0240000E-6,16.8000011,
,,,1.0259999E-6,16.8000011,
,,,1.0280000E-6,16.8000011,
,,,1.0300000E-6,16.8000011,
,,,1.0320000E-6,17.2000008,
,,,1.0340000E-6,16.8000011,
,,,1.0360000E-6,17.2000008,
,,,1.0379999E-6,17.2000008,
,,,1.0400000E-6,17.2000008,
,,,1.0420000E-6,17.2000008,
,,,1.0440000E-6,17.6000004,
,,,1.0460000E-6,16.8000011,
,,,1.0479999E-6,16.8000011,
,,,1.0500000E-6,17.2000008,
,,,1.0520000E-6,16.8000011,
,,,1.0540000E-6,17.6000004,
,,,1.0560000E-6,16.8000011,
,,,1.0580000E-6,16.8000011,
,,,1.0599999E-6,17.2000008,
,,,1.0620000E-6,17.6000004,
,,,1.0640000E-6,16.8000011,
,,,1.0660000E-6,17.6000004,
,,,1.0680000E-6,17.6000004,
,,,1.0699999E-6,16.8000011,
,,,1.0720000E-6,16.8000011,
,,,1.0740000E-6,18.0000000,
,,,1.0760000E-6,17.2000008,
,,,1.0780000E-6,16.3999996,
,,,1.0799999E-6,18.3999996,
,,,1.0820000E-6,18.0000000,
,,,1.0840000E-6,17.2000008,
,,,1.0860000E-6,18.3999996,
,,,1.0880000E-6,19.2000008,
,,,1.0900000E-6,18.0000000,
,,,1.0919999E-6,16.8000011,
,,,1.0940000E-6,20.80000114,
,,,1.0960000E-6,18.8000011,
,,,1.0980000E-6,16.8000011,
,,,1.1000000E-6,17.2000008,
,,,1.1019999E-6,18.8000011,
,,,1.1040000E-6,16.8000011,
,,,1.1060000E-6,17.6000004,
,,,1.1080000E-6,19.2000008,
,,,1.1100000E-6,18.0000000,
,,,1.1119999E-6,18.8000011,
,,,1.1139999E-6,19.6000004,
,,,1.1160000E-6,17.2000008,
,,,1.1180000E-6,16.8000011,
,,,1.1200000E-6,20.0000000,
,,,1.1220000E-6,21.20000076,
,,,1.1239999E-6,19.2000008,
,,,1.1260000E-6,17.6000004,
,,,1.1280000E-6,19.2000008,
,,,1.1300000E-6,16.8000011,
,,,1.1320000E-6,17.6000004,
,,,1.1339999E-6,19.2000008,
,,,1.1360000E-6,20.39999962,
,,,1.1380000E-6,20.80000114,
,,,1.1400000E-6,20.80000114,
,,,1.1420000E-6,22.39999962,
,,,1.1440000E-6,23.60000038,
,,,1.1459999E-6,20.0000000,
,,,1.1480000E-6,21.60000038,
,,,1.1500000E-6,19.6000004,
,,,1.1520000E-6,16.8000011,
,,,1.1540000E-6,18.0000000,
,,,1.1559999E-6,22.80000114,
,,,1.1580000E-6,25.60000038,
,,,1.1600000E-6,26.00000000,
,,,1.1620000E-6,28.80000114,
,,,1.1640000E-6,22.39999962,
,,,1.1659999E-6,20.0000000,
,,,1.1679999E-6,22.80000114,
,,,1.1700000E-6,20.0000000,
,,,1.1720000E-6,21.60000038,
,,,1.1740000E-6,22.00000000,
,,,1.1760000E-6,24.39999962,
,,,1.1779999E-6,23.20000076,
,,,1.1800000E-6,24.39999962,
,,,1.1820000E-6,28.00000000,
,,,1.1840000E-6,26.39999962,
,,,1.1860000E-6,25.20000076,
,,,1.1879999E-6,25.60000038,
,,,1.1900000E-6,22.39999962,
,,,1.1920000E-6,21.20000076,
,,,1.1940000E-6,20.39999962,
,,,1.1960000E-6,22.39999962,
,,,1.1979999E-6,24.00000000,
,,,1.1999999E-6,27.20000076,
,,,1.2020000E-6,28.80000114,
,,,1.2040000E-6,27.20000076,
,,,1.2060000E-6,25.60000038,
,,,1.2080000E-6,27.20000076,
,,,1.2099999E-6,25.20000076,
,,,1.2120000E-6,23.60000038,
,,,1.2140000E-6,19.2000008,
,,,1.2160000E-6,21.20000076,
,,,1.2180000E-6,24.00000000,
,,,1.2199999E-6,27.20000076,
,,,1.2219999E-6,30.00000000,
,,,1.2240000E-6,30.80000114,
,,,1.2260000E-6,25.20000076,
,,,1.2280000E-6,25.60000038,
,,,1.2300000E-6,25.20000076,
,,,1.2319999E-6,22.80000114,
,,,1.2340000E-6,22.80000114,
,,,1.2360000E-6,22.39999962,
,,,1.2380000E-6,24.00000000,
,,,1.2400000E-6,25.20000076,
,,,1.2419999E-6,28.80000114,
,,,1.2440000E-6,31.20000076,
,,,1.2460000E-6,28.00000000,
,,,1.2480000E-6,27.20000076,
,,,1.2500000E-6,26.80000114,
,,,1.2519999E-6,23.20000076,
,,,1.2539999E-6,21.60000038,
,,,1.2560000E-6,19.6000004,
,,,1.2580000E-6,24.00000000,
,,,1.2600000E-6,26.39999962,
,,,1.2620000E-6,28.80000114,
,,,1.2639999E-6,31.60000038,
,,,1.2660000E-6,29.60000038,
,,,1.2680000E-6,26.39999962,
,,,1.2700000E-6,28.39999962,
,,,1.2720000E-6,24.80000114,
,,,1.2739999E-6,22.39999962,
,,,1.2760000E-6,20.39999962,
,,,1.2780000E-6,23.60000038,
,,,1.2800000E-6,27.20000076,
,,,1.2820000E-6,27.60000038,
,,,1.2839999E-6,32.79999924,
,,,1.2859999E-6,30.80000114,
,,,1.2880000E-6,27.60000038,
,,,1.2900000E-6,28.39999962,
,,,1.2920000E-6,25.60000038,
,,,1.2940000E-6,24.00000000,
,,,1.2959999E-6,22.00000000,
,,,1.2980000E-6,24.39999962,
,,,1.3000000E-6,26.39999962,
,,,1.3020000E-6,29.20000076,
,,,1.3040000E-6,34.40000153,
,,,1.3059999E-6,32.79999924,
,,,1.3079999E-6,29.20000076,
,,,1.3100000E-6,28.80000114,
,,,1.3120000E-6,27.60000038,
,,,1.3140000E-6,25.60000038,
,,,1.3160000E-6,24.39999962,
,,,1.3179999E-6,25.60000038,
,,,1.3200000E-6,26.39999962,
,,,1.3220000E-6,30.39999962,
,,,1.3240000E-6,34.00000000,
,,,1.3260000E-6,34.40000153,
,,,1.3279999E-6,33.20000076,
,,,1.3300000E-6,31.20000076,
,,,1.3320000E-6,28.80000114,
,,,1.3340000E-6,23.60000038,
,,,1.3360000E-6,24.39999962,
,,,1.3379999E-6,25.60000038,
,,,1.3399999E-6,29.20000076,
,,,1.3420000E-6,34.40000153,
,,,1.3440000E-6,35.20000076,
,,,1.3460000E-6,34.00000000,
,,,1.3480000E-6,32.40000153,
,,,1.3499999E-6,30.00000000,
,,,1.3520000E-6,30.00000000,
,,,1.3540000E-6,29.20000076,
,,,1.3560000E-6,28.39999962,
,,,1.3580000E-6,27.20000076,
,,,1.3599999E-6,30.00000000,
,,,1.3619999E-6,32.79999924,
,,,1.3640000E-6,33.20000076,
,,,1.3660000E-6,35.20000076,
,,,1.3680000E-6,33.20000076,
,,,1.3699999E-6,30.39999962,
,,,1.3719999E-6,30.80000114,
,,,1.3740000E-6,31.20000076,
,,,1.3760000E-6,30.00000000,
,,,1.3780000E-6,30.39999962,
,,,1.3800000E-6,33.60000229,
,,,1.3819999E-6,31.20000076,
,,,1.3840000E-6,31.60000038,
,,,1.3860000E-6,32.00000000,
,,,1.3880000E-6,32.00000000,
,,,1.3900000E-6,32.40000153,
,,,1.3919999E-6,33.20000076,
,,,1.3939999E-6,33.20000076,
,,,1.3960000E-6,31.20000076,
,,,1.3980000E-6,29.20000076,
,,,1.4000000E-6,30.39999962,
,,,1.4020000E-6,28.80000114,
,,,1.4039999E-6,31.60000038,
,,,1.4060000E-6,30.00000000,
,,,1.4080000E-6,32.00000000,
,,,1.4100000E-6,33.60000229,
,,,1.4120000E-6,32.79999924,
,,,1.4139999E-6,34.40000153,
,,,1.4159999E-6,31.20000076,
,,,1.4180000E-6,26.80000114,
,,,1.4200000E-6,24.80000114,
,,,1.4220000E-6,25.60000038,
,,,1.4239999E-6,28.39999962,
,,,1.4259999E-6,33.20000076,
,,,1.4280000E-6,36.79999924,
,,,1.4300000E-6,34.79999924,
,,,1.4320000E-6,31.20000076,
,,,1.4340000E-6,27.60000038,
,,,1.4359999E-6,24.39999962,
,,,1.4380000E-6,24.80000114,
,,,1.4400000E-6,27.20000076,
,,,1.4420000E-6,30.80000114,
,,,1.4440000E-6,30.80000114,
,,,1.4459999E-6,31.60000038,
,,,1.4479999E-6,29.20000076,
,,,1.4500000E-6,26.80000114,
,,,1.4520000E-6,27.60000038,
,,,1.4540000E-6,27.20000076,
,,,1.4559999E-6,28.80000114,
,,,1.4579999E-6,28.80000114,
,,,1.4600000E-6,27.60000038,
,,,1.4620000E-6,26.80000114,
,,,1.4640000E-6,25.60000038,
,,,1.4660000E-6,27.20000076,
,,,1.4679999E-6,26.00000000,
,,,1.4700000E-6,27.20000076,
,,,1.4720000E-6,28.00000000,
,,,1.4740000E-6,28.39999962,
,,,1.4760000E-6,29.20000076,
,,,1.4779999E-6,28.00000000,
,,,1.4799999E-6,26.39999962,
,,,1.4820000E-6,24.39999962,
,,,1.4840000E-6,24.00000000,
,,,1.4860000E-6,25.20000076,
,,,1.4880000E-6,26.39999962,
,,,1.4899999E-6,28.00000000,
,,,1.4920000E-6,28.39999962,
,,,1.4940000E-6,28.80000114,
,,,1.4960000E-6,28.39999962,
,,,1.4980000E-6,26.00000000,
,,,1.4999999E-6,24.80000114,
,,,1.5019999E-6,24.39999962,
,,,1.5040000E-6,25.60000038,
,,,1.5060000E-6,25.60000038,
,,,1.5080000E-6,26.00000000,
,,,1.5099999E-6,27.60000038,
,,,1.5119999E-6,26.39999962,
,,,1.5140000E-6,28.00000000,
,,,1.5160000E-6,28.39999962,
,,,1.5180000E-6,27.20000076,
,,,1.5200000E-6,25.60000038,
,,,1.5219999E-6,24.39999962,
,,,1.5240000E-6,24.39999962,
,,,1.5260000E-6,25.20000076,
,,,1.5280000E-6,26.80000114,
,,,1.5300000E-6,28.39999962,
,,,1.5319999E-6,28.80000114,
,,,1.5339999E-6,28.39999962,
,,,1.5360000E-6,26.80000114,
,,,1.5380000E-6,26.00000000,
,,,1.5400000E-6,25.60000038,
,,,1.5419999E-6,26.00000000,
,,,1.5439999E-6,27.20000076,
,,,1.5460000E-6,28.00000000,
,,,1.5480000E-6,26.80000114,
,,,1.5500000E-6,26.39999962,
,,,1.5520000E-6,26.80000114,
,,,1.5539999E-6,26.80000114,
,,,1.5559999E-6,28.00000000,
,,,1.5580000E-6,28.00000000,
,,,1.5600000E-6,27.60000038,
,,,1.5620000E-6,27.20000076,
,,,1.5639999E-6,26.39999962,
,,,1.5659999E-6,26.39999962,
,,,1.5680000E-6,26.00000000,
,,,1.5700000E-6,26.39999962,
,,,1.5720000E-6,26.80000114,
,,,1.5740000E-6,27.20000076,
,,,1.5759999E-6,27.60000038,
,,,1.5780000E-6,28.00000000,
,,,1.5800000E-6,27.60000038,
,,,1.5820000E-6,27.20000076,
,,,1.5840000E-6,26.00000000,
,,,1.5859999E-6,25.60000038,
,,,1.5879999E-6,25.60000038,
