15_5_cm/12_kV_O2.csv

Record Length,2500,Points,3.99999989E-9,280.00000119E-3,,Record Length,2500,Points,3.99999989E-9,-159.99999642E-3,
Sample Interval,400.00000370E-12,s,4.39999992E-9,239.99999464E-3,,Sample Interval,400.00000370E-12,s,4.39999992E-9,-159.99999642E-3,
Trigger Point,-9.999999584,Samples,4.79999995E-9,239.99999464E-3,,Trigger Point,-9.999999584,Samples,4.79999995E-9,-159.99999642E-3,
,,,5.19999999E-9,239.99999464E-3,,,,,5.19999999E-9,-159.99999642E-3,
,,,5.60000002E-9,239.99999464E-3,,,,,5.60000002E-9,-159.99999642E-3,
,,,6.00000005E-9,239.99999464E-3,,,,,6.00000005E-9,-159.99999642E-3,
Source,CH1,,6.40000009E-9,239.99999464E-3,,Source,CH2,,6.40000009E-9,-159.99999642E-3,
Vertical Units,Volts,,6.80000012E-9,239.99999464E-3,,Vertical Units,Volts,,6.80000012E-9,-159.99999642E-3,
Vertical Scale,999.999977648E-3,,7.19999971E-9,239.99999464E-3,,Vertical Scale,999.999977648E-3,,7.19999971E-9,-159.99999642E-3,
Vertical Offset,0,,7.599999741E-9,239.99999464E-3,,Vertical Offset,0,,7.599999741E-9,-159.99999642E-3,
Horizontal Units,s,,7.999999774E-9,239.99999464E-3,,Horizontal Units,s,,7.999999774E-9,-159.99999642E-3,
Horizontal Scale,100.0000013E-9,,8.399999807E-9,280.00000119E-3,,Horizontal Scale,100.0000013E-9,,8.399999807E-9,-159.99999642E-3,
Pt Fmt,Y,,8.799999840E-9,280.00000119E-3,,Pt Fmt,Y,,8.799999840E-9,-159.99999642E-3,
Yzero,1.0400000,,9.199999873E-9,280.00000119E-3,,Yzero,-1.5600000,,9.199999873E-9,-159.99999642E-3,
Probe Atten,1.000000,,9.599999906E-9,280.00000119E-3,,Probe Atten,1.000000,,9.599999906E-9,-159.99999642E-3,
,,,9.999999939E-9,280.00000119E-3,,,,,9.999999939E-9,-159.99999642E-3,
Note,TBS 1104 - 2:52:29 PM   2/3/2026,,10.4000000E-9,239.99999464E-3,,Note,TBS 1104 - 2:52:29 PM   2/3/2026,,10.4000000E-9,-119.9999973E-3,
,,,10.8000000E-9,239.99999464E-3,,,,,10.8000000E-9,-159.99999642E-3,
,,,11.2000000E-9,239.99999464E-3,,,,,11.2000000E-9,-159.99999642E-3,
,,,11.6000001E-9,239.99999464E-3,,,,,11.6000001E-9,-199.99998808E-3,
,,,12.0000001E-9,239.99999464E-3,,,,,12.0000001E-9,-199.99998808E-3,
,,,12.4000001E-9,280.00000119E-3,,,,,12.4000001E-9,-199.99998808E-3,
,,,12.8000002E-9,280.00000119E-3,,,,,12.8000002E-9,-199.99998808E-3,
,,,13.2000002E-9,319.99999285E-3,,,,,13.2000002E-9,-199.99998808E-3,
,,,13.6000002E-9,280.00000119E-3,,,,,13.6000002E-9,-199.99998808E-3,
,,,14.0000003E-9,280.00000119E-3,,,,,14.0000003E-9,-199.99998808E-3,
,,,14.4000003E-9,280.00000119E-3,,,,,14.4000003E-9,-199.99998808E-3,
,,,14.8000003E-9,280.00000119E-3,,,,,14.8000003E-9,-199.99998808E-3,
,,,15.1999995E-9,319.99999285E-3,,,,,15.1999995E-9,-199.99998808E-3,
,,,15.5999995E-9,319.99999285E-3,,,,,15.5999995E-9,-199.99998808E-3,
,,,15.9999995E-9,319.99999285E-3,,,,,15.9999995E-9,-199.99998808E-3,
,,,16.3999996E-9,359.99998450E-3,,,,,16.3999996E-9,-199.99998808E-3,
,,,16.7999996E-9,359.99998450E-3,,,,,16.7999996E-9,-199.99998808E-3,
,,,17.1999996E-9,359.99998450E-3,,,,,17.1999996E-9,-199.99998808E-3,
,,,17.5999997E-9,319.99999285E-3,,,,,17.5999997E-9,-239.99999464E-3,
,,,17.9999997E-9,319.99999285E-3,,,,,17.9999997E-9,-199.99998808E-3,
,,,18.3999997E-9,319.99999285E-3,,,,,18.3999997E-9,-199.99998808E-3,
,,,18.7999998E-9,319.99999285E-3,,,,,18.7999998E-9,-199.99998808E-3,
,,,19.1999998E-9,319.99999285E-3,,,,,19.1999998E-9,-159.99999642E-3,
,,,19.5999998E-9,280.00000119E-3,,,,,19.5999998E-9,-199.99998808E-3,
,,,19.9999999E-9,280.00000119E-3,,,,,19.9999999E-9,-199.99998808E-3,
,,,20.39999991E-9,280.00000119E-3,,,,,20.39999991E-9,-199.99998808E-3,
,,,20.79999994E-9,280.00000119E-3,,,,,20.79999994E-9,-239.99999464E-3,
,,,21.19999998E-9,280.00000119E-3,,,,,21.19999998E-9,-199.99998808E-3,
,,,21.60000001E-9,239.99999464E-3,,,,,21.60000001E-9,-199.99998808E-3,
,,,22.00000004E-9,239.99999464E-3,,,,,22.00000004E-9,-199.99998808E-3,
,,,22.40000008E-9,239.99999464E-3,,,,,22.40000008E-9,-159.99999642E-3,
,,,22.80000011E-9,199.99998808E-3,,,,,22.80000011E-9,-159.99999642E-3,
,,,23.20000014E-9,239.99999464E-3,,,,,23.20000014E-9,-159.99999642E-3,
,,,23.60000018E-9,239.99999464E-3,,,,,23.60000018E-9,-159.99999642E-3,
,,,24.00000021E-9,239.99999464E-3,,,,,24.00000021E-9,-159.99999642E-3,
,,,24.40000024E-9,280.00000119E-3,,,,,24.40000024E-9,-119.9999973E-3,
,,,24.80000028E-9,280.00000119E-3,,,,,24.80000028E-9,-119.9999973E-3,
,,,25.20000031E-9,319.99999285E-3,,,,,25.20000031E-9,-119.9999973E-3,
,,,25.60000034E-9,319.99999285E-3,,,,,25.60000034E-9,-159.99999642E-3,
,,,26.00000037E-9,319.99999285E-3,,,,,26.00000037E-9,-159.99999642E-3,
,,,26.40000041E-9,280.00000119E-3,,,,,26.40000041E-9,-159.99999642E-3,
,,,26.80000044E-9,280.00000119E-3,,,,,26.80000044E-9,-159.99999642E-3,
,,,27.20000047E-9,280.00000119E-3,,,,,27.20000047E-9,-119.9999973E-3,
,,,27.60000051E-9,239.99999464E-3,,,,,27.60000051E-9,-119.9999973E-3,
,,,28.00000054E-9,239.99999464E-3,,,,,28.00000054E-9,-119.9999973E-3,
,,,28.40000057E-9,280.00000119E-3,,,,,28.40000057E-9,-119.9999973E-3,
,,,28.80000061E-9,319.99999285E-3,,,,,28.80000061E-9,-119.9999973E-3,
,,,29.20000064E-9,359.99998450E-3,,,,,29.20000064E-9,-119.9999973E-3,
,,,29.60000067E-9,359.99998450E-3,,,,,29.60000067E-9,-119.9999973E-3,
,,,29.99999893E-9,359.99998450E-3,,,,,29.99999893E-9,-119.9999973E-3,
,,,30.39999896E-9,359.99998450E-3,,,,,30.39999896E-9,-119.9999973E-3,
,,,30.79999900E-9,359.99998450E-3,,,,,30.79999900E-9,-119.9999973E-3,
,,,31.19999903E-9,399.99997616E-3,,,,,31.19999903E-9,-119.9999973E-3,
,,,31.59999906E-9,359.99998450E-3,,,,,31.59999906E-9,-119.9999973E-3,
,,,31.99999909E-9,359.99998450E-3,,,,,31.99999909E-9,-119.9999973E-3,
,,,32.39999913E-9,319.99999285E-3,,,,,32.39999913E-9,-119.9999973E-3,
,,,32.79999916E-9,319.99999285E-3,,,,,32.79999916E-9,-119.9999973E-3,
,,,33.19999919E-9,319.99999285E-3,,,,,33.19999919E-9,-79.999998212E-3,
,,,33.59999923E-9,319.99999285E-3,,,,,33.59999923E-9,-119.9999973E-3,
,,,33.99999926E-9,319.99999285E-3,,,,,33.99999926E-9,-119.9999973E-3,
,,,34.39999929E-9,359.99998450E-3,,,,,34.39999929E-9,-119.9999973E-3,
,,,34.79999933E-9,359.99998450E-3,,,,,34.79999933E-9,-119.9999973E-3,
,,,35.19999936E-9,359.99998450E-3,,,,,35.19999936E-9,-119.9999973E-3,
,,,35.59999939E-9,359.99998450E-3,,,,,35.59999939E-9,-159.99999642E-3,
,,,35.99999943E-9,359.99998450E-3,,,,,35.99999943E-9,-159.99999642E-3,
,,,36.39999946E-9,359.99998450E-3,,,,,36.39999946E-9,-159.99999642E-3,
,,,36.79999949E-9,359.99998450E-3,,,,,36.79999949E-9,-159.99999642E-3,
,,,37.19999953E-9,359.99998450E-3,,,,,37.19999953E-9,-159.99999642E-3,
,,,37.59999956E-9,359.99998450E-3,,,,,37.59999956E-9,-159.99999642E-3,
,,,37.99999959E-9,359.99998450E-3,,,,,37.99999959E-9,-159.99999642E-3,
,,,38.39999962E-9,359.99998450E-3,,,,,38.39999962E-9,-159.99999642E-3,
,,,38.79999966E-9,359.99998450E-3,,,,,38.79999966E-9,-159.99999642E-3,
,,,39.19999969E-9,359.99998450E-3,,,,,39.19999969E-9,-159.99999642E-3,
,,,39.59999972E-9,359.99998450E-3,,,,,39.59999972E-9,-159.99999642E-3,
,,,39.99999976E-9,359.99998450E-3,,,,,39.99999976E-9,-159.99999642E-3,
,,,40.39999979E-9,399.99997616E-3,,,,,40.39999979E-9,-159.99999642E-3,
,,,40.79999982E-9,399.99997616E-3,,,,,40.79999982E-9,-159.99999642E-3,
,,,41.19999986E-9,399.99997616E-3,,,,,41.19999986E-9,-119.9999973E-3,
,,,41.59999989E-9,359.99998450E-3,,,,,41.59999989E-9,-119.9999973E-3,
,,,41.99999992E-9,359.99998450E-3,,,,,41.99999992E-9,-119.9999973E-3,
,,,42.39999996E-9,319.99999285E-3,,,,,42.39999996E-9,-119.9999973E-3,
,,,42.79999999E-9,319.99999285E-3,,,,,42.79999999E-9,-119.9999973E-3,
,,,43.20000002E-9,319.99999285E-3,,,,,43.20000002E-9,-79.999998212E-3,
,,,43.60000005E-9,319.99999285E-3,,,,,43.60000005E-9,-79.999998212E-3,
,,,44.00000009E-9,319.99999285E-3,,,,,44.00000009E-9,-79.999998212E-3,
,,,44.40000012E-9,319.99999285E-3,,,,,44.40000012E-9,-119.9999973E-3,
,,,44.80000015E-9,319.99999285E-3,,,,,44.80000015E-9,-159.99999642E-3,
,,,45.20000019E-9,319.99999285E-3,,,,,45.20000019E-9,-159.99999642E-3,
,,,45.60000022E-9,280.00000119E-3,,,,,45.60000022E-9,-199.99998808E-3,
,,,46.00000025E-9,280.00000119E-3,,,,,46.00000025E-9,-199.99998808E-3,
,,,46.40000029E-9,280.00000119E-3,,,,,46.40000029E-9,-159.99999642E-3,
,,,46.80000032E-9,280.00000119E-3,,,,,46.80000032E-9,-159.99999642E-3,
,,,47.20000035E-9,319.99999285E-3,,,,,47.20000035E-9,-119.9999973E-3,
,,,47.60000039E-9,319.99999285E-3,,,,,47.60000039E-9,-119.9999973E-3,
,,,48.00000042E-9,319.99999285E-3,,,,,48.00000042E-9,-119.9999973E-3,
,,,48.40000045E-9,280.00000119E-3,,,,,48.40000045E-9,-119.9999973E-3,
,,,48.80000049E-9,280.00000119E-3,,,,,48.80000049E-9,-119.9999973E-3,
,,,49.20000052E-9,280.00000119E-3,,,,,49.20000052E-9,-119.9999973E-3,
,,,49.60000055E-9,239.99999464E-3,,,,,49.60000055E-9,-119.9999973E-3,
,,,50.00000058E-9,239.99999464E-3,,,,,50.00000058E-9,-119.9999973E-3,
,,,50.40000062E-9,239.99999464E-3,,,,,50.40000062E-9,-119.9999973E-3,
,,,50.80000065E-9,239.99999464E-3,,,,,50.80000065E-9,-119.9999973E-3,
,,,51.20000068E-9,280.00000119E-3,,,,,51.20000068E-9,-119.9999973E-3,
,,,51.60000072E-9,280.00000119E-3,,,,,51.60000072E-9,-119.9999973E-3,
,,,52.00000075E-9,280.00000119E-3,,,,,52.00000075E-9,-119.9999973E-3,
,,,52.40000078E-9,280.00000119E-3,,,,,52.40000078E-9,-79.999998212E-3,
,,,52.80000082E-9,280.00000119E-3,,,,,52.80000082E-9,-79.999998212E-3,
,,,53.20000085E-9,280.00000119E-3,,,,,53.20000085E-9,-79.999998212E-3,
,,,53.60000088E-9,280.00000119E-3,,,,,53.60000088E-9,-119.9999973E-3,
,,,54.00000092E-9,280.00000119E-3,,,,,54.00000092E-9,-119.9999973E-3,
,,,54.40000095E-9,280.00000119E-3,,,,,54.40000095E-9,-119.9999973E-3,
,,,54.800000981E-9,280.00000119E-3,,,,,54.800000981E-9,-119.9999973E-3,
,,,55.200001015E-9,280.00000119E-3,,,,,55.200001015E-9,-79.999998212E-3,
,,,55.600001048E-9,280.00000119E-3,,,,,55.600001048E-9,-79.999998212E-3,
,,,56.000001081E-9,280.00000119E-3,,,,,56.000001081E-9,-79.999998212E-3,
,,,56.400001114E-9,319.99999285E-3,,,,,56.400001114E-9,-119.9999973E-3,
,,,56.800001147E-9,319.99999285E-3,,,,,56.800001147E-9,-119.9999973E-3,
,,,57.200001180E-9,319.99999285E-3,,,,,57.200001180E-9,-119.9999973E-3,
,,,57.600001213E-9,319.99999285E-3,,,,,57.600001213E-9,-159.99999642E-3,
,,,58.000001246E-9,319.99999285E-3,,,,,58.000001246E-9,-159.99999642E-3,
,,,58.400001279E-9,319.99999285E-3,,,,,58.400001279E-9,-159.99999642E-3,
,,,58.800001312E-9,319.99999285E-3,,,,,58.800001312E-9,-199.99998808E-3,
,,,59.200001346E-9,359.99998450E-3,,,,,59.200001346E-9,-159.99999642E-3,
,,,59.600001379E-9,359.99998450E-3,,,,,59.600001379E-9,-159.99999642E-3,
,,,59.999997859E-9,359.99998450E-3,,,,,59.999997859E-9,-159.99999642E-3,
,,,60.399997892E-9,399.99997616E-3,,,,,60.399997892E-9,-159.99999642E-3,
,,,60.799997925E-9,399.99997616E-3,,,,,60.799997925E-9,-159.99999642E-3,
,,,61.199997958E-9,399.99997616E-3,,,,,61.199997958E-9,-159.99999642E-3,
,,,61.599997991E-9,399.99997616E-3,,,,,61.599997991E-9,-159.99999642E-3,
,,,61.999998024E-9,399.99997616E-3,,,,,61.999998024E-9,-159.99999642E-3,
,,,62.399998058E-9,439.999997616E-3,,,,,62.399998058E-9,-119.9999973E-3,
,,,62.799998091E-9,439.999997616E-3,,,,,62.799998091E-9,-119.9999973E-3,
,,,63.199998124E-9,439.999997616E-3,,,,,63.199998124E-9,-119.9999973E-3,
,,,63.599998157E-9,399.99997616E-3,,,,,63.599998157E-9,-159.99999642E-3,
,,,63.999998190E-9,359.99998450E-3,,,,,63.999998190E-9,-159.99999642E-3,
,,,64.399998223E-9,319.99999285E-3,,,,,64.399998223E-9,-159.99999642E-3,
,,,64.799998256E-9,319.99999285E-3,,,,,64.799998256E-9,-159.99999642E-3,
,,,65.199998289E-9,359.99998450E-3,,,,,65.199998289E-9,-119.9999973E-3,
,,,65.599998322E-9,359.99998450E-3,,,,,65.599998322E-9,-119.9999973E-3,
,,,65.999998355E-9,359.99998450E-3,,,,,65.999998355E-9,-119.9999973E-3,
,,,66.399998389E-9,359.99998450E-3,,,,,66.399998389E-9,-159.99999642E-3,
,,,66.799998422E-9,359.99998450E-3,,,,,66.799998422E-9,-159.99999642E-3,
,,,67.199998455E-9,359.99998450E-3,,,,,67.199998455E-9,-159.99999642E-3,
,,,67.599998488E-9,319.99999285E-3,,,,,67.599998488E-9,-159.99999642E-3,
,,,67.999998521E-9,359.99998450E-3,,,,,67.999998521E-9,-159.99999642E-3,
,,,68.399998554E-9,359.99998450E-3,,,,,68.399998554E-9,-159.99999642E-3,
,,,68.799998587E-9,359.99998450E-3,,,,,68.799998587E-9,-159.99999642E-3,
,,,69.199998620E-9,399.99997616E-3,,,,,69.199998620E-9,-159.99999642E-3,
,,,69.599998653E-9,399.99997616E-3,,,,,69.599998653E-9,-159.99999642E-3,
,,,69.999998686E-9,399.99997616E-3,,,,,69.999998686E-9,-159.99999642E-3,
,,,70.399998719E-9,399.99997616E-3,,,,,70.399998719E-9,-159.99999642E-3,
,,,70.799998753E-9,359.99998450E-3,,,,,70.799998753E-9,-159.99999642E-3,
,,,71.199998786E-9,399.99997616E-3,,,,,71.199998786E-9,-159.99999642E-3,
,,,71.599998819E-9,399.99997616E-3,,,,,71.599998819E-9,-159.99999642E-3,
,,,71.999998852E-9,439.999997616E-3,,,,,71.999998852E-9,-159.99999642E-3,
,,,72.399998885E-9,479.999989271E-3,,,,,72.399998885E-9,-159.99999642E-3,
,,,72.799998918E-9,479.999989271E-3,,,,,72.799998918E-9,-159.99999642E-3,
,,,73.199998951E-9,479.999989271E-3,,,,,73.199998951E-9,-159.99999642E-3,
,,,73.599998984E-9,439.999997616E-3,,,,,73.599998984E-9,-159.99999642E-3,
,,,73.999999017E-9,439.999997616E-3,,,,,73.999999017E-9,-159.99999642E-3,
,,,74.399999050E-9,439.999997616E-3,,,,,74.399999050E-9,-119.9999973E-3,
,,,74.799999084E-9,439.999997616E-3,,,,,74.799999084E-9,-119.9999973E-3,
,,,75.199999117E-9,479.999989271E-3,,,,,75.199999117E-9,-119.9999973E-3,
,,,75.599999150E-9,479.999989271E-3,,,,,75.599999150E-9,-159.99999642E-3,
,,,75.999999183E-9,479.999989271E-3,,,,,75.999999183E-9,-159.99999642E-3,
,,,76.399999216E-9,479.999989271E-3,,,,,76.399999216E-9,-159.99999642E-3,
,,,76.799999249E-9,479.999989271E-3,,,,,76.799999249E-9,-199.99998808E-3,
,,,77.199999282E-9,479.999989271E-3,,,,,77.199999282E-9,-159.99999642E-3,
,,,77.599999315E-9,439.999997616E-3,,,,,77.599999315E-9,-159.99999642E-3,
,,,77.999999348E-9,399.99997616E-3,,,,,77.999999348E-9,-159.99999642E-3,
,,,78.399999381E-9,399.99997616E-3,,,,,78.399999381E-9,-119.9999973E-3,
,,,78.799999415E-9,439.999997616E-3,,,,,78.799999415E-9,-159.99999642E-3,
,,,79.199999448E-9,479.999989271E-3,,,,,79.199999448E-9,-159.99999642E-3,
,,,79.599999481E-9,479.999989271E-3,,,,,79.599999481E-9,-199.99998808E-3,
,,,79.999999514E-9,519.999980927E-3,,,,,79.999999514E-9,-199.99998808E-3,
,,,80.399999547E-9,479.999989271E-3,,,,,80.399999547E-9,-199.99998808E-3,
,,,80.799999580E-9,439.999997616E-3,,,,,80.799999580E-9,-199.99998808E-3,
,,,81.199999613E-9,439.999997616E-3,,,,,81.199999613E-9,-159.99999642E-3,
,,,81.599999646E-9,439.999997616E-3,,,,,81.599999646E-9,-159.99999642E-3,
,,,81.999999679E-9,439.999997616E-3,,,,,81.999999679E-9,-119.9999973E-3,
,,,82.399999712E-9,479.999989271E-3,,,,,82.399999712E-9,-119.9999973E-3,
,,,82.799999745E-9,479.999989271E-3,,,,,82.799999745E-9,-159.99999642E-3,
,,,83.199999779E-9,519.999980927E-3,,,,,83.199999779E-9,-159.99999642E-3,
,,,83.599999812E-9,479.999989271E-3,,,,,83.599999812E-9,-199.99998808E-3,
,,,83.999999845E-9,479.999989271E-3,,,,,83.999999845E-9,-199.99998808E-3,
,,,84.399999878E-9,439.999997616E-3,,,,,84.399999878E-9,-199.99998808E-3,
,,,84.799999911E-9,439.999997616E-3,,,,,84.799999911E-9,-199.99998808E-3,
,,,85.199999944E-9,439.999997616E-3,,,,,85.199999944E-9,-159.99999642E-3,
,,,85.599999977E-9,439.999997616E-3,,,,,85.599999977E-9,-159.99999642E-3,
,,,86.000000010E-9,439.999997616E-3,,,,,86.000000010E-9,-159.99999642E-3,
,,,86.400000043E-9,479.999989271E-3,,,,,86.400000043E-9,-159.99999642E-3,
,,,86.800000076E-9,479.999989271E-3,,,,,86.800000076E-9,-159.99999642E-3,
,,,87.200000110E-9,479.999989271E-3,,,,,87.200000110E-9,-159.99999642E-3,
,,,87.600000143E-9,479.999989271E-3,,,,,87.600000143E-9,-159.99999642E-3,
,,,88.000000176E-9,479.999989271E-3,,,,,88.000000176E-9,-159.99999642E-3,
,,,88.400000209E-9,479.999989271E-3,,,,,88.400000209E-9,-159.99999642E-3,
,,,88.800000242E-9,479.999989271E-3,,,,,88.800000242E-9,-159.99999642E-3,
,,,89.200000275E-9,519.999980927E-3,,,,,89.200000275E-9,-159.99999642E-3,
,,,89.600000308E-9,519.999980927E-3,,,,,89.600000308E-9,-159.99999642E-3,
,,,90.000000341E-9,519.999980927E-3,,,,,90.000000341E-9,-159.99999642E-3,
,,,90.400000374E-9,519.999980927E-3,,,,,90.400000374E-9,-159.99999642E-3,
,,,90.800000407E-9,519.999980927E-3,,,,,90.800000407E-9,-159.99999642E-3,
,,,91.200000440E-9,519.999980927E-3,,,,,91.200000440E-9,-159.99999642E-3,
,,,91.600000474E-9,519.999980927E-3,,,,,91.600000474E-9,-159.99999642E-3,
,,,92.000000507E-9,519.999980927E-3,,,,,92.000000507E-9,-159.99999642E-3,
,,,92.400000540E-9,519.999980927E-3,,,,,92.400000540E-9,-159.99999642E-3,
,,,92.800000573E-9,519.999980927E-3,,,,,92.800000573E-9,-159.99999642E-3,
,,,93.200000606E-9,519.999980927E-3,,,,,93.200000606E-9,-119.9999973E-3,
,,,93.600000639E-9,479.999989271E-3,,,,,93.600000639E-9,-159.99999642E-3,
,,,94.000000672E-9,479.999989271E-3,,,,,94.000000672E-9,-159.99999642E-3,
,,,94.400000705E-9,439.999997616E-3,,,,,94.400000705E-9,-159.99999642E-3,
,,,94.800000738E-9,439.999997616E-3,,,,,94.800000738E-9,-199.99998808E-3,
,,,95.200000771E-9,439.999997616E-3,,,,,95.200000771E-9,-159.99999642E-3,
,,,95.600000805E-9,439.999997616E-3,,,,,95.600000805E-9,-159.99999642E-3,
,,,96.000000838E-9,439.999997616E-3,,,,,96.000000838E-9,-159.99999642E-3,
,,,96.400000871E-9,439.999997616E-3,,,,,96.400000871E-9,-119.9999973E-3,
,,,96.800000904E-9,439.999997616E-3,,,,,96.800000904E-9,-119.9999973E-3,
,,,97.200000937E-9,439.999997616E-3,,,,,97.200000937E-9,-119.9999973E-3,
,,,97.600000970E-9,439.999997616E-3,,,,,97.600000970E-9,-159.99999642E-3,
,,,98.000001003E-9,439.999997616E-3,,,,,98.000001003E-9,-159.99999642E-3,
,,,98.400001036E-9,439.999997616E-3,,,,,98.400001036E-9,-159.99999642E-3,
,,,98.800001069E-9,439.999997616E-3,,,,,98.800001069E-9,-159.99999642E-3,
,,,99.200001102E-9,479.999989271E-3,,,,,99.200001102E-9,-119.9999973E-3,
,,,99.600001136E-9,479.999989271E-3,,,,,99.600001136E-9,-119.9999973E-3,
,,,100.0000012E-9,479.999989271E-3,,,,,100.0000012E-9,-119.9999973E-3,
,,,100.4000012E-9,439.999997616E-3,,,,,100.4000012E-9,-119.9999973E-3,
,,,100.8000012E-9,439.999997616E-3,,,,,100.8000012E-9,-119.9999973E-3,
,,,101.2000013E-9,439.999997616E-3,,,,,101.2000013E-9,-119.9999973E-3,
,,,101.6000013E-9,439.999997616E-3,,,,,101.6000013E-9,-119.9999973E-3,
,,,102.0000013E-9,439.999997616E-3,,,,,102.0000013E-9,-119.9999973E-3,
,,,102.4000014E-9,479.999989271E-3,,,,,102.4000014E-9,-159.99999642E-3,
,,,102.8000014E-9,479.999989271E-3,,,,,102.8000014E-9,-159.99999642E-3,
,,,103.2000014E-9,479.999989271E-3,,,,,103.2000014E-9,-159.99999642E-3,
,,,103.6000015E-9,479.999989271E-3,,,,,103.6000015E-9,-159.99999642E-3,
,,,104.0000015E-9,479.999989271E-3,,,,,104.0000015E-9,-159.99999642E-3,
,,,104.4000015E-9,479.999989271E-3,,,,,104.4000015E-9,-119.9999973E-3,
,,,104.8000016E-9,479.999989271E-3,,,,,104.8000016E-9,-119.9999973E-3,
,,,105.2000016E-9,519.999980927E-3,,,,,105.2000016E-9,-119.9999973E-3,
,,,105.6000016E-9,479.999989271E-3,,,,,105.6000016E-9,-159.99999642E-3,
,,,106.0000017E-9,479.999989271E-3,,,,,106.0000017E-9,-159.99999642E-3,
,,,106.4000017E-9,479.999989271E-3,,,,,106.4000017E-9,-159.99999642E-3,
,,,106.8000017E-9,479.999989271E-3,,,,,106.8000017E-9,-159.99999642E-3,
,,,107.2000018E-9,479.999989271E-3,,,,,107.2000018E-9,-159.99999642E-3,
,,,107.6000018E-9,439.999997616E-3,,,,,107.6000018E-9,-159.99999642E-3,
,,,108.0000018E-9,439.999997616E-3,,,,,108.0000018E-9,-159.99999642E-3,
,,,108.4000019E-9,439.999997616E-3,,,,,108.4000019E-9,-159.99999642E-3,
,,,108.8000019E-9,399.99997616E-3,,,,,108.8000019E-9,-159.99999642E-3,
,,,109.2000019E-9,439.999997616E-3,,,,,109.2000019E-9,-119.9999973E-3,
,,,109.6000020E-9,439.999997616E-3,,,,,109.6000020E-9,-119.9999973E-3,
,,,110.0000020E-9,439.999997616E-3,,,,,110.0000020E-9,-119.9999973E-3,
,,,110.4000020E-9,479.999989271E-3,,,,,110.4000020E-9,-119.9999973E-3,
,,,110.8000021E-9,479.999989271E-3,,,,,110.8000021E-9,-119.9999973E-3,
,,,111.2000021E-9,519.999980927E-3,,,,,111.2000021E-9,-119.9999973E-3,
,,,111.6000021E-9,479.999989271E-3,,,,,111.6000021E-9,-119.9999973E-3,
,,,112.0000022E-9,479.999989271E-3,,,,,112.0000022E-9,-119.9999973E-3,
