15_5_cm/7_5_kV_O2_Mir.csv

Record Length,2500,Points,-176.00000035E-9,399.99997616E-3,,Record Length,2500,Points,-176.00000035E-9,-39.99999911E-3,
Sample Interval,400.00000370E-12,s,-175.60000742E-9,399.99997616E-3,,Sample Interval,400.00000370E-12,s,-175.60000742E-9,-39.99999911E-3,
Trigger Point,439.999995004,Samples,-175.20000029E-9,439.999997616E-3,,Trigger Point,439.999995004,Samples,-175.20000029E-9,-39.99999911E-3,
,,,-174.80000736E-9,439.999997616E-3,,,,,-174.80000736E-9,-39.99999911E-3,
,,,-174.40000022E-9,439.999997616E-3,,,,,-174.40000022E-9,-39.99999911E-3,
,,,-174.00000729E-9,439.999997616E-3,,,,,-174.00000729E-9,-39.99999911E-3,
Source,CH1,,-173.60000015E-9,439.999997616E-3,,Source,CH2,,-173.60000015E-9,-39.99999911E-3,
Vertical Units,Volts,,-173.20000723E-9,439.999997616E-3,,Vertical Units,Volts,,-173.20000723E-9,0.0,
Vertical Scale,999.999977648E-3,,-172.80000009E-9,399.99997616E-3,,Vertical Scale,999.999977648E-3,,-172.80000009E-9,-39.99999911E-3,
Vertical Offset,0,,-172.40000716E-9,399.99997616E-3,,Vertical Offset,0,,-172.40000716E-9,-39.99999911E-3,
Horizontal Units,s,,-172.00000002E-9,399.99997616E-3,,Horizontal Units,s,,-172.00000002E-9,-39.99999911E-3,
Horizontal Scale,100.0000013E-9,,-171.60000709E-9,399.99997616E-3,,Horizontal Scale,100.0000013E-9,,-171.60000709E-9,-39.99999911E-3,
Pt Fmt,Y,,-171.19999995E-9,439.999997616E-3,,Pt Fmt,Y,,-171.19999995E-9,0.0,
Yzero,1.0400000,,-170.80000703E-9,439.999997616E-3,,Yzero,-2.5600000,,-170.80000703E-9,-39.99999911E-3,
Probe Atten,1.000000,,-170.39999989E-9,439.999997616E-3,,Probe Atten,1.000000,,-170.39999989E-9,-39.99999911E-3,
,,,-170.00000696E-9,399.99997616E-3,,,,,-170.00000696E-9,-39.99999911E-3,
Note,TBS 1104 - 3:17:20 PM   2/3/2026,,-169.59999982E-9,359.99998450E-3,,Note,TBS 1104 - 3:17:20 PM   2/3/2026,,-169.59999982E-9,-39.99999911E-3,
,,,-169.20000689E-9,359.99998450E-3,,,,,-169.20000689E-9,-39.99999911E-3,
,,,-168.79999976E-9,319.99999285E-3,,,,,-168.79999976E-9,-39.99999911E-3,
,,,-168.40000683E-9,319.99999285E-3,,,,,-168.40000683E-9,-39.99999911E-3,
,,,-167.99999969E-9,359.99998450E-3,,,,,-167.99999969E-9,-39.99999911E-3,
,,,-167.60000676E-9,359.99998450E-3,,,,,-167.60000676E-9,-39.99999911E-3,
,,,-167.19999962E-9,399.99997616E-3,,,,,-167.19999962E-9,-39.99999911E-3,
,,,-166.80000670E-9,399.99997616E-3,,,,,-166.80000670E-9,-39.99999911E-3,
,,,-166.39999956E-9,399.99997616E-3,,,,,-166.39999956E-9,-39.99999911E-3,
,,,-166.00000663E-9,399.99997616E-3,,,,,-166.00000663E-9,-39.99999911E-3,
,,,-165.59999949E-9,399.99997616E-3,,,,,-165.59999949E-9,-39.99999911E-3,
,,,-165.20000656E-9,399.99997616E-3,,,,,-165.20000656E-9,-39.99999911E-3,
,,,-164.79999942E-9,399.99997616E-3,,,,,-164.79999942E-9,-39.99999911E-3,
,,,-164.40000650E-9,399.99997616E-3,,,,,-164.40000650E-9,-39.99999911E-3,
,,,-163.99999936E-9,399.99997616E-3,,,,,-163.99999936E-9,-79.999998212E-3,
,,,-163.60000643E-9,399.99997616E-3,,,,,-163.60000643E-9,-79.999998212E-3,
,,,-163.19999929E-9,399.99997616E-3,,,,,-163.19999929E-9,-79.999998212E-3,
,,,-162.80000636E-9,399.99997616E-3,,,,,-162.80000636E-9,-119.9999973E-3,
,,,-162.39999923E-9,399.99997616E-3,,,,,-162.39999923E-9,-119.9999973E-3,
,,,-162.00000630E-9,399.99997616E-3,,,,,-162.00000630E-9,-79.999998212E-3,
,,,-161.59999916E-9,399.99997616E-3,,,,,-161.59999916E-9,-39.99999911E-3,
,,,-161.20000623E-9,399.99997616E-3,,,,,-161.20000623E-9,0.0,
,,,-160.79999909E-9,399.99997616E-3,,,,,-160.79999909E-9,-39.99999911E-3,
,,,-160.40000617E-9,399.99997616E-3,,,,,-160.40000617E-9,-39.99999911E-3,
,,,-159.99999903E-9,399.99997616E-3,,,,,-159.99999903E-9,-39.99999911E-3,
,,,-159.60000610E-9,399.99997616E-3,,,,,-159.60000610E-9,-39.99999911E-3,
,,,-159.19999896E-9,399.99997616E-3,,,,,-159.19999896E-9,-39.99999911E-3,
,,,-158.80000603E-9,399.99997616E-3,,,,,-158.80000603E-9,-79.999998212E-3,
,,,-158.39999890E-9,399.99997616E-3,,,,,-158.39999890E-9,-79.999998212E-3,
,,,-158.00000597E-9,399.99997616E-3,,,,,-158.00000597E-9,-79.999998212E-3,
,,,-157.59999883E-9,399.99997616E-3,,,,,-157.59999883E-9,-119.9999973E-3,
,,,-157.20000590E-9,399.99997616E-3,,,,,-157.20000590E-9,-79.999998212E-3,
,,,-156.79999876E-9,399.99997616E-3,,,,,-156.79999876E-9,-79.999998212E-3,
,,,-156.40000584E-9,399.99997616E-3,,,,,-156.40000584E-9,-79.999998212E-3,
,,,-155.99999870E-9,399.99997616E-3,,,,,-155.99999870E-9,-79.999998212E-3,
,,,-155.60000577E-9,399.99997616E-3,,,,,-155.60000577E-9,-79.999998212E-3,
,,,-155.19999863E-9,399.99997616E-3,,,,,-155.19999863E-9,-79.999998212E-3,
,,,-154.80000570E-9,399.99997616E-3,,,,,-154.80000570E-9,-79.999998212E-3,
,,,-154.39999856E-9,399.99997616E-3,,,,,-154.39999856E-9,-79.999998212E-3,
,,,-154.00000564E-9,399.99997616E-3,,,,,-154.00000564E-9,-79.999998212E-3,
,,,-153.59999850E-9,399.99997616E-3,,,,,-153.59999850E-9,-79.999998212E-3,
,,,-153.20000557E-9,439.999997616E-3,,,,,-153.20000557E-9,-79.999998212E-3,
,,,-152.79999843E-9,439.999997616E-3,,,,,-152.79999843E-9,-79.999998212E-3,
,,,-152.40000550E-9,439.999997616E-3,,,,,-152.40000550E-9,-79.999998212E-3,
,,,-151.99999837E-9,399.99997616E-3,,,,,-151.99999837E-9,-79.999998212E-3,
,,,-151.60000544E-9,399.99997616E-3,,,,,-151.60000544E-9,-79.999998212E-3,
,,,-151.19999830E-9,399.99997616E-3,,,,,-151.19999830E-9,-39.99999911E-3,
,,,-150.80000537E-9,399.99997616E-3,,,,,-150.80000537E-9,-39.99999911E-3,
,,,-150.39999823E-9,399.99997616E-3,,,,,-150.39999823E-9,-39.99999911E-3,
,,,-150.00000531E-9,399.99997616E-3,,,,,-150.00000531E-9,-79.999998212E-3,
,,,-149.59999817E-9,399.99997616E-3,,,,,-149.59999817E-9,-79.999998212E-3,
,,,-149.20000524E-9,399.99997616E-3,,,,,-149.20000524E-9,-79.999998212E-3,
,,,-148.79999810E-9,399.99997616E-3,,,,,-148.79999810E-9,-79.999998212E-3,
,,,-148.4000052E-9,399.99997616E-3,,,,,-148.4000052E-9,-79.999998212E-3,
,,,-147.9999980E-9,439.999997616E-3,,,,,-147.9999980E-9,-79.999998212E-3,
,,,-147.6000051E-9,439.999997616E-3,,,,,-147.6000051E-9,-79.999998212E-3,
,,,-147.1999980E-9,439.999997616E-3,,,,,-147.1999980E-9,-79.999998212E-3,
,,,-146.8000050E-9,399.99997616E-3,,,,,-146.8000050E-9,-79.999998212E-3,
,,,-146.3999979E-9,399.99997616E-3,,,,,-146.3999979E-9,-79.999998212E-3,
,,,-146.0000050E-9,359.99998450E-3,,,,,-146.0000050E-9,-79.999998212E-3,
,,,-145.5999978E-9,359.99998450E-3,,,,,-145.5999978E-9,-79.999998212E-3,
,,,-145.2000049E-9,359.99998450E-3,,,,,-145.2000049E-9,-39.99999911E-3,
,,,-144.7999978E-9,359.99998450E-3,,,,,-144.7999978E-9,-39.99999911E-3,
,,,-144.4000048E-9,359.99998450E-3,,,,,-144.4000048E-9,-39.99999911E-3,
,,,-143.9999977E-9,399.99997616E-3,,,,,-143.9999977E-9,-39.99999911E-3,
,,,-143.6000048E-9,399.99997616E-3,,,,,-143.6000048E-9,-39.99999911E-3,
,,,-143.1999976E-9,439.999997616E-3,,,,,-143.1999976E-9,-39.99999911E-3,
,,,-142.8000047E-9,439.999997616E-3,,,,,-142.8000047E-9,-39.99999911E-3,
,,,-142.3999976E-9,439.999997616E-3,,,,,-142.3999976E-9,-39.99999911E-3,
,,,-142.0000046E-9,399.99997616E-3,,,,,-142.0000046E-9,0.0,
,,,-141.5999975E-9,399.99997616E-3,,,,,-141.5999975E-9,0.0,
,,,-141.2000046E-9,399.99997616E-3,,,,,-141.2000046E-9,0.0,
,,,-140.7999974E-9,359.99998450E-3,,,,,-140.7999974E-9,-39.99999911E-3,
,,,-140.4000045E-9,399.99997616E-3,,,,,-140.4000045E-9,-39.99999911E-3,
,,,-139.9999974E-9,399.99997616E-3,,,,,-139.9999974E-9,-39.99999911E-3,
,,,-139.6000044E-9,399.99997616E-3,,,,,-139.6000044E-9,-39.99999911E-3,
,,,-139.1999973E-9,439.999997616E-3,,,,,-139.1999973E-9,-39.99999911E-3,
,,,-138.8000044E-9,439.999997616E-3,,,,,-138.8000044E-9,-39.99999911E-3,
,,,-138.3999972E-9,439.999997616E-3,,,,,-138.3999972E-9,-39.99999911E-3,
,,,-138.0000043E-9,439.999997616E-3,,,,,-138.0000043E-9,-39.99999911E-3,
,,,-137.5999972E-9,439.999997616E-3,,,,,-137.5999972E-9,-39.99999911E-3,
,,,-137.2000042E-9,439.999997616E-3,,,,,-137.2000042E-9,-39.99999911E-3,
,,,-136.7999971E-9,399.99997616E-3,,,,,-136.7999971E-9,-79.999998212E-3,
,,,-136.4000042E-9,399.99997616E-3,,,,,-136.4000042E-9,-79.999998212E-3,
,,,-135.9999970E-9,399.99997616E-3,,,,,-135.9999970E-9,-79.999998212E-3,
,,,-135.6000041E-9,399.99997616E-3,,,,,-135.6000041E-9,-79.999998212E-3,
,,,-135.1999970E-9,439.999997616E-3,,,,,-135.1999970E-9,-39.99999911E-3,
,,,-134.8000040E-9,439.999997616E-3,,,,,-134.8000040E-9,-39.99999911E-3,
,,,-134.3999969E-9,439.999997616E-3,,,,,-134.3999969E-9,-39.99999911E-3,
,,,-134.0000040E-9,399.99997616E-3,,,,,-134.0000040E-9,-39.99999911E-3,
,,,-133.5999968E-9,399.99997616E-3,,,,,-133.5999968E-9,-39.99999911E-3,
,,,-133.2000039E-9,399.99997616E-3,,,,,-133.2000039E-9,-39.99999911E-3,
,,,-132.7999968E-9,399.99997616E-3,,,,,-132.7999968E-9,-39.99999911E-3,
,,,-132.4000038E-9,399.99997616E-3,,,,,-132.4000038E-9,-39.99999911E-3,
,,,-131.9999967E-9,439.999997616E-3,,,,,-131.9999967E-9,-39.99999911E-3,
,,,-131.6000038E-9,439.999997616E-3,,,,,-131.6000038E-9,-39.99999911E-3,
,,,-131.1999966E-9,439.999997616E-3,,,,,-131.1999966E-9,-39.99999911E-3,
,,,-130.8000037E-9,439.999997616E-3,,,,,-130.8000037E-9,-39.99999911E-3,
,,,-130.3999966E-9,439.999997616E-3,,,,,-130.3999966E-9,-39.99999911E-3,
,,,-130.0000037E-9,439.999997616E-3,,,,,-130.0000037E-9,-39.99999911E-3,
,,,-129.5999965E-9,439.999997616E-3,,,,,-129.5999965E-9,-39.99999911E-3,
,,,-129.2000036E-9,439.999997616E-3,,,,,-129.2000036E-9,-39.99999911E-3,
,,,-128.7999964E-9,439.999997616E-3,,,,,-128.7999964E-9,-79.999998212E-3,
,,,-128.4000035E-9,439.999997616E-3,,,,,-128.4000035E-9,-79.999998212E-3,
,,,-127.9999964E-9,399.99997616E-3,,,,,-127.9999964E-9,-79.999998212E-3,
,,,-127.6000035E-9,399.99997616E-3,,,,,-127.6000035E-9,-79.999998212E-3,
,,,-127.1999963E-9,399.99997616E-3,,,,,-127.1999963E-9,-39.99999911E-3,
,,,-126.8000034E-9,399.99997616E-3,,,,,-126.8000034E-9,-39.99999911E-3,
,,,-126.3999962E-9,399.99997616E-3,,,,,-126.3999962E-9,0.0,
,,,-126.0000033E-9,399.99997616E-3,,,,,-126.0000033E-9,-39.99999911E-3,
,,,-125.5999962E-9,399.99997616E-3,,,,,-125.5999962E-9,-39.99999911E-3,
,,,-125.2000033E-9,399.99997616E-3,,,,,-125.2000033E-9,-39.99999911E-3,
,,,-124.7999961E-9,359.99998450E-3,,,,,-124.7999961E-9,-39.99999911E-3,
,,,-124.4000032E-9,399.99997616E-3,,,,,-124.4000032E-9,-39.99999911E-3,
,,,-123.9999960E-9,399.99997616E-3,,,,,-123.9999960E-9,-39.99999911E-3,
,,,-123.6000031E-9,399.99997616E-3,,,,,-123.6000031E-9,-39.99999911E-3,
,,,-123.1999960E-9,439.999997616E-3,,,,,-123.1999960E-9,-39.99999911E-3,
,,,-122.8000031E-9,399.99997616E-3,,,,,-122.8000031E-9,-39.99999911E-3,
,,,-122.3999959E-9,399.99997616E-3,,,,,-122.3999959E-9,-39.99999911E-3,
,,,-122.0000030E-9,399.99997616E-3,,,,,-122.0000030E-9,-39.99999911E-3,
,,,-121.5999959E-9,399.99997616E-3,,,,,-121.5999959E-9,-39.99999911E-3,
,,,-121.2000029E-9,399.99997616E-3,,,,,-121.2000029E-9,-39.99999911E-3,
,,,-120.7999958E-9,399.99997616E-3,,,,,-120.7999958E-9,-39.99999911E-3,
,,,-120.4000029E-9,399.99997616E-3,,,,,-120.4000029E-9,-39.99999911E-3,
,,,-119.9999957E-9,399.99997616E-3,,,,,-119.9999957E-9,-39.99999911E-3,
,,,-119.6000028E-9,399.99997616E-3,,,,,-119.6000028E-9,-39.99999911E-3,
,,,-119.2000028E-9,399.99997616E-3,,,,,-119.2000028E-9,-39.99999911E-3,
,,,-118.8000027E-9,399.99997616E-3,,,,,-118.8000027E-9,-39.99999911E-3,
,,,-118.4000027E-9,399.99997616E-3,,,,,-118.4000027E-9,-39.99999911E-3,
,,,-118.0000027E-9,439.999997616E-3,,,,,-118.0000027E-9,-39.99999911E-3,
,,,-117.6000026E-9,439.999997616E-3,,,,,-117.6000026E-9,-39.99999911E-3,
,,,-117.2000026E-9,439.999997616E-3,,,,,-117.2000026E-9,-39.99999911E-3,
,,,-116.8000026E-9,399.99997616E-3,,,,,-116.8000026E-9,-39.99999911E-3,
,,,-116.4000025E-9,399.99997616E-3,,,,,-116.4000025E-9,-39.99999911E-3,
,,,-116.0000025E-9,399.99997616E-3,,,,,-116.0000025E-9,-39.99999911E-3,
,,,-115.6000025E-9,399.99997616E-3,,,,,-115.6000025E-9,-39.99999911E-3,
,,,-115.2000024E-9,439.999997616E-3,,,,,-115.2000024E-9,-39.99999911E-3,
,,,-114.8000024E-9,399.99997616E-3,,,,,-114.8000024E-9,-39.99999911E-3,
,,,-114.4000024E-9,399.99997616E-3,,,,,-114.4000024E-9,-39.99999911E-3,
,,,-114.0000023E-9,399.99997616E-3,,,,,-114.0000023E-9,-39.99999911E-3,
,,,-113.6000023E-9,399.99997616E-3,,,,,-113.6000023E-9,-39.99999911E-3,
,,,-113.2000023E-9,439.999997616E-3,,,,,-113.2000023E-9,-39.99999911E-3,
,,,-112.8000022E-9,439.999997616E-3,,,,,-112.8000022E-9,-39.99999911E-3,
,,,-112.4000022E-9,439.999997616E-3,,,,,-112.4000022E-9,-39.99999911E-3,
,,,-112.0000022E-9,399.99997616E-3,,,,,-112.0000022E-9,0.0,
,,,-111.6000021E-9,399.99997616E-3,,,,,-111.6000021E-9,0.0,
,,,-111.2000021E-9,399.99997616E-3,,,,,-111.2000021E-9,0.0,
,,,-110.8000021E-9,359.99998450E-3,,,,,-110.8000021E-9,-39.99999911E-3,
,,,-110.4000020E-9,359.99998450E-3,,,,,-110.4000020E-9,-39.99999911E-3,
,,,-110.0000020E-9,359.99998450E-3,,,,,-110.0000020E-9,-39.99999911E-3,
,,,-109.6000020E-9,359.99998450E-3,,,,,-109.6000020E-9,-39.99999911E-3,
,,,-109.2000019E-9,399.99997616E-3,,,,,-109.2000019E-9,-39.99999911E-3,
,,,-108.8000019E-9,399.99997616E-3,,,,,-108.8000019E-9,-39.99999911E-3,
,,,-108.4000019E-9,399.99997616E-3,,,,,-108.4000019E-9,-39.99999911E-3,
,,,-108.0000018E-9,399.99997616E-3,,,,,-108.0000018E-9,-39.99999911E-3,
,,,-107.6000018E-9,399.99997616E-3,,,,,-107.6000018E-9,-39.99999911E-3,
,,,-107.2000018E-9,399.99997616E-3,,,,,-107.2000018E-9,0.0,
,,,-106.8000017E-9,359.99998450E-3,,,,,-106.8000017E-9,0.0,
,,,-106.4000017E-9,359.99998450E-3,,,,,-106.4000017E-9,0.0,
,,,-106.0000017E-9,359.99998450E-3,,,,,-106.0000017E-9,-39.99999911E-3,
,,,-105.6000016E-9,359.99998450E-3,,,,,-105.6000016E-9,-39.99999911E-3,
,,,-105.2000016E-9,359.99998450E-3,,,,,-105.2000016E-9,-39.99999911E-3,
,,,-104.8000016E-9,359.99998450E-3,,,,,-104.8000016E-9,-39.99999911E-3,
,,,-104.4000015E-9,359.99998450E-3,,,,,-104.4000015E-9,-39.99999911E-3,
,,,-104.0000015E-9,359.99998450E-3,,,,,-104.0000015E-9,-39.99999911E-3,
,,,-103.6000015E-9,359.99998450E-3,,,,,-103.6000015E-9,-39.99999911E-3,
,,,-103.2000014E-9,359.99998450E-3,,,,,-103.2000014E-9,-39.99999911E-3,
,,,-102.8000014E-9,359.99998450E-3,,,,,-102.8000014E-9,-39.99999911E-3,
,,,-102.4000014E-9,359.99998450E-3,,,,,-102.4000014E-9,-39.99999911E-3,
,,,-102.0000013E-9,359.99998450E-3,,,,,-102.0000013E-9,-39.99999911E-3,
,,,-101.6000013E-9,359.99998450E-3,,,,,-101.6000013E-9,-39.99999911E-3,
,,,-101.2000013E-9,359.99998450E-3,,,,,-101.2000013E-9,-39.99999911E-3,
,,,-100.8000012E-9,359.99998450E-3,,,,,-100.8000012E-9,-39.99999911E-3,
,,,-100.4000012E-9,359.99998450E-3,,,,,-100.4000012E-9,-39.99999911E-3,
,,,-100.0000012E-9,359.99998450E-3,,,,,-100.0000012E-9,-39.99999911E-3,
,,,-99.600001136E-9,359.99998450E-3,,,,,-99.600001136E-9,-39.99999911E-3,
,,,-99.200001102E-9,399.99997616E-3,,,,,-99.200001102E-9,0.0,
,,,-98.800001069E-9,399.99997616E-3,,,,,-98.800001069E-9,0.0,
,,,-98.400001036E-9,399.99997616E-3,,,,,-98.400001036E-9,0.0,
,,,-98.000001003E-9,399.99997616E-3,,,,,-98.000001003E-9,-39.99999911E-3,
,,,-97.600000970E-9,399.99997616E-3,,,,,-97.600000970E-9,-39.99999911E-3,
,,,-97.200000937E-9,399.99997616E-3,,,,,-97.200000937E-9,-39.99999911E-3,
,,,-96.800000904E-9,399.99997616E-3,,,,,-96.800000904E-9,-79.999998212E-3,
,,,-96.400000871E-9,399.99997616E-3,,,,,-96.400000871E-9,-39.99999911E-3,
,,,-96.000000838E-9,439.999997616E-3,,,,,-96.000000838E-9,-39.99999911E-3,
,,,-95.600000805E-9,439.999997616E-3,,,,,-95.600000805E-9,-39.99999911E-3,
,,,-95.200000771E-9,439.999997616E-3,,,,,-95.200000771E-9,0.0,
,,,-94.800000738E-9,399.99997616E-3,,,,,-94.800000738E-9,0.0,
,,,-94.400000705E-9,399.99997616E-3,,,,,-94.400000705E-9,0.0,
,,,-94.000000672E-9,359.99998450E-3,,,,,-94.000000672E-9,-39.99999911E-3,
,,,-93.600000639E-9,359.99998450E-3,,,,,-93.600000639E-9,-39.99999911E-3,
,,,-93.200000606E-9,359.99998450E-3,,,,,-93.200000606E-9,-39.99999911E-3,
,,,-92.800000573E-9,319.99999285E-3,,,,,-92.800000573E-9,-39.99999911E-3,
,,,-92.400000540E-9,359.99998450E-3,,,,,-92.400000540E-9,0.0,
,,,-92.000000507E-9,359.99998450E-3,,,,,-92.000000507E-9,39.99999911E-3,
,,,-91.600000474E-9,359.99998450E-3,,,,,-91.600000474E-9,39.99999911E-3,
,,,-91.200000440E-9,399.99997616E-3,,,,,-91.200000440E-9,39.99999911E-3,
,,,-90.800000407E-9,399.99997616E-3,,,,,-90.800000407E-9,0.0,
,,,-90.400000374E-9,399.99997616E-3,,,,,-90.400000374E-9,0.0,
,,,-90.000000341E-9,399.99997616E-3,,,,,-90.000000341E-9,0.0,
,,,-89.600000308E-9,399.99997616E-3,,,,,-89.600000308E-9,0.0,
,,,-89.200000275E-9,399.99997616E-3,,,,,-89.200000275E-9,0.0,
,,,-88.800000242E-9,399.99997616E-3,,,,,-88.800000242E-9,-39.99999911E-3,
,,,-88.400000209E-9,399.99997616E-3,,,,,-88.400000209E-9,-39.99999911E-3,
,,,-88.000000176E-9,439.999997616E-3,,,,,-88.000000176E-9,-39.99999911E-3,
,,,-87.600000143E-9,439.999997616E-3,,,,,-87.600000143E-9,-39.99999911E-3,
,,,-87.200000110E-9,439.999997616E-3,,,,,-87.200000110E-9,-39.99999911E-3,
,,,-86.800000076E-9,399.99997616E-3,,,,,-86.800000076E-9,-39.99999911E-3,
,,,-86.400000043E-9,399.99997616E-3,,,,,-86.400000043E-9,-39.99999911E-3,
,,,-86.000000010E-9,399.99997616E-3,,,,,-86.000000010E-9,-39.99999911E-3,
,,,-85.599999977E-9,399.99997616E-3,,,,,-85.599999977E-9,-39.99999911E-3,
,,,-85.199999944E-9,439.999997616E-3,,,,,-85.199999944E-9,-39.99999911E-3,
,,,-84.799999911E-9,399.99997616E-3,,,,,-84.799999911E-9,-39.99999911E-3,
,,,-84.399999878E-9,399.99997616E-3,,,,,-84.399999878E-9,-39.99999911E-3,
,,,-83.999999845E-9,359.99998450E-3,,,,,-83.999999845E-9,-39.99999911E-3,
,,,-83.599999812E-9,359.99998450E-3,,,,,-83.599999812E-9,-39.99999911E-3,
,,,-83.199999779E-9,399.99997616E-3,,,,,-83.199999779E-9,0.0,
,,,-82.799999745E-9,439.999997616E-3,,,,,-82.799999745E-9,0.0,
,,,-82.399999712E-9,479.999989271E-3,,,,,-82.399999712E-9,0.0,
,,,-81.999999679E-9,479.999989271E-3,,,,,-81.999999679E-9,-39.99999911E-3,
,,,-81.599999646E-9,439.999997616E-3,,,,,-81.599999646E-9,-39.99999911E-3,
,,,-81.199999613E-9,399.99997616E-3,,,,,-81.199999613E-9,-39.99999911E-3,
,,,-80.799999580E-9,359.99998450E-3,,,,,-80.799999580E-9,-39.99999911E-3,
,,,-80.399999547E-9,319.99999285E-3,,,,,-80.399999547E-9,-39.99999911E-3,
,,,-79.999999514E-9,359.99998450E-3,,,,,-79.999999514E-9,-79.999998212E-3,
,,,-79.599999481E-9,439.999997616E-3,,,,,-79.599999481E-9,-79.999998212E-3,
,,,-79.199999448E-9,519.999980927E-3,,,,,-79.199999448E-9,-79.999998212E-3,
,,,-78.799999415E-9,479.999989271E-3,,,,,-78.799999415E-9,-79.999998212E-3,
,,,-78.399999381E-9,439.999997616E-3,,,,,-78.399999381E-9,-79.999998212E-3,
,,,-77.999999348E-9,399.99997616E-3,,,,,-77.999999348E-9,-79.999998212E-3,
,,,-77.599999315E-9,399.99997616E-3,,,,,-77.599999315E-9,-79.999998212E-3,
,,,-77.199999282E-9,399.99997616E-3,,,,,-77.199999282E-9,-79.999998212E-3,
,,,-76.799999249E-9,399.99997616E-3,,,,,-76.799999249E-9,-79.999998212E-3,
,,,-76.399999216E-9,399.99997616E-3,,,,,-76.399999216E-9,-79.999998212E-3,
,,,-75.999999183E-9,479.999989271E-3,,,,,-75.999999183E-9,-39.99999911E-3,
,,,-75.599999150E-9,519.999980927E-3,,,,,-75.599999150E-9,-39.99999911E-3,
,,,-75.199999117E-9,599.999964237E-3,,,,,-75.199999117E-9,-39.99999911E-3,
,,,-74.799999084E-9,560.000002384E-3,,,,,-74.799999084E-9,-39.99999911E-3,
,,,-74.399999050E-9,519.999980927E-3,,,,,-74.399999050E-9,-39.99999911E-3,
,,,-73.999999017E-9,399.99997616E-3,,,,,-73.999999017E-9,0.0,
,,,-73.599998984E-9,280.00000119E-3,,,,,-73.599998984E-9,-39.99999911E-3,
,,,-73.199998951E-9,239.99999464E-3,,,,,-73.199998951E-9,-39.99999911E-3,
,,,-72.799998918E-9,319.99999285E-3,,,,,-72.799998918E-9,-79.999998212E-3,
,,,-72.399998885E-9,479.999989271E-3,,,,,-72.399998885E-9,-79.999998212E-3,
,,,-71.999998852E-9,599.999964237E-3,,,,,-71.999998852E-9,-79.999998212E-3,
,,,-71.599998819E-9,599.999964237E-3,,,,,-71.599998819E-9,-79.999998212E-3,
,,,-71.199998786E-9,599.999964237E-3,,,,,-71.199998786E-9,-39.99999911E-3,
,,,-70.799998753E-9,439.999997616E-3,,,,,-70.799998753E-9,-79.999998212E-3,
,,,-70.399998719E-9,239.99999464E-3,,,,,-70.399998719E-9,-79.999998212E-3,
,,,-69.999998686E-9,159.99999642E-3,,,,,-69.999998686E-9,-79.999998212E-3,
,,,-69.599998653E-9,199.99998808E-3,,,,,-69.599998653E-9,-79.999998212E-3,
,,,-69.199998620E-9,319.99999285E-3,,,,,-69.199998620E-9,-79.999998212E-3,
