3_5_cm/7_5_kV_O1_Mir.csv

Record Length,2500,Points,-19.9999999E-9,-39.99999911E-3,,Record Length,2500,Points,-19.9999999E-9,439.999997616E-3,,Record Length,2500,Points,-19.9999999E-9,9.199999809,
Sample Interval,400.00000370E-12,s,-19.5999998E-9,-39.99999911E-3,,Sample Interval,400.00000370E-12,s,-19.5999998E-9,439.999997616E-3,,Sample Interval,400.00000370E-12,s,-19.5999998E-9,9.199999809,
Trigger Point,49.99999903,Samples,-19.1999998E-9,-39.99999911E-3,,Trigger Point,49.99999903,Samples,-19.1999998E-9,439.999997616E-3,,Trigger Point,49.99999903,Samples,-19.1999998E-9,9.600000381,
,,,-18.7999998E-9,-39.99999911E-3,,,,,-18.7999998E-9,439.999997616E-3,,,,,-18.7999998E-9,9.600000381,
,,,-18.3999997E-9,-39.99999911E-3,,,,,-18.3999997E-9,439.999997616E-3,,,,,-18.3999997E-9,10.0000000,
,,,-17.9999997E-9,0.0,,,,,-17.9999997E-9,479.999989271E-3,,,,,-17.9999997E-9,10.0000000,
Source,CH1,,-17.5999997E-9,0.0,,Source,CH2,,-17.5999997E-9,479.999989271E-3,,Source,MATH,,-17.5999997E-9,10.0000000,
Vertical Units,Volts,,-17.1999996E-9,0.0,,Vertical Units,Volts,,-17.1999996E-9,519.999980927E-3,,Vertical Units,Volts,,-17.1999996E-9,9.600000381,
Vertical Scale,999.999977648E-3,,-16.7999996E-9,0.0,,Vertical Scale,999.999977648E-3,,-16.7999996E-9,479.999989271E-3,,Vertical Scale,10.0000001,,-16.7999996E-9,9.600000381,
Vertical Offset,0,,-16.3999996E-9,0.0,,Vertical Offset,0,,-16.3999996E-9,479.999989271E-3,,Vertical Offset,0,,-16.3999996E-9,9.600000381,
Horizontal Units,s,,-15.9999995E-9,39.99999911E-3,,Horizontal Units,s,,-15.9999995E-9,479.999989271E-3,,Horizontal Units,s,,-15.9999995E-9,9.600000381,
Horizontal Scale,100.0000013E-9,,-15.5999995E-9,39.99999911E-3,,Horizontal Scale,100.0000013E-9,,-15.5999995E-9,479.999989271E-3,,Horizontal Scale,100.0000013E-9,,-15.5999995E-9,9.600000381,
Pt Fmt,Y,,-15.1999995E-9,39.99999911E-3,,Pt Fmt,Y,,-15.1999995E-9,479.999989271E-3,,Pt Fmt,Y,,-15.1999995E-9,9.600000381,
Yzero,-1.7200000,,-14.7999994E-9,0.0,,Yzero,-1.5600000,,-14.7999994E-9,519.999980927E-3,,Yzero,0.0,,-14.7999994E-9,9.600000381,
Probe Atten,1.000000,,-14.3999994E-9,0.0,,Probe Atten,1.000000,,-14.3999994E-9,519.999980927E-3,,,,,-14.3999994E-9,9.600000381,
,,,-13.9999994E-9,0.0,,,,,-13.9999994E-9,519.999980927E-3,,,,,-13.9999994E-9,9.600000381,
Note,TBS 1104 - 3:03:27 PM   2/5/2026,,-13.5999993E-9,0.0,,Note,TBS 1104 - 3:03:27 PM   2/5/2026,,-13.5999993E-9,479.999989271E-3,,Note,TBS 1104 - 3:03:27 PM   2/5/2026,,-13.5999993E-9,9.600000381,
,,,-13.2000002E-9,0.0,,,,,-13.2000002E-9,439.999997616E-3,,,,,-13.2000002E-9,9.600000381,
,,,-12.8000002E-9,0.0,,,,,-12.8000002E-9,399.99997616E-3,,,,,-12.8000002E-9,9.600000381,
,,,-12.4000001E-9,0.0,,,,,-12.4000001E-9,399.99997616E-3,,,,,-12.4000001E-9,9.600000381,
,,,-12.0000001E-9,0.0,,,,,-12.0000001E-9,439.999997616E-3,,,,,-12.0000001E-9,9.600000381,
,,,-11.6000001E-9,-39.99999911E-3,,,,,-11.6000001E-9,439.999997616E-3,,,,,-11.6000001E-9,9.600000381,
,,,-11.2000000E-9,0.0,,,,,-11.2000000E-9,479.999989271E-3,,,,,-11.2000000E-9,9.600000381,
,,,-10.8000000E-9,0.0,,,,,-10.8000000E-9,519.999980927E-3,,,,,-10.8000000E-9,9.600000381,
,,,-10.4000000E-9,0.0,,,,,-10.4000000E-9,479.999989271E-3,,,,,-10.4000000E-9,9.600000381,
,,,-9.999999939E-9,39.99999911E-3,,,,,-9.999999939E-9,479.999989271E-3,,,,,-9.999999939E-9,9.199999809,
,,,-9.599999906E-9,39.99999911E-3,,,,,-9.599999906E-9,479.999989271E-3,,,,,-9.599999906E-9,9.600000381,
,,,-9.199999873E-9,39.99999911E-3,,,,,-9.199999873E-9,479.999989271E-3,,,,,-9.199999873E-9,9.600000381,
,,,-8.799999840E-9,39.99999911E-3,,,,,-8.799999840E-9,479.999989271E-3,,,,,-8.799999840E-9,9.600000381,
,,,-8.399999807E-9,39.99999911E-3,,,,,-8.399999807E-9,479.999989271E-3,,,,,-8.399999807E-9,10.0000000,
,,,-7.999999774E-9,79.999998212E-3,,,,,-7.999999774E-9,479.999989271E-3,,,,,-7.999999774E-9,10.0000000,
,,,-7.599999741E-9,39.99999911E-3,,,,,-7.599999741E-9,439.999997616E-3,,,,,-7.599999741E-9,10.0000000,
,,,-7.19999971E-9,39.99999911E-3,,,,,-7.19999971E-9,479.999989271E-3,,,,,-7.19999971E-9,9.600000381,
,,,-6.79999967E-9,39.99999911E-3,,,,,-6.79999967E-9,479.999989271E-3,,,,,-6.79999967E-9,9.600000381,
,,,-6.39999964E-9,39.99999911E-3,,,,,-6.39999964E-9,479.999989271E-3,,,,,-6.39999964E-9,9.600000381,
,,,-5.99999961E-9,39.99999911E-3,,,,,-5.99999961E-9,519.999980927E-3,,,,,-5.99999961E-9,9.600000381,
,,,-5.59999958E-9,39.99999911E-3,,,,,-5.59999958E-9,519.999980927E-3,,,,,-5.59999958E-9,9.600000381,
,,,-5.19999954E-9,39.99999911E-3,,,,,-5.19999954E-9,519.999980927E-3,,,,,-5.19999954E-9,10.0000000,
,,,-4.79999951E-9,39.99999911E-3,,,,,-4.79999951E-9,519.999980927E-3,,,,,-4.79999951E-9,10.0000000,
,,,-4.39999948E-9,39.99999911E-3,,,,,-4.39999948E-9,519.999980927E-3,,,,,-4.39999948E-9,9.600000381,
,,,-3.99999944E-9,39.99999911E-3,,,,,-3.99999944E-9,519.999980927E-3,,,,,-3.99999944E-9,10.0000000,
,,,-3.59999963E-9,39.99999911E-3,,,,,-3.59999963E-9,519.999980927E-3,,,,,-3.59999963E-9,9.600000381,
,,,-3.19999960E-9,39.99999911E-3,,,,,-3.19999960E-9,519.999980927E-3,,,,,-3.19999960E-9,9.600000381,
,,,-2.79999957E-9,39.99999911E-3,,,,,-2.79999957E-9,519.999980927E-3,,,,,-2.79999957E-9,9.600000381,
,,,-2.3999998E-9,39.99999911E-3,,,,,-2.3999998E-9,519.999980927E-3,,,,,-2.3999998E-9,9.600000381,
,,,-1.9999997E-9,39.99999911E-3,,,,,-1.9999997E-9,519.999980927E-3,,,,,-1.9999997E-9,9.600000381,
,,,-1.5999997E-9,0.0,,,,,-1.5999997E-9,519.999980927E-3,,,,,-1.5999997E-9,9.600000381,
,,,-1.1999997E-9,39.99999911E-3,,,,,-1.1999997E-9,519.999980927E-3,,,,,-1.1999997E-9,9.600000381,
,,,-799.999618826E-12,39.99999911E-3,,,,,-799.999618826E-12,479.999989271E-3,,,,,-799.999618826E-12,9.600000381,
,,,-399.99961512E-12,39.99999911E-3,,,,,-399.99961512E-12,479.999989271E-3,,,,,-399.99961512E-12,9.600000381,
,,,0.0,79.999998212E-3,,,,,0.0,479.999989271E-3,,,,,0.0,9.600000381,
,,,400.00039228E-12,79.999998212E-3,,,,,400.00039228E-12,479.999989271E-3,,,,,400.00039228E-12,9.600000381,
,,,800.000395982E-12,79.999998212E-3,,,,,800.000395982E-12,479.999989271E-3,,,,,800.000395982E-12,9.600000381,
,,,1.2000004E-9,79.999998212E-3,,,,,1.2000004E-9,479.999989271E-3,,,,,1.2000004E-9,9.600000381,
,,,1.6000004E-9,79.999998212E-3,,,,,1.6000004E-9,479.999989271E-3,,,,,1.6000004E-9,10.0000000,
,,,2.0000004E-9,79.999998212E-3,,,,,2.0000004E-9,479.999989271E-3,,,,,2.0000004E-9,10.0000000,
,,,2.4000004E-9,39.99999911E-3,,,,,2.4000004E-9,479.999989271E-3,,,,,2.4000004E-9,10.0000000,
,,,2.80000045E-9,39.99999911E-3,,,,,2.80000045E-9,479.999989271E-3,,,,,2.80000045E-9,10.0000000,
,,,3.20000049E-9,39.99999911E-3,,,,,3.20000049E-9,439.999997616E-3,,,,,3.20000049E-9,10.0000000,
,,,3.60000052E-9,0.0,,,,,3.60000052E-9,439.999997616E-3,,,,,3.60000052E-9,10.0000000,
,,,4.00000033E-9,39.99999911E-3,,,,,4.00000033E-9,439.999997616E-3,,,,,4.00000033E-9,10.0000000,
,,,4.40000036E-9,39.99999911E-3,,,,,4.40000036E-9,439.999997616E-3,,,,,4.40000036E-9,10.0000000,
,,,4.80000040E-9,39.99999911E-3,,,,,4.80000040E-9,439.999997616E-3,,,,,4.80000040E-9,10.0000000,
,,,5.20000043E-9,79.999998212E-3,,,,,5.20000043E-9,439.999997616E-3,,,,,5.20000043E-9,10.0000000,
,,,5.60000046E-9,79.999998212E-3,,,,,5.60000046E-9,439.999997616E-3,,,,,5.60000046E-9,10.0000000,
,,,6.00000050E-9,119.9999973E-3,,,,,6.00000050E-9,439.999997616E-3,,,,,6.00000050E-9,10.0000000,
,,,6.40000053E-9,79.999998212E-3,,,,,6.40000053E-9,439.999997616E-3,,,,,6.40000053E-9,10.0000000,
,,,6.80000056E-9,39.99999911E-3,,,,,6.80000056E-9,439.999997616E-3,,,,,6.80000056E-9,10.0000000,
,,,7.20000060E-9,39.99999911E-3,,,,,7.20000060E-9,439.999997616E-3,,,,,7.20000060E-9,10.0000000,
,,,7.600000629E-9,39.99999911E-3,,,,,7.600000629E-9,439.999997616E-3,,,,,7.600000629E-9,10.0000000,
,,,8.000000662E-9,39.99999911E-3,,,,,8.000000662E-9,479.999989271E-3,,,,,8.000000662E-9,10.0000000,
,,,8.400000695E-9,39.99999911E-3,,,,,8.400000695E-9,439.999997616E-3,,,,,8.400000695E-9,10.0000000,
,,,8.800000728E-9,39.99999911E-3,,,,,8.800000728E-9,439.999997616E-3,,,,,8.800000728E-9,10.0000000,
,,,9.200000761E-9,39.99999911E-3,,,,,9.200000761E-9,439.999997616E-3,,,,,9.200000761E-9,10.0000000,
,,,9.600000794E-9,39.99999911E-3,,,,,9.600000794E-9,399.99997616E-3,,,,,9.600000794E-9,10.0000000,
,,,10.0000008E-9,79.999998212E-3,,,,,10.0000008E-9,439.999997616E-3,,,,,10.0000008E-9,10.0000000,
,,,10.4000009E-9,39.99999911E-3,,,,,10.4000009E-9,439.999997616E-3,,,,,10.4000009E-9,10.0000000,
,,,10.8000009E-9,39.99999911E-3,,,,,10.8000009E-9,439.999997616E-3,,,,,10.8000009E-9,10.0000000,
,,,11.2000009E-9,0.0,,,,,11.2000009E-9,439.999997616E-3,,,,,11.2000009E-9,10.0000000,
,,,11.6000010E-9,-39.99999911E-3,,,,,11.6000010E-9,439.999997616E-3,,,,,11.6000010E-9,10.0000000,
,,,12.0000010E-9,-39.99999911E-3,,,,,12.0000010E-9,439.999997616E-3,,,,,12.0000010E-9,10.0000000,
,,,12.4000001E-9,-39.99999911E-3,,,,,12.4000001E-9,439.999997616E-3,,,,,12.4000001E-9,10.0000000,
,,,12.8000002E-9,-39.99999911E-3,,,,,12.8000002E-9,439.999997616E-3,,,,,12.8000002E-9,10.0000000,
,,,13.2000002E-9,0.0,,,,,13.2000002E-9,399.99997616E-3,,,,,13.2000002E-9,10.4000006,
,,,13.6000002E-9,0.0,,,,,13.6000002E-9,359.99998450E-3,,,,,13.6000002E-9,10.4000006,
,,,14.0000003E-9,39.99999911E-3,,,,,14.0000003E-9,359.99998450E-3,,,,,14.0000003E-9,10.4000006,
,,,14.4000003E-9,39.99999911E-3,,,,,14.4000003E-9,359.99998450E-3,,,,,14.4000003E-9,10.4000006,
,,,14.8000003E-9,39.99999911E-3,,,,,14.8000003E-9,359.99998450E-3,,,,,14.8000003E-9,10.4000006,
,,,15.2000013E-9,39.99999911E-3,,,,,15.2000013E-9,319.99999285E-3,,,,,15.2000013E-9,10.4000006,
,,,15.6000013E-9,39.99999911E-3,,,,,15.6000013E-9,319.99999285E-3,,,,,15.6000013E-9,10.4000006,
,,,16.0000013E-9,39.99999911E-3,,,,,16.0000013E-9,319.99999285E-3,,,,,16.0000013E-9,10.4000006,
,,,16.4000014E-9,0.0,,,,,16.4000014E-9,280.00000119E-3,,,,,16.4000014E-9,10.4000006,
,,,16.8000014E-9,0.0,,,,,16.8000014E-9,319.99999285E-3,,,,,16.8000014E-9,10.4000006,
,,,17.2000014E-9,0.0,,,,,17.2000014E-9,319.99999285E-3,,,,,17.2000014E-9,10.4000006,
,,,17.6000015E-9,0.0,,,,,17.6000015E-9,319.99999285E-3,,,,,17.6000015E-9,10.8000002,
,,,18.0000015E-9,39.99999911E-3,,,,,18.0000015E-9,359.99998450E-3,,,,,18.0000015E-9,10.4000006,
,,,18.4000015E-9,39.99999911E-3,,,,,18.4000015E-9,359.99998450E-3,,,,,18.4000015E-9,10.8000002,
,,,18.7999998E-9,39.99999911E-3,,,,,18.7999998E-9,359.99998450E-3,,,,,18.7999998E-9,10.8000002,
,,,19.1999998E-9,79.999998212E-3,,,,,19.1999998E-9,399.99997616E-3,,,,,19.1999998E-9,10.8000002,
,,,19.5999998E-9,79.999998212E-3,,,,,19.5999998E-9,399.99997616E-3,,,,,19.5999998E-9,10.8000002,
,,,19.9999999E-9,79.999998212E-3,,,,,19.9999999E-9,399.99997616E-3,,,,,19.9999999E-9,11.1999998,
,,,20.39999991E-9,79.999998212E-3,,,,,20.39999991E-9,399.99997616E-3,,,,,20.39999991E-9,10.8000002,
,,,20.79999994E-9,79.999998212E-3,,,,,20.79999994E-9,399.99997616E-3,,,,,20.79999994E-9,10.8000002,
,,,21.19999998E-9,119.9999973E-3,,,,,21.19999998E-9,359.99998450E-3,,,,,21.19999998E-9,10.8000002,
,,,21.60000001E-9,79.999998212E-3,,,,,21.60000001E-9,359.99998450E-3,,,,,21.60000001E-9,10.8000002,
,,,22.00000004E-9,79.999998212E-3,,,,,22.00000004E-9,359.99998450E-3,,,,,22.00000004E-9,10.8000002,
,,,22.40000008E-9,39.99999911E-3,,,,,22.40000008E-9,319.99999285E-3,,,,,22.40000008E-9,11.1999998,
,,,22.80000011E-9,39.99999911E-3,,,,,22.80000011E-9,319.99999285E-3,,,,,22.80000011E-9,11.1999998,
,,,23.20000014E-9,39.99999911E-3,,,,,23.20000014E-9,319.99999285E-3,,,,,23.20000014E-9,11.6000004,
,,,23.60000018E-9,39.99999911E-3,,,,,23.60000018E-9,319.99999285E-3,,,,,23.60000018E-9,11.6000004,
,,,24.00000021E-9,79.999998212E-3,,,,,24.00000021E-9,359.99998450E-3,,,,,24.00000021E-9,11.6000004,
,,,24.40000024E-9,39.99999911E-3,,,,,24.40000024E-9,359.99998450E-3,,,,,24.40000024E-9,11.6000004,
,,,24.80000028E-9,0.0,,,,,24.80000028E-9,359.99998450E-3,,,,,24.80000028E-9,11.1999998,
,,,25.20000031E-9,-39.99999911E-3,,,,,25.20000031E-9,319.99999285E-3,,,,,25.20000031E-9,11.1999998,
,,,25.60000034E-9,-39.99999911E-3,,,,,25.60000034E-9,280.00000119E-3,,,,,25.60000034E-9,11.1999998,
,,,26.00000037E-9,0.0,,,,,26.00000037E-9,280.00000119E-3,,,,,26.00000037E-9,10.8000002,
,,,26.40000041E-9,0.0,,,,,26.40000041E-9,239.99999464E-3,,,,,26.40000041E-9,10.8000002,
,,,26.80000044E-9,0.0,,,,,26.80000044E-9,239.99999464E-3,,,,,26.80000044E-9,11.1999998,
,,,27.20000047E-9,39.99999911E-3,,,,,27.20000047E-9,280.00000119E-3,,,,,27.20000047E-9,11.1999998,
,,,27.60000051E-9,39.99999911E-3,,,,,27.60000051E-9,280.00000119E-3,,,,,27.60000051E-9,11.6000004,
,,,28.00000054E-9,39.99999911E-3,,,,,28.00000054E-9,319.99999285E-3,,,,,28.00000054E-9,11.6000004,
,,,28.40000057E-9,39.99999911E-3,,,,,28.40000057E-9,319.99999285E-3,,,,,28.40000057E-9,11.6000004,
,,,28.80000061E-9,39.99999911E-3,,,,,28.80000061E-9,319.99999285E-3,,,,,28.80000061E-9,11.6000004,
,,,29.20000064E-9,39.99999911E-3,,,,,29.20000064E-9,319.99999285E-3,,,,,29.20000064E-9,11.6000004,
,,,29.60000067E-9,39.99999911E-3,,,,,29.60000067E-9,319.99999285E-3,,,,,29.60000067E-9,11.1999998,
,,,30.00000248E-9,39.99999911E-3,,,,,30.00000248E-9,359.99998450E-3,,,,,30.00000248E-9,11.1999998,
,,,30.40000252E-9,39.99999911E-3,,,,,30.40000252E-9,359.99998450E-3,,,,,30.40000252E-9,11.1999998,
,,,30.80000255E-9,39.99999911E-3,,,,,30.80000255E-9,359.99998450E-3,,,,,30.80000255E-9,11.6000004,
,,,31.20000258E-9,39.99999911E-3,,,,,31.20000258E-9,359.99998450E-3,,,,,31.20000258E-9,11.6000004,
,,,31.59999906E-9,39.99999911E-3,,,,,31.59999906E-9,359.99998450E-3,,,,,31.59999906E-9,12.0000000,
,,,31.99999909E-9,39.99999911E-3,,,,,31.99999909E-9,359.99998450E-3,,,,,31.99999909E-9,12.0000000,
,,,32.39999913E-9,39.99999911E-3,,,,,32.39999913E-9,359.99998450E-3,,,,,32.39999913E-9,11.6000004,
,,,32.79999916E-9,39.99999911E-3,,,,,32.79999916E-9,359.99998450E-3,,,,,32.79999916E-9,11.6000004,
,,,33.19999919E-9,39.99999911E-3,,,,,33.19999919E-9,359.99998450E-3,,,,,33.19999919E-9,11.6000004,
,,,33.59999923E-9,39.99999911E-3,,,,,33.59999923E-9,359.99998450E-3,,,,,33.59999923E-9,12.0000000,
,,,33.99999926E-9,39.99999911E-3,,,,,33.99999926E-9,359.99998450E-3,,,,,33.99999926E-9,12.0000000,
,,,34.39999929E-9,39.99999911E-3,,,,,34.39999929E-9,359.99998450E-3,,,,,34.39999929E-9,12.4000006,
,,,34.79999933E-9,39.99999911E-3,,,,,34.79999933E-9,359.99998450E-3,,,,,34.79999933E-9,12.4000006,
,,,35.19999936E-9,39.99999911E-3,,,,,35.19999936E-9,359.99998450E-3,,,,,35.19999936E-9,12.4000006,
,,,35.59999939E-9,39.99999911E-3,,,,,35.59999939E-9,359.99998450E-3,,,,,35.59999939E-9,12.4000006,
,,,35.99999943E-9,39.99999911E-3,,,,,35.99999943E-9,359.99998450E-3,,,,,35.99999943E-9,12.4000006,
,,,36.39999946E-9,39.99999911E-3,,,,,36.39999946E-9,359.99998450E-3,,,,,36.39999946E-9,12.4000006,
,,,36.79999949E-9,39.99999911E-3,,,,,36.79999949E-9,359.99998450E-3,,,,,36.79999949E-9,12.4000006,
,,,37.19999953E-9,79.999998212E-3,,,,,37.19999953E-9,359.99998450E-3,,,,,37.19999953E-9,12.4000006,
,,,37.59999956E-9,79.999998212E-3,,,,,37.59999956E-9,359.99998450E-3,,,,,37.59999956E-9,12.4000006,
,,,37.99999959E-9,79.999998212E-3,,,,,37.99999959E-9,359.99998450E-3,,,,,37.99999959E-9,12.4000006,
,,,38.39999962E-9,39.99999911E-3,,,,,38.39999962E-9,359.99998450E-3,,,,,38.39999962E-9,12.4000006,
,,,38.79999966E-9,0.0,,,,,38.79999966E-9,359.99998450E-3,,,,,38.79999966E-9,12.4000006,
,,,39.19999969E-9,-39.99999911E-3,,,,,39.19999969E-9,359.99998450E-3,,,,,39.19999969E-9,12.4000006,
,,,39.59999972E-9,-39.99999911E-3,,,,,39.59999972E-9,359.99998450E-3,,,,,39.59999972E-9,12.4000006,
,,,39.99999976E-9,0.0,,,,,39.99999976E-9,399.99997616E-3,,,,,39.99999976E-9,12.4000006,
,,,40.39999979E-9,0.0,,,,,40.39999979E-9,359.99998450E-3,,,,,40.39999979E-9,12.8000002,
,,,40.79999982E-9,0.0,,,,,40.79999982E-9,359.99998450E-3,,,,,40.79999982E-9,12.8000002,
,,,41.19999986E-9,0.0,,,,,41.19999986E-9,359.99998450E-3,,,,,41.19999986E-9,12.8000002,
,,,41.59999989E-9,0.0,,,,,41.59999989E-9,359.99998450E-3,,,,,41.59999989E-9,12.4000006,
,,,41.99999992E-9,0.0,,,,,41.99999992E-9,359.99998450E-3,,,,,41.99999992E-9,12.4000006,
,,,42.39999996E-9,-39.99999911E-3,,,,,42.39999996E-9,359.99998450E-3,,,,,42.39999996E-9,12.4000006,
,,,42.79999999E-9,0.0,,,,,42.79999999E-9,359.99998450E-3,,,,,42.79999999E-9,12.4000006,
,,,43.20000002E-9,0.0,,,,,43.20000002E-9,359.99998450E-3,,,,,43.20000002E-9,12.4000006,
,,,43.60000005E-9,0.0,,,,,43.60000005E-9,359.99998450E-3,,,,,43.60000005E-9,12.8000002,
,,,44.00000009E-9,39.99999911E-3,,,,,44.00000009E-9,359.99998450E-3,,,,,44.00000009E-9,12.8000002,
,,,44.40000012E-9,0.0,,,,,44.40000012E-9,359.99998450E-3,,,,,44.40000012E-9,12.8000002,
,,,44.80000015E-9,0.0,,,,,44.80000015E-9,359.99998450E-3,,,,,44.80000015E-9,12.8000002,
,,,45.20000019E-9,0.0,,,,,45.20000019E-9,359.99998450E-3,,,,,45.20000019E-9,12.8000002,
,,,45.60000022E-9,0.0,,,,,45.60000022E-9,359.99998450E-3,,,,,45.60000022E-9,12.8000002,
,,,46.00000025E-9,0.0,,,,,46.00000025E-9,359.99998450E-3,,,,,46.00000025E-9,12.4000006,
,,,46.40000029E-9,0.0,,,,,46.40000029E-9,359.99998450E-3,,,,,46.40000029E-9,12.8000002,
,,,46.80000032E-9,0.0,,,,,46.80000032E-9,359.99998450E-3,,,,,46.80000032E-9,12.8000002,
,,,47.20000035E-9,0.0,,,,,47.20000035E-9,359.99998450E-3,,,,,47.20000035E-9,12.8000002,
,,,47.60000039E-9,0.0,,,,,47.60000039E-9,359.99998450E-3,,,,,47.60000039E-9,13.1999998,
,,,48.00000042E-9,0.0,,,,,48.00000042E-9,359.99998450E-3,,,,,48.00000042E-9,13.1999998,
,,,48.40000045E-9,0.0,,,,,48.40000045E-9,359.99998450E-3,,,,,48.40000045E-9,13.1999998,
,,,48.80000049E-9,0.0,,,,,48.80000049E-9,359.99998450E-3,,,,,48.80000049E-9,12.8000002,
,,,49.20000052E-9,39.99999911E-3,,,,,49.20000052E-9,399.99997616E-3,,,,,49.20000052E-9,12.8000002,
,,,49.60000055E-9,39.99999911E-3,,,,,49.60000055E-9,399.99997616E-3,,,,,49.60000055E-9,12.8000002,
,,,50.00000058E-9,79.999998212E-3,,,,,50.00000058E-9,399.99997616E-3,,,,,50.00000058E-9,12.8000002,
,,,50.40000062E-9,39.99999911E-3,,,,,50.40000062E-9,359.99998450E-3,,,,,50.40000062E-9,12.8000002,
,,,50.80000065E-9,39.99999911E-3,,,,,50.80000065E-9,359.99998450E-3,,,,,50.80000065E-9,12.8000002,
,,,51.20000068E-9,39.99999911E-3,,,,,51.20000068E-9,319.99999285E-3,,,,,51.20000068E-9,12.8000002,
,,,51.60000072E-9,39.99999911E-3,,,,,51.60000072E-9,319.99999285E-3,,,,,51.60000072E-9,12.8000002,
,,,52.00000075E-9,39.99999911E-3,,,,,52.00000075E-9,359.99998450E-3,,,,,52.00000075E-9,12.8000002,
,,,52.40000078E-9,39.99999911E-3,,,,,52.40000078E-9,359.99998450E-3,,,,,52.40000078E-9,12.8000002,
,,,52.80000082E-9,39.99999911E-3,,,,,52.80000082E-9,399.99997616E-3,,,,,52.80000082E-9,12.8000002,
,,,53.20000085E-9,39.99999911E-3,,,,,53.20000085E-9,439.999997616E-3,,,,,53.20000085E-9,12.8000002,
,,,53.60000088E-9,39.99999911E-3,,,,,53.60000088E-9,439.999997616E-3,,,,,53.60000088E-9,12.8000002,
,,,54.00000092E-9,39.99999911E-3,,,,,54.00000092E-9,439.999997616E-3,,,,,54.00000092E-9,12.8000002,
,,,54.40000095E-9,39.99999911E-3,,,,,54.40000095E-9,439.999997616E-3,,,,,54.40000095E-9,12.8000002,
,,,54.800000981E-9,39.99999911E-3,,,,,54.800000981E-9,439.999997616E-3,,,,,54.800000981E-9,12.8000002,
,,,55.200001015E-9,39.99999911E-3,,,,,55.200001015E-9,479.999989271E-3,,,,,55.200001015E-9,12.8000002,
,,,55.600001048E-9,39.99999911E-3,,,,,55.600001048E-9,479.999989271E-3,,,,,55.600001048E-9,13.1999998,
,,,56.000001081E-9,79.999998212E-3,,,,,56.000001081E-9,479.999989271E-3,,,,,56.000001081E-9,13.1999998,
,,,56.400001114E-9,39.99999911E-3,,,,,56.400001114E-9,479.999989271E-3,,,,,56.400001114E-9,13.1999998,
,,,56.800001147E-9,39.99999911E-3,,,,,56.800001147E-9,479.999989271E-3,,,,,56.800001147E-9,13.1999998,
,,,57.200001180E-9,0.0,,,,,57.200001180E-9,479.999989271E-3,,,,,57.200001180E-9,13.1999998,
,,,57.600001213E-9,0.0,,,,,57.600001213E-9,479.999989271E-3,,,,,57.600001213E-9,13.1999998,
,,,58.000001246E-9,0.0,,,,,58.000001246E-9,479.999989271E-3,,,,,58.000001246E-9,13.1999998,
,,,58.400001279E-9,0.0,,,,,58.400001279E-9,479.999989271E-3,,,,,58.400001279E-9,13.1999998,
,,,58.800001312E-9,0.0,,,,,58.800001312E-9,479.999989271E-3,,,,,58.800001312E-9,13.1999998,
,,,59.200001346E-9,39.99999911E-3,,,,,59.200001346E-9,439.999997616E-3,,,,,59.200001346E-9,13.1999998,
