3_5_cm/7_5_kV_O1_Rog.csv

Record Length,2500,Points,-340.00001392E-9,2.79999995,
Sample Interval,1.9999999E-9,s,-338.00000665E-9,3.20000005,
Trigger Point,170.00001177,Samples,-336.00002780E-9,3.20000005,
,,,-334.00002053E-9,3.60000014,
,,,-332.00001326E-9,3.60000014,
,,,-330.00000599E-9,3.60000014,
Source,MATH,,-328.00002714E-9,3.20000005,
Vertical Units,Volts,,-326.00001987E-9,3.20000005,
Vertical Scale,10.0000001,,-324.00001260E-9,2.79999995,
Vertical Offset,0,,-322.00000533E-9,3.20000005,
Horizontal Units,s,,-320.00002648E-9,3.20000005,
Horizontal Scale,499.999985859E-9,,-318.00001921E-9,3.20000005,
Pt Fmt,Y,,-316.00001194E-9,3.20000005,
Yzero,0.0,,-314.00000466E-9,3.60000014,
,,,-312.00002581E-9,4.40000010,
,,,-310.00001854E-9,4.40000010,
Note,TBS 1104 - 2:58:05 PM   2/5/2026,,-308.00001127E-9,4.00000000,
,,,-306.00000400E-9,4.00000000,
,,,-304.00002515E-9,4.80000019,
,,,-302.00001788E-9,4.40000010,
,,,-300.00001061E-9,4.40000010,
,,,-298.00000334E-9,4.80000019,
,,,-296.00002449E-9,5.20000029,
,,,-294.00001722E-9,5.20000029,
,,,-292.00000995E-9,5.59999990,
,,,-290.00000268E-9,5.20000029,
,,,-288.00002383E-9,6.00000000,
,,,-286.00001656E-9,5.59999990,
,,,-284.00000929E-9,5.59999990,
,,,-282.00000202E-9,5.59999990,
,,,-280.00002317E-9,5.59999990,
,,,-278.00001590E-9,6.00000000,
,,,-276.00000863E-9,6.40000010,
,,,-274.00002978E-9,5.59999990,
,,,-272.00002251E-9,5.59999990,
,,,-270.00001523E-9,5.20000029,
,,,-268.00000796E-9,5.59999990,
,,,-266.00002911E-9,5.20000029,
,,,-264.00002184E-9,5.20000029,
,,,-262.00001457E-9,5.20000029,
,,,-260.00000730E-9,5.20000029,
,,,-258.00002845E-9,4.80000019,
,,,-256.00002118E-9,4.80000019,
,,,-254.00001391E-9,4.80000019,
,,,-252.00000664E-9,4.80000019,
,,,-250.00002779E-9,5.20000029,
,,,-248.00002052E-9,4.80000019,
,,,-246.00001325E-9,5.20000029,
,,,-244.00000598E-9,5.20000029,
,,,-242.00002713E-9,4.80000019,
,,,-240.00001986E-9,4.80000019,
,,,-238.00001259E-9,4.80000019,
,,,-236.00001953E-9,4.80000019,
,,,-234.00001226E-9,4.80000019,
,,,-232.00001920E-9,4.80000019,
,,,-230.00001192E-9,5.20000029,
,,,-228.00001886E-9,5.59999990,
,,,-226.00001159E-9,5.20000029,
,,,-224.00001853E-9,4.80000019,
,,,-222.00001126E-9,5.20000029,
,,,-220.00001820E-9,6.00000000,
,,,-218.00001093E-9,5.59999990,
,,,-216.00001787E-9,6.00000000,
,,,-214.00001060E-9,5.59999990,
,,,-212.00001754E-9,6.00000000,
,,,-210.00002448E-9,6.00000000,
,,,-208.00001721E-9,6.40000010,
,,,-206.00002415E-9,6.40000010,
,,,-204.00001688E-9,6.40000010,
,,,-202.00002382E-9,7.20000029,
,,,-200.00001655E-9,6.80000019,
,,,-198.00002349E-9,7.20000029,
,,,-196.00001622E-9,7.20000029,
,,,-194.00002316E-9,7.20000029,
,,,-192.00001589E-9,7.599999905,
,,,-190.00002283E-9,8.000000000,
,,,-188.00001556E-9,7.599999905,
,,,-186.00002250E-9,8.000000000,
,,,-184.00001522E-9,8.000000000,
,,,-182.00002216E-9,8.000000000,
,,,-180.00001489E-9,8.000000000,
,,,-178.00002183E-9,8.400000572,
,,,-176.00001456E-9,8.000000000,
,,,-174.00002150E-9,8.000000000,
,,,-172.00001423E-9,8.400000572,
,,,-170.00002117E-9,8.000000000,
,,,-168.00001390E-9,8.400000572,
,,,-166.00002084E-9,8.400000572,
,,,-164.00001357E-9,8.400000572,
,,,-162.00002051E-9,8.800000191,
,,,-160.00001324E-9,8.400000572,
,,,-158.00002018E-9,8.400000572,
,,,-156.00001291E-9,8.000000000,
,,,-154.00001985E-9,8.400000572,
,,,-152.00001258E-9,8.000000000,
,,,-150.00001952E-9,8.400000572,
,,,-148.0000265E-9,8.400000572,
,,,-146.0000192E-9,8.400000572,
,,,-144.0000261E-9,8.800000191,
,,,-142.0000189E-9,8.400000572,
,,,-140.0000258E-9,8.400000572,
,,,-138.0000185E-9,8.800000191,
,,,-136.0000255E-9,8.800000191,
,,,-134.0000182E-9,9.199999809,
,,,-132.0000251E-9,9.199999809,
,,,-130.0000179E-9,9.199999809,
,,,-128.0000248E-9,9.199999809,
,,,-126.0000175E-9,9.199999809,
,,,-124.0000245E-9,9.199999809,
,,,-122.0000172E-9,9.199999809,
,,,-120.0000241E-9,9.600000381,
,,,-118.0000169E-9,9.600000381,
,,,-116.0000238E-9,9.600000381,
,,,-114.0000236E-9,9.600000381,
,,,-112.0000235E-9,9.600000381,
,,,-110.0000233E-9,10.0000000,
,,,-108.0000231E-9,10.0000000,
,,,-106.0000230E-9,10.0000000,
,,,-104.0000228E-9,10.0000000,
,,,-102.0000227E-9,10.0000000,
,,,-100.0000225E-9,10.0000000,
,,,-98.000022319E-9,10.0000000,
,,,-96.000022154E-9,10.0000000,
,,,-94.000021988E-9,10.0000000,
,,,-92.000021823E-9,9.199999809,
,,,-90.000021657E-9,9.600000381,
,,,-88.000021492E-9,9.600000381,
,,,-86.000021327E-9,9.600000381,
,,,-84.000021161E-9,9.600000381,
,,,-82.000020996E-9,9.600000381,
,,,-80.000020830E-9,9.600000381,
,,,-78.000020665E-9,9.600000381,
,,,-76.000020499E-9,9.199999809,
,,,-74.000020334E-9,9.600000381,
,,,-72.000020168E-9,9.199999809,
,,,-70.000020003E-9,9.600000381,
,,,-68.000019837E-9,9.600000381,
,,,-66.000019672E-9,9.600000381,
,,,-64.000019506E-9,9.600000381,
,,,-62.000019341E-9,9.600000381,
,,,-60.000019175E-9,9.600000381,
,,,-58.000022563E-9,9.600000381,
,,,-56.000022397E-9,9.600000381,
,,,-54.00002223E-9,10.0000000,
,,,-52.00002207E-9,9.600000381,
,,,-50.00002190E-9,9.199999809,
,,,-48.00002174E-9,9.600000381,
,,,-46.00002157E-9,10.0000000,
,,,-44.00002140E-9,10.0000000,
,,,-42.00002124E-9,9.600000381,
,,,-40.00002107E-9,10.0000000,
,,,-38.00002091E-9,10.4000006,
,,,-36.00002429E-9,10.4000006,
,,,-34.00002413E-9,10.8000002,
,,,-32.00002396E-9,10.8000002,
,,,-30.00002380E-9,10.8000002,
,,,-28.00002363E-9,11.1999998,
,,,-26.00002347E-9,11.1999998,
,,,-24.00002330E-9,11.1999998,
,,,-22.00002314E-9,11.1999998,
,,,-20.0000230E-9,11.1999998,
,,,-18.0000228E-9,11.6000004,
,,,-16.0000226E-9,12.0000000,
,,,-14.0000234E-9,12.0000000,
,,,-12.0000232E-9,12.0000000,
,,,-10.0000230E-9,12.4000006,
,,,-8.000023755E-9,12.4000006,
,,,-6.00002359E-9,12.4000006,
,,,-4.00002342E-9,12.4000006,
,,,-2.0000235E-9,12.8000002,
,,,-23.53672782E-15,12.8000002,
,,,1.9999764E-9,12.4000006,
,,,3.99997635E-9,12.8000002,
,,,5.99997652E-9,12.8000002,
,,,7.999975793E-9,12.8000002,
,,,9.999975958E-9,12.4000006,
,,,11.9999761E-9,12.8000002,
,,,13.9999763E-9,12.8000002,
,,,15.9999765E-9,12.8000002,
,,,17.9999766E-9,12.8000002,
,,,19.9999768E-9,12.8000002,
,,,21.99997517E-9,12.8000002,
,,,23.99997534E-9,13.1999998,
,,,25.99997551E-9,12.8000002,
,,,27.99997567E-9,12.8000002,
,,,29.99997406E-9,13.1999998,
,,,31.99997423E-9,12.8000002,
,,,33.99997439E-9,13.1999998,
,,,35.99997456E-9,13.1999998,
,,,37.99997472E-9,13.1999998,
,,,39.99997489E-9,13.1999998,
,,,41.99997505E-9,13.6000004,
,,,43.99997522E-9,13.6000004,
,,,45.99997538E-9,13.6000004,
,,,47.99997555E-9,14.0000000,
,,,49.99997572E-9,14.0000000,
,,,51.99997588E-9,14.0000000,
,,,53.99997605E-9,14.0000000,
,,,55.999976212E-9,14.0000000,
,,,57.999976377E-9,14.4000006,
,,,59.999976543E-9,14.4000006,
,,,61.999976708E-9,14.4000006,
,,,63.999976874E-9,14.4000006,
,,,65.999977039E-9,14.4000006,
,,,67.999977205E-9,14.8000002,
,,,69.999977370E-9,14.4000006,
,,,71.999977536E-9,14.8000002,
,,,73.999977701E-9,14.8000002,
,,,75.999977867E-9,14.4000006,
,,,77.999970927E-9,14.4000006,
,,,79.999971092E-9,14.4000006,
,,,81.999971258E-9,14.8000002,
,,,83.999971423E-9,14.4000006,
,,,85.999971589E-9,14.8000002,
,,,87.999971754E-9,14.8000002,
,,,89.999971919E-9,14.8000002,
,,,91.999972085E-9,14.8000002,
,,,93.999972250E-9,14.8000002,
,,,95.999972416E-9,14.8000002,
,,,97.999972581E-9,14.4000006,
,,,99.999972747E-9,14.8000002,
,,,101.9999729E-9,14.8000002,
,,,103.9999731E-9,14.8000002,
,,,105.9999732E-9,15.1999998,
,,,107.9999734E-9,14.8000002,
,,,109.9999736E-9,14.8000002,
,,,111.9999737E-9,14.4000006,
,,,113.9999739E-9,14.8000002,
,,,115.9999741E-9,14.8000002,
,,,117.9999742E-9,14.8000002,
,,,119.9999673E-9,15.1999998,
,,,121.9999746E-9,14.8000002,
,,,123.9999676E-9,15.1999998,
,,,125.9999749E-9,15.1999998,
,,,127.9999680E-9,14.8000002,
,,,129.9999752E-9,15.1999998,
,,,131.9999683E-9,15.1999998,
,,,133.9999756E-9,15.1999998,
,,,135.9999686E-9,15.6000004,
,,,137.9999759E-9,16.0000000,
,,,139.9999690E-9,16.0000000,
,,,141.9999762E-9,16.0000000,
,,,143.9999693E-9,16.0000000,
,,,145.9999766E-9,16.0000000,
,,,147.9999696E-9,16.0000000,
,,,149.99997688E-9,16.0000000,
,,,151.99996994E-9,16.8000011,
,,,153.99997721E-9,16.8000011,
,,,155.99997027E-9,16.8000011,
,,,157.99997755E-9,17.2000008,
,,,159.99997061E-9,17.2000008,
,,,161.99997788E-9,17.2000008,
,,,163.99997094E-9,17.2000008,
,,,165.99997821E-9,17.2000008,
,,,167.99997127E-9,17.6000004,
,,,169.99997854E-9,17.6000004,
,,,171.99997160E-9,17.6000004,
,,,173.99996466E-9,17.6000004,
,,,175.99997193E-9,18.0000000,
,,,177.99996499E-9,17.6000004,
,,,179.99997226E-9,17.6000004,
,,,181.99996532E-9,17.6000004,
,,,183.99997259E-9,18.0000000,
,,,185.99996565E-9,18.0000000,
,,,187.99997292E-9,18.0000000,
,,,189.99996598E-9,18.0000000,
,,,191.99997325E-9,17.6000004,
,,,193.99996631E-9,17.6000004,
,,,195.99997358E-9,17.6000004,
,,,197.99996664E-9,18.0000000,
,,,199.99997392E-9,18.0000000,
,,,201.99996698E-9,18.0000000,
,,,203.99997425E-9,18.3999996,
,,,205.99996731E-9,18.3999996,
,,,207.99997458E-9,17.6000004,
,,,209.99996764E-9,18.0000000,
,,,211.99997491E-9,18.3999996,
,,,213.99996797E-9,18.0000000,
,,,215.99997524E-9,18.3999996,
,,,217.99996830E-9,18.3999996,
,,,219.99997557E-9,18.3999996,
,,,221.99996863E-9,18.8000011,
,,,223.99997590E-9,18.8000011,
,,,225.99996896E-9,18.8000011,
,,,227.99997623E-9,18.8000011,
,,,229.99996929E-9,18.3999996,
,,,231.99997656E-9,18.8000011,
,,,233.99996962E-9,18.8000011,
,,,235.99997689E-9,19.2000008,
,,,237.99996995E-9,19.2000008,
,,,239.99996301E-9,19.2000008,
,,,241.99997029E-9,19.2000008,
,,,243.99997756E-9,19.2000008,
,,,245.99995641E-9,19.2000008,
,,,247.99996368E-9,19.2000008,
,,,249.99997095E-9,19.2000008,
,,,251.99997822E-9,18.8000011,
,,,253.99995707E-9,19.6000004,
,,,255.99996434E-9,19.6000004,
,,,257.99997161E-9,19.2000008,
,,,259.99997888E-9,19.6000004,
,,,261.99995773E-9,19.2000008,
,,,263.99996500E-9,19.2000008,
,,,265.99997227E-9,19.2000008,
,,,267.99997954E-9,19.6000004,
,,,269.99995839E-9,19.2000008,
,,,271.99996566E-9,19.2000008,
,,,273.99997293E-9,19.2000008,
,,,275.99998020E-9,19.2000008,
,,,277.99995905E-9,19.2000008,
,,,279.99996632E-9,19.2000008,
,,,281.99997359E-9,19.2000008,
,,,283.99998087E-9,19.2000008,
,,,285.99995971E-9,19.6000004,
,,,287.99996699E-9,19.6000004,
,,,289.99997426E-9,19.6000004,
,,,291.99998153E-9,19.2000008,
,,,293.99996038E-9,19.2000008,
,,,295.99996765E-9,19.2000008,
,,,297.99997492E-9,19.6000004,
,,,299.99995377E-9,20.0000000,
,,,301.99996104E-9,20.0000000,
,,,303.99996831E-9,19.6000004,
,,,305.99997558E-9,19.6000004,
,,,307.99995443E-9,19.6000004,
,,,309.99996170E-9,19.6000004,
,,,311.99996897E-9,20.0000000,
,,,313.99997624E-9,20.0000000,
,,,315.99995509E-9,20.39999962,
,,,317.99996236E-9,20.39999962,
,,,319.99996963E-9,20.39999962,
,,,321.99997690E-9,20.39999962,
,,,323.99995575E-9,20.80000114,
,,,325.99996302E-9,20.80000114,
,,,327.99997030E-9,20.80000114,
,,,329.99997757E-9,20.80000114,
,,,331.99995642E-9,21.20000076,
,,,333.99996369E-9,21.20000076,
,,,335.99997096E-9,21.20000076,
,,,337.99997823E-9,21.60000038,
,,,339.99995708E-9,21.60000038,
,,,341.99996435E-9,21.60000038,
,,,343.99997162E-9,21.60000038,
,,,345.99997889E-9,21.60000038,
,,,347.99995774E-9,22.00000000,
,,,349.99996501E-9,22.00000000,
,,,351.99997228E-9,22.00000000,
,,,353.99997955E-9,21.60000038,
,,,355.99995840E-9,21.60000038,
,,,357.99996567E-9,21.60000038,
,,,359.99997294E-9,22.00000000,
,,,361.99998021E-9,22.00000000,
,,,363.99995906E-9,22.00000000,
,,,365.99996633E-9,22.00000000,
,,,367.99997361E-9,22.00000000,
,,,369.99995245E-9,22.00000000,
,,,371.99995973E-9,22.00000000,
,,,373.99996700E-9,22.00000000,
,,,375.99997427E-9,21.60000038,
,,,377.99995312E-9,22.00000000,
,,,379.99996039E-9,22.00000000,
,,,381.99996766E-9,22.00000000,
,,,383.99997493E-9,21.60000038,
,,,385.99995378E-9,22.39999962,
,,,387.99996105E-9,22.00000000,
,,,389.99996832E-9,22.00000000,
,,,391.99997559E-9,22.00000000,
,,,393.99995444E-9,22.39999962,
,,,395.99996171E-9,22.00000000,
,,,397.99996898E-9,22.39999962,
,,,399.99997625E-9,22.00000000,
,,,401.99995510E-9,22.39999962,
,,,403.999962373E-9,22.39999962,
,,,405.999969644E-9,22.39999962,
,,,407.999976915E-9,22.39999962,
,,,409.999955764E-9,22.39999962,
,,,411.999963035E-9,22.39999962,
,,,413.999970306E-9,22.39999962,
,,,415.999977577E-9,22.80000114,
,,,417.999956426E-9,22.80000114,
,,,419.999963697E-9,22.80000114,
,,,421.999970968E-9,23.20000076,
,,,423.999978238E-9,22.80000114,
,,,425.999957088E-9,22.80000114,
,,,427.999964359E-9,22.80000114,
,,,429.999971630E-9,22.80000114,
,,,431.999950479E-9,23.20000076,
,,,433.999957750E-9,23.20000076,
,,,435.999965021E-9,23.20000076,
,,,437.999972291E-9,22.80000114,
,,,439.999951141E-9,23.20000076,
,,,441.999958412E-9,22.80000114,
,,,443.999965682E-9,23.20000076,
,,,445.999972953E-9,23.20000076,
,,,447.999951803E-9,22.80000114,
,,,449.999959073E-9,23.20000076,
,,,451.999966344E-9,23.20000076,
,,,453.999973615E-9,23.20000076,
,,,455.999952464E-9,22.80000114,
,,,457.999959735E-9,22.39999962,
,,,459.999967006E-9,22.80000114,
,,,461.999974277E-9,22.80000114,
,,,463.999953126E-9,22.80000114,
,,,465.999960397E-9,23.20000076,
,,,467.999967668E-9,22.80000114,
,,,469.999974939E-9,23.20000076,
,,,471.999953788E-9,22.39999962,
,,,473.999961059E-9,22.80000114,
,,,475.999968330E-9,23.20000076,
,,,477.999947179E-9,23.20000076,
,,,479.999982872E-9,23.20000076,
,,,481.999961721E-9,23.20000076,
,,,483.999940570E-9,23.60000038,
,,,485.999976263E-9,23.20000076,
,,,487.999955112E-9,23.20000076,
,,,489.999990805E-9,23.20000076,
,,,491.999969654E-9,23.60000038,
,,,493.999948503E-9,23.60000038,
,,,495.999984196E-9,24.00000000,
,,,497.999963045E-9,24.00000000,
,,,499.999941894E-9,24.39999962,
,,,501.999977587E-9,23.60000038,
,,,503.999956436E-9,24.00000000,
,,,505.999935285E-9,24.00000000,
,,,507.999970978E-9,24.00000000,
,,,509.999949827E-9,24.00000000,
,,,511.999985520E-9,24.39999962,
,,,513.999964369E-9,24.80000114,
,,,515.999943218E-9,24.39999962,
,,,517.999978911E-9,24.80000114,
,,,519.999957760E-9,24.39999962,
,,,521.999936609E-9,24.80000114,
,,,523.999972302E-9,24.39999962,
,,,525.999951151E-9,24.39999962,
,,,527.999986843E-9,24.80000114,
,,,529.999965693E-9,24.80000114,
,,,531.999944542E-9,24.80000114,
,,,533.999980235E-9,24.80000114,
,,,535.999959084E-9,24.80000114,
,,,537.999937933E-9,25.20000076,
,,,539.999973626E-9,24.80000114,
,,,541.999952475E-9,24.39999962,
,,,543.999988167E-9,24.80000114,
,,,545.999967017E-9,24.80000114,
,,,547.999945866E-9,24.80000114,
,,,549.999981558E-9,24.80000114,
,,,551.999960408E-9,24.39999962,
,,,553.999939257E-9,24.80000114,
,,,555.999974949E-9,24.80000114,
,,,557.999953799E-9,25.20000076,
,,,559.999932648E-9,24.80000114,
,,,561.999968340E-9,24.80000114,
,,,563.999947190E-9,24.80000114,
,,,565.999982882E-9,25.20000076,
,,,567.999961731E-9,24.39999962,
,,,569.999940581E-9,24.39999962,
,,,571.999976273E-9,24.80000114,
,,,573.999955122E-9,24.80000114,
,,,575.999933972E-9,24.80000114,
,,,577.999969664E-9,25.20000076,
,,,579.999948513E-9,25.20000076,
,,,581.999984206E-9,25.20000076,
,,,583.999963055E-9,25.20000076,
,,,585.999941904E-9,24.39999962,
,,,587.999977597E-9,24.80000114,
,,,589.999956446E-9,25.20000076,
,,,591.999935295E-9,25.20000076,
,,,593.999970988E-9,25.60000038,
,,,595.999949837E-9,25.60000038,
,,,597.999985530E-9,25.60000038,
,,,599.999964379E-9,25.20000076,
,,,601.999943228E-9,24.80000114,
,,,603.999978921E-9,24.39999962,
,,,605.999957770E-9,24.80000114,
,,,607.999936619E-9,24.80000114,
,,,609.999972312E-9,24.80000114,
,,,611.999951161E-9,25.20000076,
,,,613.999986854E-9,25.20000076,
,,,615.999965703E-9,25.20000076,
,,,617.999944552E-9,25.20000076,
,,,619.999980245E-9,24.80000114,
,,,621.999959094E-9,24.00000000,
,,,623.999937943E-9,24.39999962,
,,,625.999973636E-9,24.00000000,
,,,627.999952485E-9,24.00000000,
,,,629.999931334E-9,24.80000114,
,,,631.999967027E-9,24.39999962,
,,,633.999945876E-9,24.80000114,
,,,635.999981569E-9,24.00000000,
,,,637.999960418E-9,24.39999962,
,,,639.999939267E-9,23.60000038,
,,,641.999974960E-9,23.60000038,
,,,643.999953809E-9,23.60000038,
,,,645.999932658E-9,24.00000000,
,,,647.999968351E-9,24.00000000,
,,,649.999947200E-9,23.60000038,
,,,651.999982892E-9,23.20000076,
,,,653.999961742E-9,23.20000076,
,,,655.999940591E-9,22.80000114,
,,,657.999976283E-9,23.20000076,
,,,659.999955133E-9,23.60000038,
,,,661.999933982E-9,24.00000000,
,,,663.999969674E-9,23.60000038,
,,,665.999948524E-9,23.20000076,
,,,667.999984216E-9,22.80000114,
,,,669.999963065E-9,22.39999962,
,,,671.999941915E-9,22.39999962,
,,,673.999977607E-9,22.39999962,
,,,675.999956457E-9,22.80000114,
,,,677.999935306E-9,23.20000076,
,,,679.999970998E-9,22.80000114,
,,,681.999949848E-9,22.80000114,
,,,683.999928697E-9,22.80000114,
,,,685.999964389E-9,22.39999962,
,,,687.999943239E-9,22.39999962,
,,,689.999978931E-9,22.80000114,
,,,691.999957780E-9,22.39999962,
,,,693.999936630E-9,22.80000114,
,,,695.999972322E-9,22.80000114,
,,,697.999951171E-9,22.80000114,
,,,699.999930021E-9,22.39999962,
,,,701.999965713E-9,22.39999962,
,,,703.999944562E-9,22.39999962,
,,,705.999980255E-9,22.80000114,
,,,707.999959104E-9,22.39999962,
,,,709.999937953E-9,22.80000114,
,,,711.999973646E-9,22.39999962,
,,,713.999952495E-9,22.39999962,
,,,715.999931344E-9,22.00000000,
,,,717.999967037E-9,22.00000000,
,,,719.999945886E-9,22.00000000,
,,,721.999981579E-9,22.00000000,
,,,723.999960428E-9,22.00000000,
,,,725.999939277E-9,22.39999962,
,,,727.999974970E-9,22.00000000,
,,,729.999953819E-9,21.60000038,
,,,731.999932668E-9,22.00000000,
,,,733.999968361E-9,21.60000038,
,,,735.999947210E-9,21.60000038,
,,,737.999982903E-9,22.00000000,
,,,739.999961752E-9,21.60000038,
,,,741.999940601E-9,21.60000038,
,,,743.999976294E-9,22.00000000,
,,,745.999955143E-9,22.39999962,
,,,747.999933992E-9,22.00000000,
,,,749.999969685E-9,21.60000038,
,,,751.999948534E-9,21.60000038,
,,,753.999927383E-9,21.20000076,
,,,755.999963076E-9,21.60000038,
,,,757.999941925E-9,21.20000076,
,,,759.999977618E-9,22.00000000,
,,,761.999956467E-9,22.00000000,
,,,763.999935316E-9,22.39999962,
,,,765.999971009E-9,22.39999962,
,,,767.999949858E-9,22.00000000,
,,,769.999928707E-9,21.60000038,
,,,771.999964400E-9,21.60000038,
,,,773.999943249E-9,21.60000038,
,,,775.999978941E-9,21.60000038,
,,,777.999957791E-9,22.00000000,
,,,779.999936640E-9,22.39999962,
,,,781.999972332E-9,22.00000000,
,,,783.999951182E-9,21.60000038,
,,,785.999930031E-9,21.60000038,
,,,787.999965723E-9,21.60000038,
,,,789.999944573E-9,21.60000038,
,,,791.999980265E-9,21.60000038,
,,,793.999959114E-9,21.20000076,
,,,795.999937964E-9,21.20000076,
,,,797.999973656E-9,21.60000038,
,,,799.999952505E-9,21.20000076,
,,,801.999931355E-9,21.20000076,
,,,803.999967047E-9,21.20000076,
,,,805.999945896E-9,21.20000076,
,,,807.999981589E-9,21.20000076,
,,,809.999960438E-9,21.20000076,
,,,811.999939287E-9,21.20000076,
,,,813.999974980E-9,21.20000076,
,,,815.999953829E-9,20.80000114,
,,,817.999932679E-9,20.80000114,
,,,819.999968371E-9,20.80000114,
,,,821.999947220E-9,20.80000114,
,,,823.999926070E-9,20.80000114,
,,,825.999961762E-9,20.39999962,
,,,827.999940611E-9,20.80000114,
,,,829.999976304E-9,20.39999962,
,,,831.999955153E-9,20.80000114,
,,,833.999934002E-9,20.39999962,
,,,835.999969695E-9,20.39999962,
,,,837.999948544E-9,20.0000000,
,,,839.999927393E-9,20.0000000,
,,,841.999963086E-9,20.0000000,
,,,843.999941935E-9,20.39999962,
,,,845.999977628E-9,20.0000000,
,,,847.999956477E-9,20.39999962,
,,,849.999935326E-9,20.39999962,
,,,851.999971019E-9,20.39999962,
,,,853.999949868E-9,20.39999962,
,,,855.999928717E-9,20.0000000,
,,,857.999964410E-9,20.0000000,
,,,859.999943259E-9,20.39999962,
,,,861.999978952E-9,20.39999962,
,,,863.999957801E-9,20.0000000,
,,,865.999936650E-9,20.39999962,
,,,867.999972343E-9,20.0000000,
,,,869.999951192E-9,20.0000000,
,,,871.999930041E-9,19.6000004,
,,,873.999965734E-9,20.0000000,
,,,875.999944583E-9,20.39999962,
,,,877.999923432E-9,20.39999962,
,,,879.999959125E-9,20.39999962,
,,,881.999937974E-9,20.39999962,
,,,883.999973667E-9,20.0000000,
,,,885.999952516E-9,19.6000004,
,,,887.999931365E-9,19.6000004,
,,,889.999967058E-9,19.6000004,
