0_5_cm/10_5_kV_O1_Rog.csv

Record Length,2500,Points,-479.999982872E-9,0.0,
Sample Interval,1.9999999E-9,s,-478.000004023E-9,-400.00000596E-3,
Trigger Point,239.99999822,Samples,-475.999996752E-9,0.0,
,,,-473.999989481E-9,0.0,
,,,-471.999982210E-9,400.00000596E-3,
,,,-469.999974939E-9,0.0,
Source,MATH,,-467.999996090E-9,0.0,
Vertical Units,Volts,,-465.999988819E-9,400.00000596E-3,
Vertical Scale,10.0000001,,-463.999981548E-9,0.0,
Vertical Offset,0,,-461.999974277E-9,0.0,
Horizontal Units,s,,-459.999995428E-9,400.00000596E-3,
Horizontal Scale,499.999985859E-9,,-457.999988157E-9,0.0,
Pt Fmt,Y,,-455.999980886E-9,0.0,
Yzero,0.0,,-453.999973615E-9,0.0,
,,,-451.999994766E-9,400.00000596E-3,
,,,-449.999987495E-9,400.00000596E-3,
Note,TBS 1104 - 3:19:11 PM   2/5/2026,,-447.999980224E-9,400.00000596E-3,
,,,-445.999972953E-9,0.0,
,,,-443.999994104E-9,400.00000596E-3,
,,,-441.999986833E-9,400.00000596E-3,
,,,-439.999979562E-9,0.0,
,,,-437.999972291E-9,0.0,
,,,-435.999993442E-9,0.0,
,,,-433.999986171E-9,0.0,
,,,-431.999978900E-9,400.00000596E-3,
,,,-429.999971630E-9,400.00000596E-3,
,,,-427.999992780E-9,400.00000596E-3,
,,,-425.999985509E-9,0.0,
,,,-423.999978238E-9,400.00000596E-3,
,,,-421.999970968E-9,0.0,
,,,-419.999992118E-9,400.00000596E-3,
,,,-417.999984847E-9,0.0,
,,,-415.999977577E-9,400.00000596E-3,
,,,-413.999998727E-9,0.0,
,,,-411.999991456E-9,400.00000596E-3,
,,,-409.999984186E-9,400.00000596E-3,
,,,-407.999976915E-9,400.00000596E-3,
,,,-405.999998065E-9,400.00000596E-3,
,,,-403.999990795E-9,400.00000596E-3,
,,,-401.99998352E-9,0.0,
,,,-399.99997625E-9,400.00000596E-3,
,,,-397.99999740E-9,0.0,
,,,-395.99999013E-9,400.00000596E-3,
,,,-393.99998286E-9,400.00000596E-3,
,,,-391.99997559E-9,0.0,
,,,-389.99999674E-9,0.0,
,,,-387.99998947E-9,0.0,
,,,-385.99998220E-9,400.00000596E-3,
,,,-383.99997493E-9,400.00000596E-3,
,,,-381.99999608E-9,400.00000596E-3,
,,,-379.99998881E-9,400.00000596E-3,
,,,-377.99998154E-9,0.0,
,,,-375.99997427E-9,400.00000596E-3,
,,,-373.99999542E-9,0.0,
,,,-371.99998815E-9,0.0,
,,,-369.99998088E-9,0.0,
,,,-367.99997361E-9,400.00000596E-3,
,,,-365.99999476E-9,400.00000596E-3,
,,,-363.99998748E-9,400.00000596E-3,
,,,-361.99998021E-9,400.00000596E-3,
,,,-359.99997294E-9,0.0,
,,,-357.99999409E-9,400.00000596E-3,
,,,-355.99998682E-9,400.00000596E-3,
,,,-353.99997955E-9,0.0,
,,,-351.99997228E-9,400.00000596E-3,
,,,-349.99999343E-9,400.00000596E-3,
,,,-347.99998616E-9,0.0,
,,,-345.99997889E-9,400.00000596E-3,
,,,-344.00000004E-9,400.00000596E-3,
,,,-341.99999277E-9,400.00000596E-3,
,,,-339.99998550E-9,0.0,
,,,-337.99997823E-9,0.0,
,,,-335.99999938E-9,0.0,
,,,-333.99999211E-9,400.00000596E-3,
,,,-331.99998484E-9,0.0,
,,,-329.99997757E-9,0.0,
,,,-327.99999872E-9,400.00000596E-3,
,,,-325.99999145E-9,400.00000596E-3,
,,,-323.99998418E-9,400.00000596E-3,
,,,-321.99997690E-9,0.0,
,,,-319.99999806E-9,400.00000596E-3,
,,,-317.99999078E-9,0.0,
,,,-315.99998351E-9,400.00000596E-3,
,,,-313.99997624E-9,0.0,
,,,-311.99999739E-9,400.00000596E-3,
,,,-309.99999012E-9,400.00000596E-3,
,,,-307.99998285E-9,0.0,
,,,-305.99997558E-9,0.0,
,,,-303.99999673E-9,400.00000596E-3,
,,,-301.99998946E-9,0.0,
,,,-299.99998219E-9,400.00000596E-3,
,,,-297.99997492E-9,0.0,
,,,-295.99999607E-9,0.0,
,,,-293.99998880E-9,400.00000596E-3,
,,,-291.99998153E-9,400.00000596E-3,
,,,-289.99997426E-9,400.00000596E-3,
,,,-287.99999541E-9,400.00000596E-3,
,,,-285.99998814E-9,400.00000596E-3,
,,,-283.99998087E-9,0.0,
,,,-282.00000202E-9,0.0,
,,,-279.99999475E-9,0.0,
,,,-277.99998747E-9,0.0,
,,,-275.99998020E-9,0.0,
,,,-274.00000135E-9,0.0,
,,,-271.99999408E-9,0.0,
,,,-269.99998681E-9,0.0,
,,,-267.99997954E-9,0.0,
,,,-266.00000069E-9,0.0,
,,,-263.99999342E-9,0.0,
,,,-261.99998615E-9,0.0,
,,,-259.99997888E-9,400.00000596E-3,
,,,-258.00000003E-9,0.0,
,,,-255.99999276E-9,0.0,
,,,-253.99998549E-9,400.00000596E-3,
,,,-251.99997822E-9,400.00000596E-3,
,,,-249.99999937E-9,0.0,
,,,-247.99999210E-9,400.00000596E-3,
,,,-245.99998483E-9,0.0,
,,,-243.99997756E-9,0.0,
,,,-241.99999871E-9,0.0,
,,,-239.99999144E-9,0.0,
,,,-237.99998417E-9,400.00000596E-3,
,,,-235.99999111E-9,0.0,
,,,-233.99998383E-9,0.0,
,,,-231.99999077E-9,400.00000596E-3,
,,,-229.99998350E-9,400.00000596E-3,
,,,-227.99999044E-9,0.0,
,,,-225.99998317E-9,0.0,
,,,-223.99999011E-9,0.0,
,,,-221.99999705E-9,0.0,
,,,-219.99998978E-9,400.00000596E-3,
,,,-217.99999672E-9,400.00000596E-3,
,,,-215.99998945E-9,0.0,
,,,-213.99999639E-9,400.00000596E-3,
,,,-211.99998912E-9,400.00000596E-3,
,,,-209.99999606E-9,400.00000596E-3,
,,,-207.99998879E-9,0.0,
,,,-205.99999573E-9,400.00000596E-3,
,,,-203.99998846E-9,0.0,
,,,-201.99999540E-9,0.0,
,,,-199.99998813E-9,0.0,
,,,-197.99999507E-9,0.0,
,,,-195.99998780E-9,0.0,
,,,-193.99999474E-9,0.0,
,,,-191.99998746E-9,0.0,
,,,-189.99999440E-9,0.0,
,,,-187.99998713E-9,400.00000596E-3,
,,,-185.99999407E-9,0.0,
,,,-183.99998680E-9,-400.00000596E-3,
,,,-181.99999374E-9,0.0,
,,,-179.99998647E-9,-400.00000596E-3,
,,,-177.99999341E-9,0.0,
,,,-175.99998614E-9,0.0,
,,,-173.99999308E-9,0.0,
,,,-171.99998581E-9,0.0,
,,,-169.99999275E-9,0.0,
,,,-167.99998548E-9,0.0,
,,,-165.99999242E-9,-400.00000596E-3,
,,,-163.99998515E-9,0.0,
,,,-161.99999209E-9,-800.000011921E-3,
,,,-159.99998482E-9,-800.000011921E-3,
,,,-157.99999176E-9,-800.000011921E-3,
,,,-155.99999870E-9,-800.000011921E-3,
,,,-153.99999143E-9,-400.00000596E-3,
,,,-151.99999837E-9,-400.00000596E-3,
,,,-149.99999109E-9,-800.000011921E-3,
,,,-147.9999980E-9,-800.000011921E-3,
,,,-145.9999908E-9,-1.2000000,
,,,-143.9999977E-9,-1.2000000,
,,,-141.9999904E-9,-1.6000000,
,,,-139.9999974E-9,-1.2000000,
,,,-137.9999901E-9,-1.2000000,
,,,-135.9999970E-9,-800.000011921E-3,
,,,-133.9999898E-9,-400.00000596E-3,
,,,-131.9999967E-9,-400.00000596E-3,
,,,-129.9999894E-9,400.00000596E-3,
,,,-127.9999964E-9,0.0,
,,,-125.9999891E-9,0.0,
,,,-123.9999960E-9,0.0,
,,,-121.9999888E-9,400.00000596E-3,
,,,-119.9999957E-9,800.000011921E-3,
,,,-117.9999956E-9,1.6000000,
,,,-115.9999954E-9,1.2000000,
,,,-113.9999952E-9,1.6000000,
,,,-111.9999951E-9,2.0000000,
,,,-109.9999949E-9,2.4000001,
,,,-107.9999947E-9,2.4000001,
,,,-105.9999946E-9,2.79999995,
,,,-103.9999944E-9,3.20000005,
,,,-101.9999942E-9,2.79999995,
,,,-99.999994063E-9,2.79999995,
,,,-97.999993898E-9,2.79999995,
,,,-95.999993732E-9,3.20000005,
,,,-93.999993567E-9,4.00000000,
,,,-91.999993401E-9,4.40000010,
,,,-89.999993236E-9,4.00000000,
,,,-87.999993070E-9,4.00000000,
,,,-85.999992905E-9,4.40000010,
,,,-83.999992739E-9,4.40000010,
,,,-81.999992574E-9,4.40000010,
,,,-79.999992408E-9,4.40000010,
,,,-77.999992243E-9,4.00000000,
,,,-75.999992077E-9,4.40000010,
,,,-73.999991912E-9,4.80000019,
,,,-71.999991746E-9,4.40000010,
,,,-69.999991581E-9,4.80000019,
,,,-67.999991415E-9,4.80000019,
,,,-65.999991250E-9,4.80000019,
,,,-63.999991085E-9,5.20000029,
,,,-61.999998024E-9,5.20000029,
,,,-59.999997859E-9,5.20000029,
,,,-57.999994141E-9,5.20000029,
,,,-55.999993975E-9,5.59999990,
,,,-53.99999381E-9,5.59999990,
,,,-51.99999364E-9,5.20000029,
,,,-49.99999348E-9,5.59999990,
,,,-47.99999687E-9,5.59999990,
,,,-45.99999670E-9,6.00000000,
,,,-43.99999654E-9,6.40000010,
,,,-41.99999637E-9,6.40000010,
,,,-39.99999620E-9,6.40000010,
,,,-37.99999604E-9,6.80000019,
,,,-35.99999587E-9,6.80000019,
,,,-33.99999571E-9,7.20000029,
,,,-31.99999554E-9,7.599999905,
,,,-29.99999538E-9,7.20000029,
,,,-27.99999521E-9,7.599999905,
,,,-25.99999505E-9,7.599999905,
,,,-23.99999488E-9,8.000000000,
,,,-21.99999649E-9,8.400000572,
,,,-19.9999963E-9,8.000000000,
,,,-17.9999962E-9,7.599999905,
,,,-15.9999960E-9,8.000000000,
,,,-13.9999958E-9,8.000000000,
,,,-11.9999957E-9,8.400000572,
,,,-9.999996387E-9,8.000000000,
,,,-7.999996221E-9,8.000000000,
,,,-5.99999606E-9,8.400000572,
,,,-3.99999633E-9,8.000000000,
,,,-1.9999964E-9,8.400000572,
,,,3.55271363E-15,8.000000000,
,,,2.0000035E-9,8.000000000,
,,,4.00000344E-9,7.599999905,
,,,6.00000316E-9,8.000000000,
,,,8.000003326E-9,7.20000029,
,,,10.0000035E-9,7.20000029,
,,,12.0000028E-9,7.20000029,
,,,14.0000029E-9,7.599999905,
,,,16.0000031E-9,7.599999905,
,,,18.0000033E-9,7.20000029,
,,,20.0000034E-9,7.20000029,
,,,22.00000360E-9,7.20000029,
,,,24.00000199E-9,6.80000019,
,,,26.00000215E-9,7.20000029,
,,,28.00000232E-9,7.20000029,
,,,30.00000248E-9,7.20000029,
,,,32.00000265E-9,7.599999905,
,,,34.00000281E-9,7.599999905,
,,,36.00000298E-9,7.599999905,
,,,38.00000314E-9,8.000000000,
,,,40.00000331E-9,8.000000000,
,,,42.00000348E-9,8.000000000,
,,,44.00000364E-9,8.000000000,
,,,46.00000381E-9,8.000000000,
,,,48.00000397E-9,8.400000572,
,,,50.00000058E-9,8.400000572,
,,,52.00000075E-9,8.800000191,
,,,54.00000092E-9,8.800000191,
,,,56.000001081E-9,8.800000191,
,,,58.000001246E-9,9.199999809,
,,,60.000004964E-9,9.600000381,
,,,62.000005130E-9,9.600000381,
,,,64.000005295E-9,10.0000000,
,,,65.999998355E-9,10.4000006,
,,,67.999998521E-9,10.4000006,
,,,69.999998686E-9,10.4000006,
,,,71.999998852E-9,10.8000002,
,,,73.999999017E-9,10.8000002,
,,,75.999999183E-9,10.8000002,
,,,77.999999348E-9,11.1999998,
,,,79.999999514E-9,11.1999998,
,,,81.999999679E-9,11.1999998,
,,,83.999999845E-9,11.6000004,
,,,86.000000010E-9,11.6000004,
,,,88.000000176E-9,11.6000004,
,,,90.000000341E-9,11.6000004,
,,,92.000000507E-9,12.0000000,
,,,94.000000672E-9,11.1999998,
,,,96.000000838E-9,12.0000000,
,,,98.000001003E-9,12.0000000,
,,,100.0000012E-9,12.0000000,
,,,102.0000013E-9,11.6000004,
,,,104.0000015E-9,12.0000000,
,,,106.0000017E-9,12.0000000,
,,,108.0000018E-9,11.6000004,
,,,110.0000020E-9,12.0000000,
,,,112.0000022E-9,12.0000000,
,,,114.0000023E-9,12.0000000,
,,,116.0000025E-9,11.6000004,
,,,118.0000027E-9,11.6000004,
,,,119.9999957E-9,12.0000000,
,,,122.0000030E-9,12.0000000,
,,,123.9999960E-9,12.0000000,
,,,126.0000033E-9,12.0000000,
,,,127.9999964E-9,12.4000006,
,,,130.0000037E-9,12.8000002,
,,,131.9999967E-9,12.8000002,
,,,134.0000040E-9,12.8000002,
,,,135.9999970E-9,13.1999998,
,,,138.0000043E-9,13.1999998,
,,,139.9999974E-9,13.1999998,
,,,142.0000046E-9,13.6000004,
,,,143.9999977E-9,13.6000004,
,,,146.0000050E-9,14.0000000,
,,,147.9999980E-9,14.4000006,
,,,150.00000531E-9,14.4000006,
,,,151.99999837E-9,14.8000002,
,,,154.00000564E-9,14.4000006,
,,,155.99999870E-9,14.8000002,
,,,158.00000597E-9,14.4000006,
,,,159.99999903E-9,14.8000002,
,,,161.99999209E-9,14.8000002,
,,,163.99999936E-9,14.8000002,
,,,165.99999242E-9,14.8000002,
,,,167.99999969E-9,15.1999998,
,,,169.99999275E-9,14.8000002,
,,,172.00000002E-9,14.8000002,
,,,173.99999308E-9,14.8000002,
,,,176.00000035E-9,14.8000002,
,,,177.99999341E-9,14.8000002,
,,,180.00000068E-9,14.8000002,
,,,181.99999374E-9,14.0000000,
,,,184.00000101E-9,14.8000002,
,,,185.99999407E-9,14.4000006,
,,,188.00000134E-9,14.8000002,
,,,189.99999440E-9,14.4000006,
,,,192.00000168E-9,14.8000002,
,,,193.99999474E-9,14.4000006,
,,,196.00000201E-9,14.8000002,
,,,197.99999507E-9,14.4000006,
,,,200.00000234E-9,14.8000002,
,,,201.99999540E-9,14.4000006,
,,,204.00000267E-9,14.8000002,
,,,205.99999573E-9,14.4000006,
,,,208.00000300E-9,14.8000002,
,,,209.99999606E-9,14.4000006,
,,,212.00000333E-9,14.8000002,
,,,213.99999639E-9,15.1999998,
,,,216.00000366E-9,15.1999998,
,,,217.99999672E-9,15.6000004,
,,,220.00000399E-9,16.0000000,
,,,221.99999705E-9,16.0000000,
,,,223.99999011E-9,16.0000000,
,,,225.99999738E-9,16.0000000,
,,,227.99999044E-9,16.8000011,
,,,229.99999771E-9,16.0000000,
,,,231.99999077E-9,17.2000008,
,,,233.99999804E-9,16.3999996,
,,,235.99999111E-9,17.6000004,
,,,237.99999838E-9,17.2000008,
,,,239.99999144E-9,17.2000008,
,,,241.99999871E-9,18.0000000,
,,,244.00000598E-9,17.2000008,
,,,245.99998483E-9,18.3999996,
,,,247.99999210E-9,17.6000004,
,,,249.99999937E-9,18.3999996,
,,,252.00000664E-9,18.0000000,
,,,253.99998549E-9,18.8000011,
,,,255.99999276E-9,18.8000011,
,,,258.00000003E-9,18.8000011,
,,,260.00000730E-9,19.2000008,
,,,261.99998615E-9,19.2000008,
,,,263.99999342E-9,18.8000011,
,,,266.00000069E-9,18.8000011,
,,,268.00000796E-9,19.2000008,
,,,269.99998681E-9,18.3999996,
,,,271.99999408E-9,18.8000011,
,,,274.00000135E-9,19.2000008,
,,,276.00000863E-9,18.8000011,
,,,277.99998747E-9,19.6000004,
,,,279.99999475E-9,18.8000011,
,,,282.00000202E-9,19.6000004,
,,,284.00000929E-9,19.6000004,
,,,285.99998814E-9,19.2000008,
,,,287.99999541E-9,18.8000011,
,,,290.00000268E-9,18.8000011,
,,,291.99998153E-9,18.8000011,
,,,293.99998880E-9,18.8000011,
,,,295.99999607E-9,19.2000008,
,,,298.00000334E-9,19.2000008,
,,,299.99998219E-9,19.2000008,
,,,301.99998946E-9,20.0000000,
,,,303.99999673E-9,19.6000004,
,,,306.00000400E-9,19.6000004,
,,,307.99998285E-9,20.0000000,
,,,309.99999012E-9,20.0000000,
,,,311.99999739E-9,20.0000000,
,,,314.00000466E-9,20.39999962,
,,,315.99998351E-9,20.39999962,
,,,317.99999078E-9,20.39999962,
,,,319.99999806E-9,20.80000114,
,,,322.00000533E-9,20.80000114,
,,,323.99998418E-9,21.20000076,
,,,325.99999145E-9,21.20000076,
,,,327.99999872E-9,21.20000076,
,,,330.00000599E-9,21.60000038,
,,,331.99998484E-9,21.20000076,
,,,333.99999211E-9,21.60000038,
,,,335.99999938E-9,21.60000038,
,,,338.00000665E-9,21.60000038,
,,,339.99998550E-9,22.00000000,
,,,341.99999277E-9,22.00000000,
,,,344.00000004E-9,22.00000000,
,,,346.00000731E-9,22.00000000,
,,,347.99998616E-9,22.00000000,
,,,349.99999343E-9,22.00000000,
,,,352.00000070E-9,21.60000038,
,,,353.99997955E-9,21.60000038,
,,,355.99998682E-9,21.60000038,
,,,357.99999409E-9,21.60000038,
,,,360.00000136E-9,21.60000038,
,,,361.99998021E-9,21.60000038,
,,,363.99998748E-9,21.60000038,
,,,365.99999476E-9,21.60000038,
,,,368.00000203E-9,21.60000038,
,,,369.99998088E-9,22.00000000,
,,,371.99998815E-9,21.60000038,
,,,373.99999542E-9,21.60000038,
,,,376.00000269E-9,22.00000000,
,,,377.99998154E-9,22.00000000,
,,,379.99998881E-9,21.60000038,
,,,381.99999608E-9,22.39999962,
,,,384.00000335E-9,22.39999962,
,,,385.99998220E-9,22.00000000,
,,,387.99998947E-9,22.39999962,
,,,389.99999674E-9,22.00000000,
,,,392.00000401E-9,22.39999962,
,,,393.99998286E-9,22.39999962,
,,,395.99999013E-9,22.80000114,
,,,397.99999740E-9,22.80000114,
,,,400.00000467E-9,23.20000076,
,,,401.99998352E-9,23.20000076,
,,,403.999990795E-9,23.60000038,
,,,405.999998065E-9,23.60000038,
,,,408.000005336E-9,24.00000000,
,,,409.999984186E-9,24.00000000,
,,,411.999991456E-9,23.60000038,
,,,413.999998727E-9,24.39999962,
,,,415.999977577E-9,24.39999962,
,,,417.999984847E-9,24.00000000,
,,,419.999992118E-9,24.39999962,
,,,421.999999389E-9,24.80000114,
,,,423.999978238E-9,24.80000114,
,,,425.999985509E-9,25.20000076,
,,,427.999992780E-9,25.20000076,
,,,430.000000051E-9,25.20000076,
,,,431.999978900E-9,25.60000038,
,,,433.999986171E-9,25.20000076,
,,,435.999993442E-9,25.20000076,
,,,438.000000713E-9,25.20000076,
,,,439.999979562E-9,25.20000076,
,,,441.999986833E-9,25.60000038,
,,,443.999994104E-9,25.20000076,
,,,446.000001375E-9,25.60000038,
,,,447.999980224E-9,26.00000000,
,,,449.999987495E-9,25.20000076,
,,,451.999994766E-9,25.60000038,
,,,454.000002037E-9,25.60000038,
,,,455.999980886E-9,25.60000038,
,,,457.999988157E-9,25.60000038,
,,,459.999995428E-9,25.60000038,
,,,462.000002699E-9,25.20000076,
,,,463.999981548E-9,26.00000000,
,,,465.999988819E-9,25.60000038,
,,,467.999996090E-9,25.60000038,
,,,470.000003361E-9,25.60000038,
,,,471.999982210E-9,25.60000038,
,,,473.999989481E-9,25.60000038,
,,,475.999996752E-9,26.00000000,
,,,478.000004023E-9,26.00000000,
,,,479.999982872E-9,26.39999962,
,,,481.999961721E-9,26.39999962,
,,,483.999997414E-9,26.80000114,
,,,485.999976263E-9,26.39999962,
,,,488.000011956E-9,26.39999962,
,,,489.999990805E-9,26.39999962,
,,,491.999969654E-9,27.20000076,
,,,494.000005347E-9,27.20000076,
,,,495.999984196E-9,26.80000114,
,,,497.999963045E-9,26.80000114,
,,,499.999998738E-9,27.20000076,
,,,501.999977587E-9,27.60000038,
,,,504.000013279E-9,27.60000038,
,,,505.999992129E-9,27.60000038,
,,,507.999970978E-9,27.20000076,
,,,510.000006670E-9,27.60000038,
,,,511.999985520E-9,27.20000076,
,,,513.999964369E-9,27.60000038,
,,,516.000000061E-9,27.60000038,
,,,517.999978911E-9,27.20000076,
,,,520.000014603E-9,27.60000038,
,,,521.999993452E-9,27.60000038,
,,,523.999972302E-9,28.00000000,
,,,526.000007994E-9,28.00000000,
,,,527.999986843E-9,27.60000038,
,,,529.999965693E-9,27.20000076,
,,,532.000001385E-9,26.80000114,
,,,533.999980235E-9,26.80000114,
,,,536.000015927E-9,27.20000076,
,,,537.999994776E-9,27.60000038,
,,,539.999973626E-9,28.00000000,
,,,542.000009318E-9,28.39999962,
,,,543.999988167E-9,28.39999962,
,,,545.999967017E-9,28.00000000,
,,,548.000002709E-9,27.20000076,
,,,549.999981558E-9,26.39999962,
,,,551.999960408E-9,26.39999962,
,,,553.999996100E-9,26.80000114,
,,,555.999974949E-9,27.60000038,
,,,558.000010642E-9,28.39999962,
,,,559.999989491E-9,29.20000076,
,,,561.999968340E-9,29.20000076,
,,,564.000004033E-9,29.20000076,
,,,565.999982882E-9,28.00000000,
,,,567.999961731E-9,26.39999962,
,,,569.999997424E-9,25.20000076,
,,,571.999976273E-9,26.39999962,
,,,574.000011966E-9,28.00000000,
,,,575.999990815E-9,30.00000000,
,,,577.999969664E-9,31.60000038,
,,,580.000005357E-9,31.60000038,
,,,581.999984206E-9,29.20000076,
,,,583.999963055E-9,26.80000114,
,,,585.999998748E-9,25.60000038,
,,,587.999977597E-9,26.00000000,
,,,590.000013290E-9,27.20000076,
,,,591.999992139E-9,29.60000038,
,,,593.999970988E-9,30.80000114,
,,,596.000006681E-9,30.80000114,
,,,597.999985530E-9,30.00000000,
,,,599.999964379E-9,28.80000114,
,,,602.000000072E-9,27.60000038,
,,,603.999978921E-9,27.60000038,
,,,606.000014614E-9,28.00000000,
,,,607.999993463E-9,28.39999962,
,,,609.999972312E-9,29.20000076,
,,,612.000008005E-9,28.80000114,
,,,613.999986854E-9,29.20000076,
,,,615.999965703E-9,29.20000076,
,,,618.000001396E-9,27.60000038,
,,,619.999980245E-9,26.80000114,
,,,621.999959094E-9,26.80000114,
,,,623.999994787E-9,28.39999962,
,,,625.999973636E-9,30.00000000,
,,,628.000009328E-9,30.00000000,
,,,629.999988178E-9,28.80000114,
,,,631.999967027E-9,26.80000114,
,,,634.000002719E-9,24.80000114,
,,,635.999981569E-9,24.39999962,
,,,637.999960418E-9,25.60000038,
,,,639.999996110E-9,27.60000038,
,,,641.999974960E-9,29.20000076,
,,,644.000010652E-9,30.00000000,
,,,645.999989501E-9,28.00000000,
,,,647.999968351E-9,26.39999962,
,,,650.000004043E-9,24.00000000,
,,,651.999982892E-9,24.00000000,
,,,653.999961742E-9,25.20000076,
,,,655.999997434E-9,26.00000000,
,,,657.999976283E-9,27.60000038,
,,,660.000011976E-9,26.80000114,
,,,661.999990825E-9,26.80000114,
,,,663.999969674E-9,26.39999962,
,,,666.000005367E-9,25.60000038,
,,,667.999984216E-9,25.60000038,
,,,669.999963065E-9,24.80000114,
,,,671.999998758E-9,25.20000076,
,,,673.999977607E-9,25.20000076,
,,,675.999956457E-9,25.60000038,
,,,677.999992149E-9,26.00000000,
,,,679.999970998E-9,25.60000038,
,,,682.000006691E-9,26.00000000,
,,,683.999985540E-9,24.80000114,
,,,685.999964389E-9,25.20000076,
,,,688.000000082E-9,24.80000114,
,,,689.999978931E-9,25.20000076,
,,,691.999957780E-9,26.00000000,
,,,693.999993473E-9,25.20000076,
,,,695.999972322E-9,25.60000038,
,,,698.000008015E-9,24.39999962,
,,,699.999986864E-9,24.39999962,
,,,701.999965713E-9,24.39999962,
,,,704.000001406E-9,24.39999962,
,,,705.999980255E-9,25.60000038,
,,,707.999959104E-9,25.20000076,
,,,709.999994797E-9,24.80000114,
,,,711.999973646E-9,24.39999962,
,,,714.000009339E-9,24.00000000,
,,,715.999988188E-9,24.39999962,
,,,717.999967037E-9,23.60000038,
,,,720.000002730E-9,23.60000038,
,,,721.999981579E-9,23.20000076,
,,,723.999960428E-9,24.00000000,
,,,725.999996121E-9,24.80000114,
,,,727.999974970E-9,25.20000076,
,,,730.000010662E-9,25.60000038,
,,,731.999989512E-9,24.80000114,
,,,733.999968361E-9,24.00000000,
,,,736.000004053E-9,23.20000076,
,,,737.999982903E-9,22.80000114,
,,,739.999961752E-9,23.60000038,
,,,741.999997445E-9,23.60000038,
,,,743.999976294E-9,25.20000076,
,,,745.999955143E-9,25.60000038,
,,,747.999990836E-9,25.20000076,
,,,749.999969685E-9,24.80000114,
,,,752.000005377E-9,23.60000038,
,,,753.999984227E-9,24.39999962,
,,,755.999963076E-9,24.39999962,
,,,757.999998768E-9,24.39999962,
,,,759.999977618E-9,25.20000076,
,,,761.999956467E-9,24.39999962,
,,,763.999992159E-9,25.20000076,
