0_5_cm/10_5_kV_O1_Mir.csv

Record Length,2500,Points,-7.999999774E-9,39.99999911E-3,,Record Length,2500,Points,-7.999999774E-9,479.999989271E-3,,Record Length,2500,Points,-7.999999774E-9,7.599999905,
Sample Interval,400.00000370E-12,s,-7.599999741E-9,39.99999911E-3,,Sample Interval,400.00000370E-12,s,-7.599999741E-9,519.999980927E-3,,Sample Interval,400.00000370E-12,s,-7.599999741E-9,7.599999905,
Trigger Point,19.9999992,Samples,-7.19999971E-9,39.99999911E-3,,Trigger Point,19.9999992,Samples,-7.19999971E-9,479.999989271E-3,,Trigger Point,19.9999992,Samples,-7.19999971E-9,7.599999905,
,,,-6.79999967E-9,39.99999911E-3,,,,,-6.79999967E-9,479.999989271E-3,,,,,-6.79999967E-9,7.599999905,
,,,-6.39999964E-9,39.99999911E-3,,,,,-6.39999964E-9,479.999989271E-3,,,,,-6.39999964E-9,7.599999905,
,,,-5.99999961E-9,39.99999911E-3,,,,,-5.99999961E-9,439.999997616E-3,,,,,-5.99999961E-9,7.599999905,
Source,CH1,,-5.59999958E-9,39.99999911E-3,,Source,CH2,,-5.59999958E-9,479.999989271E-3,,Source,MATH,,-5.59999958E-9,7.599999905,
Vertical Units,Volts,,-5.19999954E-9,0.0,,Vertical Units,Volts,,-5.19999954E-9,479.999989271E-3,,Vertical Units,Volts,,-5.19999954E-9,7.599999905,
Vertical Scale,999.999977648E-3,,-4.79999951E-9,0.0,,Vertical Scale,999.999977648E-3,,-4.79999951E-9,479.999989271E-3,,Vertical Scale,10.0000001,,-4.79999951E-9,7.599999905,
Vertical Offset,0,,-4.39999992E-9,0.0,,Vertical Offset,0,,-4.39999992E-9,519.999980927E-3,,Vertical Offset,0,,-4.39999992E-9,7.599999905,
Horizontal Units,s,,-3.99999989E-9,0.0,,Horizontal Units,s,,-3.99999989E-9,519.999980927E-3,,Horizontal Units,s,,-3.99999989E-9,7.599999905,
Horizontal Scale,100.0000013E-9,,-3.59999963E-9,39.99999911E-3,,Horizontal Scale,100.0000013E-9,,-3.59999963E-9,519.999980927E-3,,Horizontal Scale,100.0000013E-9,,-3.59999963E-9,7.599999905,
Pt Fmt,Y,,-3.19999982E-9,39.99999911E-3,,Pt Fmt,Y,,-3.19999982E-9,479.999989271E-3,,Pt Fmt,Y,,-3.19999982E-9,7.599999905,
Yzero,-1.7200000,,-2.79999979E-9,39.99999911E-3,,Yzero,-1.5600000,,-2.79999979E-9,479.999989271E-3,,Yzero,0.0,,-2.79999979E-9,7.599999905,
Probe Atten,1.000000,,-2.3999998E-9,0.0,,Probe Atten,1.000000,,-2.3999998E-9,479.999989271E-3,,,,,-2.3999998E-9,7.20000029,
,,,-1.9999997E-9,0.0,,,,,-1.9999997E-9,439.999997616E-3,,,,,-1.9999997E-9,7.20000029,
Note,TBS 1104 - 3:16:23 PM   2/5/2026,,-1.5999997E-9,0.0,,Note,TBS 1104 - 3:16:23 PM   2/5/2026,,-1.5999997E-9,479.999989271E-3,,Note,TBS 1104 - 3:16:23 PM   2/5/2026,,-1.5999997E-9,7.20000029,
,,,-1.1999997E-9,0.0,,,,,-1.1999997E-9,479.999989271E-3,,,,,-1.1999997E-9,7.20000029,
,,,-799.999674337E-12,0.0,,,,,-799.999674337E-12,479.999989271E-3,,,,,-799.999674337E-12,6.80000019,
,,,-399.99967064E-12,0.0,,,,,-399.99967064E-12,519.999980927E-3,,,,,-399.99967064E-12,6.80000019,
,,,0.0,0.0,,,,,0.0,519.999980927E-3,,,,,0.0,6.80000019,
,,,400.00033677E-12,0.0,,,,,400.00033677E-12,560.000002384E-3,,,,,400.00033677E-12,6.80000019,
,,,800.000340471E-12,-39.99999911E-3,,,,,800.000340471E-12,560.000002384E-3,,,,,800.000340471E-12,6.80000019,
,,,1.2000003E-9,0.0,,,,,1.2000003E-9,560.000002384E-3,,,,,1.2000003E-9,7.20000029,
,,,1.6000004E-9,0.0,,,,,1.6000004E-9,519.999980927E-3,,,,,1.6000004E-9,7.20000029,
,,,2.0000004E-9,0.0,,,,,2.0000004E-9,519.999980927E-3,,,,,2.0000004E-9,7.20000029,
,,,2.4000004E-9,39.99999911E-3,,,,,2.4000004E-9,519.999980927E-3,,,,,2.4000004E-9,7.20000029,
,,,2.80000045E-9,39.99999911E-3,,,,,2.80000045E-9,519.999980927E-3,,,,,2.80000045E-9,7.20000029,
,,,3.20000026E-9,39.99999911E-3,,,,,3.20000026E-9,519.999980927E-3,,,,,3.20000026E-9,6.80000019,
,,,3.60000030E-9,0.0,,,,,3.60000030E-9,560.000002384E-3,,,,,3.60000030E-9,6.80000019,
,,,4.00000033E-9,0.0,,,,,4.00000033E-9,560.000002384E-3,,,,,4.00000033E-9,6.80000019,
,,,4.40000036E-9,0.0,,,,,4.40000036E-9,560.000002384E-3,,,,,4.40000036E-9,6.80000019,
,,,4.80000040E-9,-39.99999911E-3,,,,,4.80000040E-9,560.000002384E-3,,,,,4.80000040E-9,7.20000029,
,,,5.20000043E-9,0.0,,,,,5.20000043E-9,560.000002384E-3,,,,,5.20000043E-9,7.20000029,
,,,5.60000046E-9,0.0,,,,,5.60000046E-9,560.000002384E-3,,,,,5.60000046E-9,6.80000019,
,,,6.00000050E-9,0.0,,,,,6.00000050E-9,560.000002384E-3,,,,,6.00000050E-9,7.20000029,
,,,6.40000053E-9,39.99999911E-3,,,,,6.40000053E-9,560.000002384E-3,,,,,6.40000053E-9,7.20000029,
,,,6.80000056E-9,39.99999911E-3,,,,,6.80000056E-9,560.000002384E-3,,,,,6.80000056E-9,7.20000029,
,,,7.20000060E-9,39.99999911E-3,,,,,7.20000060E-9,560.000002384E-3,,,,,7.20000060E-9,7.20000029,
,,,7.600000629E-9,0.0,,,,,7.600000629E-9,519.999980927E-3,,,,,7.600000629E-9,7.599999905,
,,,8.000000662E-9,0.0,,,,,8.000000662E-9,519.999980927E-3,,,,,8.000000662E-9,7.20000029,
,,,8.400000695E-9,0.0,,,,,8.400000695E-9,519.999980927E-3,,,,,8.400000695E-9,7.20000029,
,,,8.800000728E-9,0.0,,,,,8.800000728E-9,519.999980927E-3,,,,,8.800000728E-9,7.20000029,
,,,9.200000761E-9,0.0,,,,,9.200000761E-9,519.999980927E-3,,,,,9.200000761E-9,7.599999905,
,,,9.600000794E-9,39.99999911E-3,,,,,9.600000794E-9,560.000002384E-3,,,,,9.600000794E-9,7.599999905,
,,,10.0000008E-9,39.99999911E-3,,,,,10.0000008E-9,560.000002384E-3,,,,,10.0000008E-9,7.599999905,
,,,10.4000009E-9,39.99999911E-3,,,,,10.4000009E-9,560.000002384E-3,,,,,10.4000009E-9,7.599999905,
,,,10.8000009E-9,39.99999911E-3,,,,,10.8000009E-9,519.999980927E-3,,,,,10.8000009E-9,7.599999905,
,,,11.2000009E-9,39.99999911E-3,,,,,11.2000009E-9,519.999980927E-3,,,,,11.2000009E-9,7.599999905,
,,,11.6000001E-9,39.99999911E-3,,,,,11.6000001E-9,519.999980927E-3,,,,,11.6000001E-9,7.599999905,
,,,12.0000001E-9,39.99999911E-3,,,,,12.0000001E-9,519.999980927E-3,,,,,12.0000001E-9,8.000000000,
,,,12.4000001E-9,79.999998212E-3,,,,,12.4000001E-9,560.000002384E-3,,,,,12.4000001E-9,8.000000000,
,,,12.8000002E-9,79.999998212E-3,,,,,12.8000002E-9,560.000002384E-3,,,,,12.8000002E-9,8.000000000,
,,,13.2000002E-9,79.999998212E-3,,,,,13.2000002E-9,560.000002384E-3,,,,,13.2000002E-9,7.599999905,
,,,13.6000002E-9,79.999998212E-3,,,,,13.6000002E-9,560.000002384E-3,,,,,13.6000002E-9,7.599999905,
,,,14.0000003E-9,79.999998212E-3,,,,,14.0000003E-9,560.000002384E-3,,,,,14.0000003E-9,7.599999905,
,,,14.4000003E-9,79.999998212E-3,,,,,14.4000003E-9,560.000002384E-3,,,,,14.4000003E-9,7.599999905,
,,,14.8000003E-9,79.999998212E-3,,,,,14.8000003E-9,560.000002384E-3,,,,,14.8000003E-9,7.599999905,
,,,15.2000013E-9,79.999998212E-3,,,,,15.2000013E-9,560.000002384E-3,,,,,15.2000013E-9,7.599999905,
,,,15.6000013E-9,79.999998212E-3,,,,,15.6000013E-9,560.000002384E-3,,,,,15.6000013E-9,7.20000029,
,,,16.0000013E-9,79.999998212E-3,,,,,16.0000013E-9,560.000002384E-3,,,,,16.0000013E-9,7.599999905,
,,,16.4000014E-9,79.999998212E-3,,,,,16.4000014E-9,560.000002384E-3,,,,,16.4000014E-9,7.599999905,
,,,16.8000014E-9,79.999998212E-3,,,,,16.8000014E-9,519.999980927E-3,,,,,16.8000014E-9,7.599999905,
,,,17.2000014E-9,79.999998212E-3,,,,,17.2000014E-9,519.999980927E-3,,,,,17.2000014E-9,8.000000000,
,,,17.6000015E-9,39.99999911E-3,,,,,17.6000015E-9,519.999980927E-3,,,,,17.6000015E-9,8.000000000,
,,,17.9999997E-9,39.99999911E-3,,,,,17.9999997E-9,519.999980927E-3,,,,,17.9999997E-9,8.000000000,
,,,18.3999997E-9,39.99999911E-3,,,,,18.3999997E-9,519.999980927E-3,,,,,18.3999997E-9,8.000000000,
,,,18.7999998E-9,39.99999911E-3,,,,,18.7999998E-9,519.999980927E-3,,,,,18.7999998E-9,8.000000000,
,,,19.1999998E-9,39.99999911E-3,,,,,19.1999998E-9,519.999980927E-3,,,,,19.1999998E-9,8.000000000,
,,,19.5999998E-9,39.99999911E-3,,,,,19.5999998E-9,479.999989271E-3,,,,,19.5999998E-9,7.599999905,
,,,19.9999999E-9,39.99999911E-3,,,,,19.9999999E-9,479.999989271E-3,,,,,19.9999999E-9,7.599999905,
,,,20.39999991E-9,39.99999911E-3,,,,,20.39999991E-9,479.999989271E-3,,,,,20.39999991E-9,7.599999905,
,,,20.79999994E-9,39.99999911E-3,,,,,20.79999994E-9,479.999989271E-3,,,,,20.79999994E-9,7.599999905,
,,,21.19999998E-9,39.99999911E-3,,,,,21.19999998E-9,479.999989271E-3,,,,,21.19999998E-9,7.599999905,
,,,21.60000001E-9,0.0,,,,,21.60000001E-9,519.999980927E-3,,,,,21.60000001E-9,7.599999905,
,,,22.00000004E-9,0.0,,,,,22.00000004E-9,519.999980927E-3,,,,,22.00000004E-9,7.599999905,
,,,22.40000008E-9,0.0,,,,,22.40000008E-9,519.999980927E-3,,,,,22.40000008E-9,8.000000000,
,,,22.80000011E-9,-39.99999911E-3,,,,,22.80000011E-9,519.999980927E-3,,,,,22.80000011E-9,8.000000000,
,,,23.20000014E-9,0.0,,,,,23.20000014E-9,519.999980927E-3,,,,,23.20000014E-9,8.000000000,
,,,23.60000018E-9,0.0,,,,,23.60000018E-9,560.000002384E-3,,,,,23.60000018E-9,8.000000000,
,,,24.00000021E-9,0.0,,,,,24.00000021E-9,560.000002384E-3,,,,,24.00000021E-9,8.000000000,
,,,24.40000024E-9,39.99999911E-3,,,,,24.40000024E-9,599.999964237E-3,,,,,24.40000024E-9,8.000000000,
,,,24.80000028E-9,0.0,,,,,24.80000028E-9,560.000002384E-3,,,,,24.80000028E-9,8.000000000,
,,,25.20000031E-9,0.0,,,,,25.20000031E-9,560.000002384E-3,,,,,25.20000031E-9,8.000000000,
,,,25.60000034E-9,0.0,,,,,25.60000034E-9,560.000002384E-3,,,,,25.60000034E-9,8.000000000,
,,,26.00000037E-9,0.0,,,,,26.00000037E-9,560.000002384E-3,,,,,26.00000037E-9,8.400000572,
,,,26.40000041E-9,39.99999911E-3,,,,,26.40000041E-9,560.000002384E-3,,,,,26.40000041E-9,8.400000572,
,,,26.80000044E-9,39.99999911E-3,,,,,26.80000044E-9,519.999980927E-3,,,,,26.80000044E-9,8.400000572,
,,,27.20000047E-9,39.99999911E-3,,,,,27.20000047E-9,519.999980927E-3,,,,,27.20000047E-9,8.400000572,
,,,27.60000051E-9,79.999998212E-3,,,,,27.60000051E-9,479.999989271E-3,,,,,27.60000051E-9,8.400000572,
,,,28.00000054E-9,79.999998212E-3,,,,,28.00000054E-9,479.999989271E-3,,,,,28.00000054E-9,8.400000572,
,,,28.40000057E-9,79.999998212E-3,,,,,28.40000057E-9,479.999989271E-3,,,,,28.40000057E-9,8.800000191,
,,,28.80000061E-9,79.999998212E-3,,,,,28.80000061E-9,439.999997616E-3,,,,,28.80000061E-9,8.800000191,
,,,29.20000064E-9,79.999998212E-3,,,,,29.20000064E-9,439.999997616E-3,,,,,29.20000064E-9,8.800000191,
,,,29.60000067E-9,39.99999911E-3,,,,,29.60000067E-9,399.99997616E-3,,,,,29.60000067E-9,8.800000191,
,,,30.00000248E-9,39.99999911E-3,,,,,30.00000248E-9,399.99997616E-3,,,,,30.00000248E-9,8.800000191,
,,,30.40000252E-9,39.99999911E-3,,,,,30.40000252E-9,399.99997616E-3,,,,,30.40000252E-9,8.800000191,
,,,30.79999900E-9,0.0,,,,,30.79999900E-9,359.99998450E-3,,,,,30.79999900E-9,8.800000191,
,,,31.19999903E-9,39.99999911E-3,,,,,31.19999903E-9,359.99998450E-3,,,,,31.19999903E-9,8.800000191,
,,,31.59999906E-9,39.99999911E-3,,,,,31.59999906E-9,399.99997616E-3,,,,,31.59999906E-9,8.800000191,
,,,31.99999909E-9,39.99999911E-3,,,,,31.99999909E-9,439.999997616E-3,,,,,31.99999909E-9,8.800000191,
,,,32.39999913E-9,79.999998212E-3,,,,,32.39999913E-9,479.999989271E-3,,,,,32.39999913E-9,8.800000191,
,,,32.79999916E-9,39.99999911E-3,,,,,32.79999916E-9,479.999989271E-3,,,,,32.79999916E-9,8.800000191,
,,,33.19999919E-9,39.99999911E-3,,,,,33.19999919E-9,479.999989271E-3,,,,,33.19999919E-9,8.800000191,
,,,33.59999923E-9,39.99999911E-3,,,,,33.59999923E-9,439.999997616E-3,,,,,33.59999923E-9,8.800000191,
,,,33.99999926E-9,0.0,,,,,33.99999926E-9,399.99997616E-3,,,,,33.99999926E-9,8.800000191,
,,,34.39999929E-9,39.99999911E-3,,,,,34.39999929E-9,399.99997616E-3,,,,,34.39999929E-9,8.800000191,
,,,34.79999933E-9,39.99999911E-3,,,,,34.79999933E-9,399.99997616E-3,,,,,34.79999933E-9,8.800000191,
,,,35.19999936E-9,39.99999911E-3,,,,,35.19999936E-9,399.99997616E-3,,,,,35.19999936E-9,8.800000191,
,,,35.59999939E-9,79.999998212E-3,,,,,35.59999939E-9,439.999997616E-3,,,,,35.59999939E-9,8.800000191,
,,,35.99999943E-9,79.999998212E-3,,,,,35.99999943E-9,439.999997616E-3,,,,,35.99999943E-9,8.800000191,
,,,36.39999946E-9,79.999998212E-3,,,,,36.39999946E-9,479.999989271E-3,,,,,36.39999946E-9,8.800000191,
,,,36.79999949E-9,79.999998212E-3,,,,,36.79999949E-9,479.999989271E-3,,,,,36.79999949E-9,8.800000191,
,,,37.19999953E-9,79.999998212E-3,,,,,37.19999953E-9,479.999989271E-3,,,,,37.19999953E-9,8.800000191,
,,,37.59999956E-9,79.999998212E-3,,,,,37.59999956E-9,479.999989271E-3,,,,,37.59999956E-9,8.400000572,
,,,37.99999959E-9,79.999998212E-3,,,,,37.99999959E-9,479.999989271E-3,,,,,37.99999959E-9,8.800000191,
,,,38.39999962E-9,119.9999973E-3,,,,,38.39999962E-9,479.999989271E-3,,,,,38.39999962E-9,8.800000191,
,,,38.79999966E-9,119.9999973E-3,,,,,38.79999966E-9,479.999989271E-3,,,,,38.79999966E-9,8.800000191,
,,,39.19999969E-9,119.9999973E-3,,,,,39.19999969E-9,479.999989271E-3,,,,,39.19999969E-9,8.800000191,
,,,39.59999972E-9,79.999998212E-3,,,,,39.59999972E-9,479.999989271E-3,,,,,39.59999972E-9,9.199999809,
,,,39.99999976E-9,79.999998212E-3,,,,,39.99999976E-9,479.999989271E-3,,,,,39.99999976E-9,9.199999809,
,,,40.39999979E-9,79.999998212E-3,,,,,40.39999979E-9,479.999989271E-3,,,,,40.39999979E-9,9.600000381,
,,,40.79999982E-9,79.999998212E-3,,,,,40.79999982E-9,439.999997616E-3,,,,,40.79999982E-9,9.600000381,
,,,41.19999986E-9,79.999998212E-3,,,,,41.19999986E-9,399.99997616E-3,,,,,41.19999986E-9,9.600000381,
,,,41.59999989E-9,79.999998212E-3,,,,,41.59999989E-9,399.99997616E-3,,,,,41.59999989E-9,9.600000381,
,,,41.99999992E-9,79.999998212E-3,,,,,41.99999992E-9,399.99997616E-3,,,,,41.99999992E-9,9.600000381,
,,,42.39999996E-9,79.999998212E-3,,,,,42.39999996E-9,399.99997616E-3,,,,,42.39999996E-9,9.600000381,
,,,42.79999999E-9,79.999998212E-3,,,,,42.79999999E-9,359.99998450E-3,,,,,42.79999999E-9,10.0000000,
,,,43.20000002E-9,79.999998212E-3,,,,,43.20000002E-9,359.99998450E-3,,,,,43.20000002E-9,10.0000000,
,,,43.60000005E-9,79.999998212E-3,,,,,43.60000005E-9,319.99999285E-3,,,,,43.60000005E-9,10.0000000,
,,,44.00000009E-9,79.999998212E-3,,,,,44.00000009E-9,319.99999285E-3,,,,,44.00000009E-9,10.0000000,
,,,44.40000012E-9,79.999998212E-3,,,,,44.40000012E-9,319.99999285E-3,,,,,44.40000012E-9,10.0000000,
,,,44.80000015E-9,79.999998212E-3,,,,,44.80000015E-9,319.99999285E-3,,,,,44.80000015E-9,10.0000000,
,,,45.20000019E-9,79.999998212E-3,,,,,45.20000019E-9,359.99998450E-3,,,,,45.20000019E-9,10.0000000,
,,,45.60000022E-9,79.999998212E-3,,,,,45.60000022E-9,399.99997616E-3,,,,,45.60000022E-9,10.0000000,
,,,46.00000025E-9,79.999998212E-3,,,,,46.00000025E-9,399.99997616E-3,,,,,46.00000025E-9,10.0000000,
,,,46.40000029E-9,79.999998212E-3,,,,,46.40000029E-9,399.99997616E-3,,,,,46.40000029E-9,10.0000000,
,,,46.80000032E-9,79.999998212E-3,,,,,46.80000032E-9,359.99998450E-3,,,,,46.80000032E-9,10.0000000,
,,,47.20000035E-9,79.999998212E-3,,,,,47.20000035E-9,359.99998450E-3,,,,,47.20000035E-9,10.4000006,
,,,47.60000039E-9,79.999998212E-3,,,,,47.60000039E-9,359.99998450E-3,,,,,47.60000039E-9,10.4000006,
,,,48.00000042E-9,79.999998212E-3,,,,,48.00000042E-9,359.99998450E-3,,,,,48.00000042E-9,10.4000006,
,,,48.40000045E-9,79.999998212E-3,,,,,48.40000045E-9,399.99997616E-3,,,,,48.40000045E-9,10.4000006,
,,,48.80000049E-9,79.999998212E-3,,,,,48.80000049E-9,399.99997616E-3,,,,,48.80000049E-9,10.4000006,
,,,49.20000052E-9,79.999998212E-3,,,,,49.20000052E-9,399.99997616E-3,,,,,49.20000052E-9,10.4000006,
,,,49.60000055E-9,79.999998212E-3,,,,,49.60000055E-9,399.99997616E-3,,,,,49.60000055E-9,10.4000006,
,,,50.00000058E-9,79.999998212E-3,,,,,50.00000058E-9,399.99997616E-3,,,,,50.00000058E-9,10.4000006,
,,,50.40000062E-9,79.999998212E-3,,,,,50.40000062E-9,399.99997616E-3,,,,,50.40000062E-9,10.0000000,
,,,50.80000065E-9,79.999998212E-3,,,,,50.80000065E-9,359.99998450E-3,,,,,50.80000065E-9,10.0000000,
,,,51.20000068E-9,79.999998212E-3,,,,,51.20000068E-9,359.99998450E-3,,,,,51.20000068E-9,10.4000006,
,,,51.60000072E-9,79.999998212E-3,,,,,51.60000072E-9,319.99999285E-3,,,,,51.60000072E-9,10.4000006,
,,,52.00000075E-9,79.999998212E-3,,,,,52.00000075E-9,319.99999285E-3,,,,,52.00000075E-9,10.8000002,
,,,52.40000078E-9,79.999998212E-3,,,,,52.40000078E-9,359.99998450E-3,,,,,52.40000078E-9,10.8000002,
,,,52.80000082E-9,79.999998212E-3,,,,,52.80000082E-9,359.99998450E-3,,,,,52.80000082E-9,10.8000002,
,,,53.20000085E-9,79.999998212E-3,,,,,53.20000085E-9,399.99997616E-3,,,,,53.20000085E-9,10.8000002,
,,,53.60000088E-9,39.99999911E-3,,,,,53.60000088E-9,439.999997616E-3,,,,,53.60000088E-9,10.8000002,
,,,54.00000092E-9,39.99999911E-3,,,,,54.00000092E-9,399.99997616E-3,,,,,54.00000092E-9,10.8000002,
,,,54.40000095E-9,39.99999911E-3,,,,,54.40000095E-9,399.99997616E-3,,,,,54.40000095E-9,10.8000002,
,,,54.800000981E-9,0.0,,,,,54.800000981E-9,399.99997616E-3,,,,,54.800000981E-9,10.4000006,
,,,55.200001015E-9,0.0,,,,,55.200001015E-9,399.99997616E-3,,,,,55.200001015E-9,10.4000006,
,,,55.600001048E-9,0.0,,,,,55.600001048E-9,439.999997616E-3,,,,,55.600001048E-9,10.4000006,
,,,56.000001081E-9,39.99999911E-3,,,,,56.000001081E-9,439.999997616E-3,,,,,56.000001081E-9,10.4000006,
,,,56.400001114E-9,79.999998212E-3,,,,,56.400001114E-9,439.999997616E-3,,,,,56.400001114E-9,10.4000006,
,,,56.800001147E-9,39.99999911E-3,,,,,56.800001147E-9,399.99997616E-3,,,,,56.800001147E-9,10.4000006,
,,,57.200001180E-9,39.99999911E-3,,,,,57.200001180E-9,359.99998450E-3,,,,,57.200001180E-9,10.8000002,
,,,57.600001213E-9,39.99999911E-3,,,,,57.600001213E-9,319.99999285E-3,,,,,57.600001213E-9,10.8000002,
,,,58.000001246E-9,39.99999911E-3,,,,,58.000001246E-9,319.99999285E-3,,,,,58.000001246E-9,10.8000002,
,,,58.400001279E-9,39.99999911E-3,,,,,58.400001279E-9,359.99998450E-3,,,,,58.400001279E-9,10.8000002,
,,,58.800001312E-9,0.0,,,,,58.800001312E-9,359.99998450E-3,,,,,58.800001312E-9,10.8000002,
,,,59.200001346E-9,0.0,,,,,59.200001346E-9,359.99998450E-3,,,,,59.200001346E-9,10.8000002,
,,,59.600001379E-9,0.0,,,,,59.600001379E-9,399.99997616E-3,,,,,59.600001379E-9,10.8000002,
,,,59.999997859E-9,0.0,,,,,59.999997859E-9,399.99997616E-3,,,,,59.999997859E-9,10.8000002,
,,,60.399997892E-9,39.99999911E-3,,,,,60.399997892E-9,399.99997616E-3,,,,,60.399997892E-9,11.1999998,
,,,60.799997925E-9,39.99999911E-3,,,,,60.799997925E-9,399.99997616E-3,,,,,60.799997925E-9,11.1999998,
,,,61.199997958E-9,39.99999911E-3,,,,,61.199997958E-9,399.99997616E-3,,,,,61.199997958E-9,11.6000004,
,,,61.599997991E-9,0.0,,,,,61.599997991E-9,399.99997616E-3,,,,,61.599997991E-9,11.1999998,
,,,61.999998024E-9,0.0,,,,,61.999998024E-9,399.99997616E-3,,,,,61.999998024E-9,11.1999998,
,,,62.399998058E-9,0.0,,,,,62.399998058E-9,439.999997616E-3,,,,,62.399998058E-9,11.1999998,
,,,62.799998091E-9,0.0,,,,,62.799998091E-9,399.99997616E-3,,,,,62.799998091E-9,11.6000004,
,,,63.199998124E-9,0.0,,,,,63.199998124E-9,399.99997616E-3,,,,,63.199998124E-9,11.6000004,
,,,63.599998157E-9,0.0,,,,,63.599998157E-9,399.99997616E-3,,,,,63.599998157E-9,11.6000004,
,,,63.999998190E-9,0.0,,,,,63.999998190E-9,399.99997616E-3,,,,,63.999998190E-9,11.6000004,
,,,64.399998223E-9,0.0,,,,,64.399998223E-9,439.999997616E-3,,,,,64.399998223E-9,12.0000000,
,,,64.799998256E-9,0.0,,,,,64.799998256E-9,399.99997616E-3,,,,,64.799998256E-9,12.0000000,
,,,65.199998289E-9,0.0,,,,,65.199998289E-9,399.99997616E-3,,,,,65.199998289E-9,12.0000000,
,,,65.599998322E-9,39.99999911E-3,,,,,65.599998322E-9,399.99997616E-3,,,,,65.599998322E-9,12.0000000,
,,,65.999998355E-9,39.99999911E-3,,,,,65.999998355E-9,399.99997616E-3,,,,,65.999998355E-9,11.6000004,
,,,66.399998389E-9,39.99999911E-3,,,,,66.399998389E-9,439.999997616E-3,,,,,66.399998389E-9,11.6000004,
,,,66.799998422E-9,39.99999911E-3,,,,,66.799998422E-9,439.999997616E-3,,,,,66.799998422E-9,11.6000004,
,,,67.199998455E-9,39.99999911E-3,,,,,67.199998455E-9,439.999997616E-3,,,,,67.199998455E-9,11.6000004,
,,,67.599998488E-9,0.0,,,,,67.599998488E-9,399.99997616E-3,,,,,67.599998488E-9,11.6000004,
,,,67.999998521E-9,0.0,,,,,67.999998521E-9,399.99997616E-3,,,,,67.999998521E-9,11.6000004,
,,,68.399998554E-9,0.0,,,,,68.399998554E-9,399.99997616E-3,,,,,68.399998554E-9,11.6000004,
,,,68.799998587E-9,0.0,,,,,68.799998587E-9,359.99998450E-3,,,,,68.799998587E-9,11.6000004,
,,,69.199998620E-9,0.0,,,,,69.199998620E-9,399.99997616E-3,,,,,69.199998620E-9,11.6000004,
,,,69.599998653E-9,0.0,,,,,69.599998653E-9,399.99997616E-3,,,,,69.599998653E-9,11.6000004,
,,,69.999998686E-9,0.0,,,,,69.999998686E-9,399.99997616E-3,,,,,69.999998686E-9,11.6000004,
,,,70.399998719E-9,0.0,,,,,70.399998719E-9,439.999997616E-3,,,,,70.399998719E-9,11.6000004,
,,,70.799998753E-9,0.0,,,,,70.799998753E-9,439.999997616E-3,,,,,70.799998753E-9,11.6000004,
