0_5_cm/7_5_kV_O1_Integral_Reference.csv

Record Length,2500,Points,-959.999965744E-9,-39.99999911E-3,,Record Length,2500,Points,-959.999965744E-9,-39.99999911E-3,,Record Length,2500,Points,-959.999965744E-9,0.0,
Sample Interval,3.99999989E-9,s,-956.000008046E-9,0.0,,Sample Interval,3.99999989E-9,s,-956.000008046E-9,-39.99999911E-3,,Sample Interval,3.99999989E-9,s,-956.000008046E-9,400.00000596E-3,
Trigger Point,239.99999822,Samples,-951.999993504E-9,-39.99999911E-3,,Trigger Point,239.99999822,Samples,-951.999993504E-9,0.0,,Trigger Point,239.99999822,Samples,-951.999993504E-9,0.0,
,,,-947.999978962E-9,-39.99999911E-3,,,,,-947.999978962E-9,0.0,,,,,-947.999978962E-9,0.0,
,,,-943.999964420E-9,-39.99999911E-3,,,,,-943.999964420E-9,39.99999911E-3,,,,,-943.999964420E-9,0.0,
,,,-939.999949878E-9,-79.999998212E-3,,,,,-939.999949878E-9,0.0,,,,,-939.999949878E-9,0.0,
Source,CH1,,-935.999992180E-9,-39.99999911E-3,,Source,CH2,,-935.999992180E-9,39.99999911E-3,,Source,MATH,,-935.999992180E-9,0.0,
Vertical Units,Volts,,-931.999977638E-9,-39.99999911E-3,,Vertical Units,Volts,,-931.999977638E-9,39.99999911E-3,,Vertical Units,Volts,,-931.999977638E-9,0.0,
Vertical Scale,999.999977648E-3,,-927.999963096E-9,0.0,,Vertical Scale,999.999977648E-3,,-927.999963096E-9,0.0,,Vertical Scale,10.0000001,,-927.999963096E-9,0.0,
Vertical Offset,0,,-923.999948554E-9,-39.99999911E-3,,Vertical Offset,0,,-923.999948554E-9,0.0,,Vertical Offset,0,,-923.999948554E-9,-400.00000596E-3,
Horizontal Units,s,,-919.999990856E-9,-39.99999911E-3,,Horizontal Units,s,,-919.999990856E-9,39.99999911E-3,,Horizontal Units,s,,-919.999990856E-9,0.0,
Horizontal Scale,999.999971718E-9,,-915.999976314E-9,-39.99999911E-3,,Horizontal Scale,999.999971718E-9,,-915.999976314E-9,0.0,,Horizontal Scale,999.999971718E-9,,-915.999976314E-9,0.0,
Pt Fmt,Y,,-911.999961772E-9,-39.99999911E-3,,Pt Fmt,Y,,-911.999961772E-9,39.99999911E-3,,Pt Fmt,Y,,-911.999961772E-9,0.0,
Yzero,-1.7200000,,-907.999947231E-9,-39.99999911E-3,,Yzero,-1.5600000,,-907.999947231E-9,0.0,,Yzero,0.0,,-907.999947231E-9,400.00000596E-3,
Probe Atten,1.000000,,-903.999989532E-9,0.0,,Probe Atten,1.000000,,-903.999989532E-9,39.99999911E-3,,,,,-903.999989532E-9,400.00000596E-3,
,,,-899.999974990E-9,0.0,,,,,-899.999974990E-9,0.0,,,,,-899.999974990E-9,-400.00000596E-3,
Note,TBS 1104 - 3:32:12 PM   2/5/2026,,-895.999960449E-9,0.0,,Note,TBS 1104 - 3:32:12 PM   2/5/2026,,-895.999960449E-9,-39.99999911E-3,,Note,TBS 1104 - 3:32:12 PM   2/5/2026,,-895.999960449E-9,0.0,
,,,-891.999945907E-9,0.0,,,,,-891.999945907E-9,0.0,,,,,-891.999945907E-9,0.0,
,,,-887.999988208E-9,-39.99999911E-3,,,,,-887.999988208E-9,0.0,,,,,-887.999988208E-9,-400.00000596E-3,
,,,-883.999973667E-9,39.99999911E-3,,,,,-883.999973667E-9,39.99999911E-3,,,,,-883.999973667E-9,0.0,
,,,-879.999959125E-9,0.0,,,,,-879.999959125E-9,39.99999911E-3,,,,,-879.999959125E-9,0.0,
,,,-875.999944583E-9,-39.99999911E-3,,,,,-875.999944583E-9,0.0,,,,,-875.999944583E-9,0.0,
,,,-871.999986884E-9,-39.99999911E-3,,,,,-871.999986884E-9,-39.99999911E-3,,,,,-871.999986884E-9,0.0,
,,,-867.999972343E-9,-39.99999911E-3,,,,,-867.999972343E-9,0.0,,,,,-867.999972343E-9,400.00000596E-3,
,,,-863.999957801E-9,-39.99999911E-3,,,,,-863.999957801E-9,39.99999911E-3,,,,,-863.999957801E-9,0.0,
,,,-859.999943259E-9,-79.999998212E-3,,,,,-859.999943259E-9,39.99999911E-3,,,,,-859.999943259E-9,400.00000596E-3,
,,,-855.999985561E-9,-39.99999911E-3,,,,,-855.999985561E-9,39.99999911E-3,,,,,-855.999985561E-9,400.00000596E-3,
,,,-851.999971019E-9,0.0,,,,,-851.999971019E-9,0.0,,,,,-851.999971019E-9,0.0,
,,,-847.999956477E-9,-39.99999911E-3,,,,,-847.999956477E-9,0.0,,,,,-847.999956477E-9,0.0,
,,,-843.999941935E-9,-39.99999911E-3,,,,,-843.999941935E-9,39.99999911E-3,,,,,-843.999941935E-9,0.0,
,,,-839.999984237E-9,0.0,,,,,-839.999984237E-9,-39.99999911E-3,,,,,-839.999984237E-9,0.0,
,,,-835.999969695E-9,0.0,,,,,-835.999969695E-9,39.99999911E-3,,,,,-835.999969695E-9,400.00000596E-3,
,,,-831.999955153E-9,-39.99999911E-3,,,,,-831.999955153E-9,0.0,,,,,-831.999955153E-9,0.0,
,,,-827.999997455E-9,-39.99999911E-3,,,,,-827.999997455E-9,-39.99999911E-3,,,,,-827.999997455E-9,400.00000596E-3,
,,,-823.999982913E-9,-39.99999911E-3,,,,,-823.999982913E-9,0.0,,,,,-823.999982913E-9,0.0,
,,,-819.999968371E-9,0.0,,,,,-819.999968371E-9,-39.99999911E-3,,,,,-819.999968371E-9,0.0,
,,,-815.999953829E-9,0.0,,,,,-815.999953829E-9,39.99999911E-3,,,,,-815.999953829E-9,400.00000596E-3,
,,,-811.999996131E-9,-39.99999911E-3,,,,,-811.999996131E-9,39.99999911E-3,,,,,-811.999996131E-9,0.0,
,,,-807.999981589E-9,0.0,,,,,-807.999981589E-9,-39.99999911E-3,,,,,-807.999981589E-9,0.0,
,,,-803.999967047E-9,-39.99999911E-3,,,,,-803.999967047E-9,39.99999911E-3,,,,,-803.999967047E-9,400.00000596E-3,
,,,-799.999952505E-9,0.0,,,,,-799.999952505E-9,0.0,,,,,-799.999952505E-9,0.0,
,,,-795.999994807E-9,-39.99999911E-3,,,,,-795.999994807E-9,0.0,,,,,-795.999994807E-9,400.00000596E-3,
,,,-791.999980265E-9,-39.99999911E-3,,,,,-791.999980265E-9,0.0,,,,,-791.999980265E-9,0.0,
,,,-787.999965723E-9,-39.99999911E-3,,,,,-787.999965723E-9,0.0,,,,,-787.999965723E-9,400.00000596E-3,
,,,-783.999951182E-9,0.0,,,,,-783.999951182E-9,39.99999911E-3,,,,,-783.999951182E-9,400.00000596E-3,
,,,-779.999993483E-9,-39.99999911E-3,,,,,-779.999993483E-9,39.99999911E-3,,,,,-779.999993483E-9,0.0,
,,,-775.999978941E-9,-39.99999911E-3,,,,,-775.999978941E-9,-39.99999911E-3,,,,,-775.999978941E-9,0.0,
,,,-771.999964400E-9,-39.99999911E-3,,,,,-771.999964400E-9,0.0,,,,,-771.999964400E-9,0.0,
,,,-767.999949858E-9,-39.99999911E-3,,,,,-767.999949858E-9,0.0,,,,,-767.999949858E-9,400.00000596E-3,
,,,-763.999992159E-9,-39.99999911E-3,,,,,-763.999992159E-9,0.0,,,,,-763.999992159E-9,0.0,
,,,-759.999977618E-9,-39.99999911E-3,,,,,-759.999977618E-9,0.0,,,,,-759.999977618E-9,0.0,
,,,-755.999963076E-9,-39.99999911E-3,,,,,-755.999963076E-9,0.0,,,,,-755.999963076E-9,0.0,
,,,-751.999948534E-9,-39.99999911E-3,,,,,-751.999948534E-9,0.0,,,,,-751.999948534E-9,400.00000596E-3,
,,,-747.999990836E-9,-39.99999911E-3,,,,,-747.999990836E-9,39.99999911E-3,,,,,-747.999990836E-9,400.00000596E-3,
,,,-743.999976294E-9,-39.99999911E-3,,,,,-743.999976294E-9,0.0,,,,,-743.999976294E-9,0.0,
,,,-739.999961752E-9,-39.99999911E-3,,,,,-739.999961752E-9,0.0,,,,,-739.999961752E-9,0.0,
,,,-735.999947210E-9,0.0,,,,,-735.999947210E-9,39.99999911E-3,,,,,-735.999947210E-9,-400.00000596E-3,
,,,-731.999989512E-9,0.0,,,,,-731.999989512E-9,39.99999911E-3,,,,,-731.999989512E-9,0.0,
,,,-727.999974970E-9,-39.99999911E-3,,,,,-727.999974970E-9,-39.99999911E-3,,,,,-727.999974970E-9,400.00000596E-3,
,,,-723.999960428E-9,0.0,,,,,-723.999960428E-9,0.0,,,,,-723.999960428E-9,0.0,
,,,-719.999945886E-9,-39.99999911E-3,,,,,-719.999945886E-9,0.0,,,,,-719.999945886E-9,0.0,
,,,-715.999988188E-9,0.0,,,,,-715.999988188E-9,-39.99999911E-3,,,,,-715.999988188E-9,0.0,
,,,-711.999973646E-9,-39.99999911E-3,,,,,-711.999973646E-9,0.0,,,,,-711.999973646E-9,0.0,
,,,-707.999959104E-9,-79.999998212E-3,,,,,-707.999959104E-9,39.99999911E-3,,,,,-707.999959104E-9,0.0,
,,,-703.999944562E-9,-39.99999911E-3,,,,,-703.999944562E-9,39.99999911E-3,,,,,-703.999944562E-9,0.0,
,,,-699.999986864E-9,0.0,,,,,-699.999986864E-9,39.99999911E-3,,,,,-699.999986864E-9,0.0,
,,,-695.999972322E-9,-39.99999911E-3,,,,,-695.999972322E-9,39.99999911E-3,,,,,-695.999972322E-9,0.0,
,,,-691.999957780E-9,-79.999998212E-3,,,,,-691.999957780E-9,-39.99999911E-3,,,,,-691.999957780E-9,0.0,
,,,-688.000000082E-9,-39.99999911E-3,,,,,-688.000000082E-9,0.0,,,,,-688.000000082E-9,0.0,
,,,-683.999985540E-9,-39.99999911E-3,,,,,-683.999985540E-9,0.0,,,,,-683.999985540E-9,400.00000596E-3,
,,,-679.999970998E-9,-39.99999911E-3,,,,,-679.999970998E-9,39.99999911E-3,,,,,-679.999970998E-9,400.00000596E-3,
,,,-675.999956457E-9,-79.999998212E-3,,,,,-675.999956457E-9,-39.99999911E-3,,,,,-675.999956457E-9,0.0,
,,,-671.999998758E-9,-39.99999911E-3,,,,,-671.999998758E-9,0.0,,,,,-671.999998758E-9,400.00000596E-3,
,,,-667.999984216E-9,0.0,,,,,-667.999984216E-9,79.999998212E-3,,,,,-667.999984216E-9,400.00000596E-3,
,,,-663.999969674E-9,0.0,,,,,-663.999969674E-9,39.99999911E-3,,,,,-663.999969674E-9,0.0,
,,,-659.999955133E-9,-39.99999911E-3,,,,,-659.999955133E-9,0.0,,,,,-659.999955133E-9,0.0,
,,,-655.999997434E-9,0.0,,,,,-655.999997434E-9,0.0,,,,,-655.999997434E-9,400.00000596E-3,
,,,-651.999982892E-9,0.0,,,,,-651.999982892E-9,79.999998212E-3,,,,,-651.999982892E-9,400.00000596E-3,
,,,-647.999968351E-9,0.0,,,,,-647.999968351E-9,-39.99999911E-3,,,,,-647.999968351E-9,800.000011921E-3,
,,,-643.999953809E-9,-39.99999911E-3,,,,,-643.999953809E-9,39.99999911E-3,,,,,-643.999953809E-9,0.0,
,,,-639.999996110E-9,0.0,,,,,-639.999996110E-9,0.0,,,,,-639.999996110E-9,0.0,
,,,-635.999981569E-9,-39.99999911E-3,,,,,-635.999981569E-9,0.0,,,,,-635.999981569E-9,0.0,
,,,-631.999967027E-9,0.0,,,,,-631.999967027E-9,0.0,,,,,-631.999967027E-9,400.00000596E-3,
,,,-627.999952485E-9,-39.99999911E-3,,,,,-627.999952485E-9,0.0,,,,,-627.999952485E-9,0.0,
,,,-623.999994787E-9,-39.99999911E-3,,,,,-623.999994787E-9,0.0,,,,,-623.999994787E-9,400.00000596E-3,
,,,-619.999980245E-9,0.0,,,,,-619.999980245E-9,39.99999911E-3,,,,,-619.999980245E-9,400.00000596E-3,
,,,-615.999965703E-9,-39.99999911E-3,,,,,-615.999965703E-9,0.0,,,,,-615.999965703E-9,0.0,
,,,-611.999951161E-9,-79.999998212E-3,,,,,-611.999951161E-9,0.0,,,,,-611.999951161E-9,0.0,
,,,-607.999993463E-9,0.0,,,,,-607.999993463E-9,0.0,,,,,-607.999993463E-9,400.00000596E-3,
,,,-603.999978921E-9,-39.99999911E-3,,,,,-603.999978921E-9,39.99999911E-3,,,,,-603.999978921E-9,0.0,
,,,-599.999964379E-9,0.0,,,,,-599.999964379E-9,39.99999911E-3,,,,,-599.999964379E-9,400.00000596E-3,
,,,-595.999949837E-9,-39.99999911E-3,,,,,-595.999949837E-9,0.0,,,,,-595.999949837E-9,400.00000596E-3,
,,,-591.999992139E-9,-79.999998212E-3,,,,,-591.999992139E-9,39.99999911E-3,,,,,-591.999992139E-9,400.00000596E-3,
,,,-587.999977597E-9,0.0,,,,,-587.999977597E-9,39.99999911E-3,,,,,-587.999977597E-9,0.0,
,,,-583.999963055E-9,-39.99999911E-3,,,,,-583.999963055E-9,-39.99999911E-3,,,,,-583.999963055E-9,400.00000596E-3,
,,,-579.999948513E-9,-39.99999911E-3,,,,,-579.999948513E-9,0.0,,,,,-579.999948513E-9,0.0,
,,,-575.999990815E-9,-39.99999911E-3,,,,,-575.999990815E-9,0.0,,,,,-575.999990815E-9,400.00000596E-3,
,,,-571.999976273E-9,-39.99999911E-3,,,,,-571.999976273E-9,0.0,,,,,-571.999976273E-9,0.0,
,,,-567.999961731E-9,-39.99999911E-3,,,,,-567.999961731E-9,0.0,,,,,-567.999961731E-9,0.0,
,,,-564.000004033E-9,0.0,,,,,-564.000004033E-9,-39.99999911E-3,,,,,-564.000004033E-9,0.0,
,,,-559.999989491E-9,-39.99999911E-3,,,,,-559.999989491E-9,-39.99999911E-3,,,,,-559.999989491E-9,400.00000596E-3,
,,,-555.999974949E-9,-39.99999911E-3,,,,,-555.999974949E-9,-39.99999911E-3,,,,,-555.999974949E-9,400.00000596E-3,
,,,-551.999960408E-9,-39.99999911E-3,,,,,-551.999960408E-9,39.99999911E-3,,,,,-551.999960408E-9,0.0,
,,,-548.000002709E-9,0.0,,,,,-548.000002709E-9,0.0,,,,,-548.000002709E-9,400.00000596E-3,
,,,-543.999988167E-9,-39.99999911E-3,,,,,-543.999988167E-9,0.0,,,,,-543.999988167E-9,400.00000596E-3,
,,,-539.999973626E-9,0.0,,,,,-539.999973626E-9,0.0,,,,,-539.999973626E-9,0.0,
,,,-535.999959084E-9,0.0,,,,,-535.999959084E-9,39.99999911E-3,,,,,-535.999959084E-9,400.00000596E-3,
,,,-532.000001385E-9,-39.99999911E-3,,,,,-532.000001385E-9,0.0,,,,,-532.000001385E-9,0.0,
,,,-527.999986843E-9,-39.99999911E-3,,,,,-527.999986843E-9,0.0,,,,,-527.999986843E-9,0.0,
,,,-523.999972302E-9,0.0,,,,,-523.999972302E-9,0.0,,,,,-523.999972302E-9,0.0,
,,,-519.999957760E-9,-39.99999911E-3,,,,,-519.999957760E-9,39.99999911E-3,,,,,-519.999957760E-9,0.0,
,,,-516.000000061E-9,0.0,,,,,-516.000000061E-9,0.0,,,,,-516.000000061E-9,400.00000596E-3,
,,,-511.999985520E-9,-39.99999911E-3,,,,,-511.999985520E-9,0.0,,,,,-511.999985520E-9,0.0,
,,,-507.999970978E-9,0.0,,,,,-507.999970978E-9,39.99999911E-3,,,,,-507.999970978E-9,400.00000596E-3,
,,,-503.999956436E-9,-39.99999911E-3,,,,,-503.999956436E-9,0.0,,,,,-503.999956436E-9,0.0,
,,,-499.999998738E-9,-39.99999911E-3,,,,,-499.999998738E-9,0.0,,,,,-499.999998738E-9,800.000011921E-3,
,,,-495.999984196E-9,-39.99999911E-3,,,,,-495.999984196E-9,0.0,,,,,-495.999984196E-9,0.0,
,,,-491.999969654E-9,-39.99999911E-3,,,,,-491.999969654E-9,0.0,,,,,-491.999969654E-9,400.00000596E-3,
,,,-487.999955112E-9,0.0,,,,,-487.999955112E-9,39.99999911E-3,,,,,-487.999955112E-9,400.00000596E-3,
,,,-483.999997414E-9,0.0,,,,,-483.999997414E-9,39.99999911E-3,,,,,-483.999997414E-9,400.00000596E-3,
,,,-479.999982872E-9,-39.99999911E-3,,,,,-479.999982872E-9,39.99999911E-3,,,,,-479.999982872E-9,0.0,
,,,-475.999968330E-9,-79.999998212E-3,,,,,-475.999968330E-9,39.99999911E-3,,,,,-475.999968330E-9,800.000011921E-3,
,,,-471.999982210E-9,0.0,,,,,-471.999982210E-9,39.99999911E-3,,,,,-471.999982210E-9,400.00000596E-3,
,,,-467.999967668E-9,-39.99999911E-3,,,,,-467.999967668E-9,0.0,,,,,-467.999967668E-9,400.00000596E-3,
,,,-463.999981548E-9,-39.99999911E-3,,,,,-463.999981548E-9,-39.99999911E-3,,,,,-463.999981548E-9,-400.00000596E-3,
,,,-459.999967006E-9,-39.99999911E-3,,,,,-459.999967006E-9,0.0,,,,,-459.999967006E-9,400.00000596E-3,
,,,-455.999980886E-9,-39.99999911E-3,,,,,-455.999980886E-9,0.0,,,,,-455.999980886E-9,0.0,
,,,-451.999966344E-9,0.0,,,,,-451.999966344E-9,39.99999911E-3,,,,,-451.999966344E-9,400.00000596E-3,
,,,-447.999980224E-9,-39.99999911E-3,,,,,-447.999980224E-9,39.99999911E-3,,,,,-447.999980224E-9,400.00000596E-3,
,,,-443.999994104E-9,0.0,,,,,-443.999994104E-9,-39.99999911E-3,,,,,-443.999994104E-9,0.0,
,,,-439.999979562E-9,0.0,,,,,-439.999979562E-9,0.0,,,,,-439.999979562E-9,400.00000596E-3,
,,,-435.999993442E-9,0.0,,,,,-435.999993442E-9,0.0,,,,,-435.999993442E-9,0.0,
,,,-431.999978900E-9,-39.99999911E-3,,,,,-431.999978900E-9,39.99999911E-3,,,,,-431.999978900E-9,0.0,
,,,-427.999992780E-9,-39.99999911E-3,,,,,-427.999992780E-9,0.0,,,,,-427.999992780E-9,0.0,
,,,-423.999978238E-9,-39.99999911E-3,,,,,-423.999978238E-9,39.99999911E-3,,,,,-423.999978238E-9,0.0,
,,,-419.999992118E-9,0.0,,,,,-419.999992118E-9,39.99999911E-3,,,,,-419.999992118E-9,0.0,
,,,-415.999977577E-9,-39.99999911E-3,,,,,-415.999977577E-9,0.0,,,,,-415.999977577E-9,400.00000596E-3,
,,,-411.999991456E-9,0.0,,,,,-411.999991456E-9,0.0,,,,,-411.999991456E-9,0.0,
,,,-407.999976915E-9,-39.99999911E-3,,,,,-407.999976915E-9,-39.99999911E-3,,,,,-407.999976915E-9,400.00000596E-3,
,,,-403.999990795E-9,0.0,,,,,-403.999990795E-9,0.0,,,,,-403.999990795E-9,0.0,
,,,-399.99997625E-9,-39.99999911E-3,,,,,-399.99997625E-9,0.0,,,,,-399.99997625E-9,400.00000596E-3,
,,,-395.99999013E-9,-39.99999911E-3,,,,,-395.99999013E-9,39.99999911E-3,,,,,-395.99999013E-9,0.0,
,,,-391.99997559E-9,-39.99999911E-3,,,,,-391.99997559E-9,39.99999911E-3,,,,,-391.99997559E-9,400.00000596E-3,
,,,-387.99998947E-9,0.0,,,,,-387.99998947E-9,0.0,,,,,-387.99998947E-9,400.00000596E-3,
,,,-383.99997493E-9,-39.99999911E-3,,,,,-383.99997493E-9,0.0,,,,,-383.99997493E-9,400.00000596E-3,
,,,-379.99998881E-9,-39.99999911E-3,,,,,-379.99998881E-9,-39.99999911E-3,,,,,-379.99998881E-9,400.00000596E-3,
,,,-375.99997427E-9,0.0,,,,,-375.99997427E-9,39.99999911E-3,,,,,-375.99997427E-9,0.0,
,,,-371.99998815E-9,0.0,,,,,-371.99998815E-9,0.0,,,,,-371.99998815E-9,0.0,
,,,-367.99997361E-9,0.0,,,,,-367.99997361E-9,39.99999911E-3,,,,,-367.99997361E-9,800.000011921E-3,
,,,-363.99998748E-9,-39.99999911E-3,,,,,-363.99998748E-9,0.0,,,,,-363.99998748E-9,-400.00000596E-3,
,,,-359.99997294E-9,-39.99999911E-3,,,,,-359.99997294E-9,39.99999911E-3,,,,,-359.99997294E-9,0.0,
,,,-355.99998682E-9,-39.99999911E-3,,,,,-355.99998682E-9,39.99999911E-3,,,,,-355.99998682E-9,0.0,
,,,-351.99997228E-9,-39.99999911E-3,,,,,-351.99997228E-9,39.99999911E-3,,,,,-351.99997228E-9,400.00000596E-3,
,,,-347.99998616E-9,-39.99999911E-3,,,,,-347.99998616E-9,0.0,,,,,-347.99998616E-9,-400.00000596E-3,
,,,-343.99997162E-9,0.0,,,,,-343.99997162E-9,79.999998212E-3,,,,,-343.99997162E-9,-400.00000596E-3,
,,,-339.99998550E-9,39.99999911E-3,,,,,-339.99998550E-9,239.99999464E-3,,,,,-339.99998550E-9,-1.6000000,
,,,-335.99997096E-9,-39.99999911E-3,,,,,-335.99997096E-9,280.00000119E-3,,,,,-335.99997096E-9,-1.2000000,
,,,-331.99998484E-9,-39.99999911E-3,,,,,-331.99998484E-9,239.99999464E-3,,,,,-331.99998484E-9,-800.000011921E-3,
,,,-327.99997030E-9,-39.99999911E-3,,,,,-327.99997030E-9,199.99998808E-3,,,,,-327.99997030E-9,-800.000011921E-3,
,,,-323.99998418E-9,-39.99999911E-3,,,,,-323.99998418E-9,159.99999642E-3,,,,,-323.99998418E-9,-800.000011921E-3,
,,,-319.99996963E-9,39.99999911E-3,,,,,-319.99996963E-9,119.9999973E-3,,,,,-319.99996963E-9,0.0,
,,,-315.99998351E-9,0.0,,,,,-315.99998351E-9,-39.99999911E-3,,,,,-315.99998351E-9,400.00000596E-3,
,,,-311.99999739E-9,79.999998212E-3,,,,,-311.99999739E-9,0.0,,,,,-311.99999739E-9,400.00000596E-3,
,,,-307.99998285E-9,119.9999973E-3,,,,,-307.99998285E-9,119.9999973E-3,,,,,-307.99998285E-9,0.0,
,,,-303.99999673E-9,0.0,,,,,-303.99999673E-9,39.99999911E-3,,,,,-303.99999673E-9,1.2000000,
,,,-299.99998219E-9,0.0,,,,,-299.99998219E-9,79.999998212E-3,,,,,-299.99998219E-9,1.6000000,
,,,-295.99999607E-9,-39.99999911E-3,,,,,-295.99999607E-9,119.9999973E-3,,,,,-295.99999607E-9,1.6000000,
,,,-291.99998153E-9,-159.99999642E-3,,,,,-291.99998153E-9,39.99999911E-3,,,,,-291.99998153E-9,2.0000000,
,,,-287.99999541E-9,-39.99999911E-3,,,,,-287.99999541E-9,79.999998212E-3,,,,,-287.99999541E-9,2.79999995,
,,,-283.99998087E-9,0.0,,,,,-283.99998087E-9,79.999998212E-3,,,,,-283.99998087E-9,2.79999995,
,,,-279.99999475E-9,0.0,,,,,-279.99999475E-9,119.9999973E-3,,,,,-279.99999475E-9,2.0000000,
,,,-275.99998020E-9,39.99999911E-3,,,,,-275.99998020E-9,119.9999973E-3,,,,,-275.99998020E-9,2.79999995,
,,,-271.99999408E-9,0.0,,,,,-271.99999408E-9,239.99999464E-3,,,,,-271.99999408E-9,2.79999995,
,,,-267.99997954E-9,-79.999998212E-3,,,,,-267.99997954E-9,280.00000119E-3,,,,,-267.99997954E-9,2.79999995,
,,,-263.99999342E-9,-159.99999642E-3,,,,,-263.99999342E-9,239.99999464E-3,,,,,-263.99999342E-9,3.20000005,
,,,-259.99997888E-9,-39.99999911E-3,,,,,-259.99997888E-9,359.99998450E-3,,,,,-259.99997888E-9,3.20000005,
,,,-255.99999276E-9,-79.999998212E-3,,,,,-255.99999276E-9,319.99999285E-3,,,,,-255.99999276E-9,3.60000014,
,,,-251.99997822E-9,0.0,,,,,-251.99997822E-9,280.00000119E-3,,,,,-251.99997822E-9,3.60000014,
,,,-247.99999210E-9,119.9999973E-3,,,,,-247.99999210E-9,399.99997616E-3,,,,,-247.99999210E-9,3.20000005,
,,,-243.99997756E-9,0.0,,,,,-243.99997756E-9,239.99999464E-3,,,,,-243.99997756E-9,3.20000005,
,,,-239.99999144E-9,79.999998212E-3,,,,,-239.99999144E-9,280.00000119E-3,,,,,-239.99999144E-9,3.60000014,
,,,-235.99999111E-9,39.99999911E-3,,,,,-235.99999111E-9,359.99998450E-3,,,,,-235.99999111E-9,4.00000000,
,,,-231.99999077E-9,-39.99999911E-3,,,,,-231.99999077E-9,159.99999642E-3,,,,,-231.99999077E-9,4.40000010,
,,,-227.99999044E-9,39.99999911E-3,,,,,-227.99999044E-9,239.99999464E-3,,,,,-227.99999044E-9,4.80000019,
,,,-223.99999011E-9,79.999998212E-3,,,,,-223.99999011E-9,280.00000119E-3,,,,,-223.99999011E-9,4.80000019,
,,,-219.99998978E-9,39.99999911E-3,,,,,-219.99998978E-9,199.99998808E-3,,,,,-219.99998978E-9,4.80000019,
,,,-215.99998945E-9,39.99999911E-3,,,,,-215.99998945E-9,199.99998808E-3,,,,,-215.99998945E-9,5.20000029,
,,,-211.99998912E-9,79.999998212E-3,,,,,-211.99998912E-9,239.99999464E-3,,,,,-211.99998912E-9,5.59999990,
,,,-207.99998879E-9,39.99999911E-3,,,,,-207.99998879E-9,119.9999973E-3,,,,,-207.99998879E-9,5.59999990,
,,,-203.99998846E-9,0.0,,,,,-203.99998846E-9,159.99999642E-3,,,,,-203.99998846E-9,6.00000000,
,,,-199.99998813E-9,-39.99999911E-3,,,,,-199.99998813E-9,159.99999642E-3,,,,,-199.99998813E-9,6.00000000,
,,,-195.99998780E-9,0.0,,,,,-195.99998780E-9,239.99999464E-3,,,,,-195.99998780E-9,5.59999990,
,,,-191.99998746E-9,0.0,,,,,-191.99998746E-9,319.99999285E-3,,,,,-191.99998746E-9,5.59999990,
,,,-187.99998713E-9,39.99999911E-3,,,,,-187.99998713E-9,359.99998450E-3,,,,,-187.99998713E-9,5.59999990,
,,,-183.99998680E-9,0.0,,,,,-183.99998680E-9,359.99998450E-3,,,,,-183.99998680E-9,5.20000029,
