9_5_cm/9_0_kV_O2_Mir.csv

Record Length,2500,Points,-39.99999976E-9,399.99997616E-3,,Record Length,2500,Points,-39.99999976E-9,39.99999911E-3,
Sample Interval,400.00000370E-12,s,-39.59999972E-9,399.99997616E-3,,Sample Interval,400.00000370E-12,s,-39.59999972E-9,0.0,
Trigger Point,99.999998057,Samples,-39.19999969E-9,399.99997616E-3,,Trigger Point,99.999998057,Samples,-39.19999969E-9,0.0,
,,,-38.79999966E-9,439.999997616E-3,,,,,-38.79999966E-9,0.0,
,,,-38.39999962E-9,439.999997616E-3,,,,,-38.39999962E-9,0.0,
,,,-37.99999959E-9,479.999989271E-3,,,,,-37.99999959E-9,39.99999911E-3,
Source,CH1,,-37.59999956E-9,439.999997616E-3,,Source,CH2,,-37.59999956E-9,39.99999911E-3,
Vertical Units,Volts,,-37.19999953E-9,399.99997616E-3,,Vertical Units,Volts,,-37.19999953E-9,39.99999911E-3,
Vertical Scale,999.999977648E-3,,-36.79999949E-9,399.99997616E-3,,Vertical Scale,999.999977648E-3,,-36.79999949E-9,39.99999911E-3,
Vertical Offset,0,,-36.39999946E-9,399.99997616E-3,,Vertical Offset,0,,-36.39999946E-9,39.99999911E-3,
Horizontal Units,s,,-35.99999943E-9,399.99997616E-3,,Horizontal Units,s,,-35.99999943E-9,39.99999911E-3,
Horizontal Scale,100.0000013E-9,,-35.59999939E-9,399.99997616E-3,,Horizontal Scale,100.0000013E-9,,-35.59999939E-9,39.99999911E-3,
Pt Fmt,Y,,-35.19999936E-9,399.99997616E-3,,Pt Fmt,Y,,-35.19999936E-9,39.99999911E-3,
Yzero,1.0400000,,-34.79999933E-9,399.99997616E-3,,Yzero,-2.5600000,,-34.79999933E-9,39.99999911E-3,
Probe Atten,1.000000,,-34.39999929E-9,399.99997616E-3,,Probe Atten,1.000000,,-34.39999929E-9,39.99999911E-3,
,,,-33.99999926E-9,439.999997616E-3,,,,,-33.99999926E-9,39.99999911E-3,
Note,TBS 1104 - 3:52:50 PM   2/3/2026,,-33.59999923E-9,439.999997616E-3,,Note,TBS 1104 - 3:52:50 PM   2/3/2026,,-33.59999923E-9,0.0,
,,,-33.19999919E-9,439.999997616E-3,,,,,-33.19999919E-9,0.0,
,,,-32.79999916E-9,439.999997616E-3,,,,,-32.79999916E-9,0.0,
,,,-32.39999913E-9,439.999997616E-3,,,,,-32.39999913E-9,0.0,
,,,-31.99999909E-9,439.999997616E-3,,,,,-31.99999909E-9,39.99999911E-3,
,,,-31.59999906E-9,399.99997616E-3,,,,,-31.59999906E-9,0.0,
,,,-31.19999903E-9,399.99997616E-3,,,,,-31.19999903E-9,0.0,
,,,-30.79999900E-9,399.99997616E-3,,,,,-30.79999900E-9,0.0,
,,,-30.39999896E-9,399.99997616E-3,,,,,-30.39999896E-9,0.0,
,,,-29.99999893E-9,439.999997616E-3,,,,,-29.99999893E-9,0.0,
,,,-29.59999890E-9,439.999997616E-3,,,,,-29.59999890E-9,0.0,
,,,-29.19999886E-9,439.999997616E-3,,,,,-29.19999886E-9,0.0,
,,,-28.79999883E-9,479.999989271E-3,,,,,-28.79999883E-9,0.0,
,,,-28.39999880E-9,479.999989271E-3,,,,,-28.39999880E-9,0.0,
,,,-27.99999876E-9,479.999989271E-3,,,,,-27.99999876E-9,39.99999911E-3,
,,,-27.59999873E-9,479.999989271E-3,,,,,-27.59999873E-9,0.0,
,,,-27.19999870E-9,479.999989271E-3,,,,,-27.19999870E-9,0.0,
,,,-26.80000044E-9,479.999989271E-3,,,,,-26.80000044E-9,0.0,
,,,-26.40000041E-9,479.999989271E-3,,,,,-26.40000041E-9,0.0,
,,,-26.00000037E-9,479.999989271E-3,,,,,-26.00000037E-9,39.99999911E-3,
,,,-25.60000034E-9,439.999997616E-3,,,,,-25.60000034E-9,0.0,
,,,-25.20000031E-9,439.999997616E-3,,,,,-25.20000031E-9,0.0,
,,,-24.80000028E-9,439.999997616E-3,,,,,-24.80000028E-9,0.0,
,,,-24.40000024E-9,399.99997616E-3,,,,,-24.40000024E-9,0.0,
,,,-24.00000021E-9,439.999997616E-3,,,,,-24.00000021E-9,39.99999911E-3,
,,,-23.60000018E-9,439.999997616E-3,,,,,-23.60000018E-9,0.0,
,,,-23.20000014E-9,439.999997616E-3,,,,,-23.20000014E-9,0.0,
,,,-22.80000011E-9,479.999989271E-3,,,,,-22.80000011E-9,-39.99999911E-3,
,,,-22.40000008E-9,479.999989271E-3,,,,,-22.40000008E-9,-39.99999911E-3,
,,,-22.00000004E-9,479.999989271E-3,,,,,-22.00000004E-9,-39.99999911E-3,
,,,-21.60000001E-9,479.999989271E-3,,,,,-21.60000001E-9,-79.999998212E-3,
,,,-21.19999998E-9,479.999989271E-3,,,,,-21.19999998E-9,-79.999998212E-3,
,,,-20.79999994E-9,479.999989271E-3,,,,,-20.79999994E-9,-119.9999973E-3,
,,,-20.39999991E-9,479.999989271E-3,,,,,-20.39999991E-9,-119.9999973E-3,
,,,-19.9999999E-9,479.999989271E-3,,,,,-19.9999999E-9,-79.999998212E-3,
,,,-19.5999998E-9,479.999989271E-3,,,,,-19.5999998E-9,-79.999998212E-3,
,,,-19.1999998E-9,479.999989271E-3,,,,,-19.1999998E-9,-39.99999911E-3,
,,,-18.7999998E-9,439.999997616E-3,,,,,-18.7999998E-9,0.0,
,,,-18.3999997E-9,439.999997616E-3,,,,,-18.3999997E-9,0.0,
,,,-17.9999997E-9,439.999997616E-3,,,,,-17.9999997E-9,0.0,
,,,-17.5999997E-9,399.99997616E-3,,,,,-17.5999997E-9,-39.99999911E-3,
,,,-17.1999996E-9,439.999997616E-3,,,,,-17.1999996E-9,-79.999998212E-3,
,,,-16.7999996E-9,439.999997616E-3,,,,,-16.7999996E-9,-79.999998212E-3,
,,,-16.3999996E-9,439.999997616E-3,,,,,-16.3999996E-9,-79.999998212E-3,
,,,-15.9999995E-9,479.999989271E-3,,,,,-15.9999995E-9,-79.999998212E-3,
,,,-15.5999995E-9,479.999989271E-3,,,,,-15.5999995E-9,-79.999998212E-3,
,,,-15.1999995E-9,479.999989271E-3,,,,,-15.1999995E-9,-79.999998212E-3,
,,,-14.7999994E-9,479.999989271E-3,,,,,-14.7999994E-9,-79.999998212E-3,
,,,-14.3999994E-9,479.999989271E-3,,,,,-14.3999994E-9,-79.999998212E-3,
,,,-13.9999994E-9,479.999989271E-3,,,,,-13.9999994E-9,-79.999998212E-3,
,,,-13.5999993E-9,439.999997616E-3,,,,,-13.5999993E-9,-79.999998212E-3,
,,,-13.1999993E-9,439.999997616E-3,,,,,-13.1999993E-9,-79.999998212E-3,
,,,-12.7999993E-9,439.999997616E-3,,,,,-12.7999993E-9,-39.99999911E-3,
,,,-12.3999992E-9,399.99997616E-3,,,,,-12.3999992E-9,-39.99999911E-3,
,,,-11.9999992E-9,439.999997616E-3,,,,,-11.9999992E-9,-39.99999911E-3,
,,,-11.5999992E-9,439.999997616E-3,,,,,-11.5999992E-9,-39.99999911E-3,
,,,-11.1999992E-9,439.999997616E-3,,,,,-11.1999992E-9,-39.99999911E-3,
,,,-10.7999991E-9,479.999989271E-3,,,,,-10.7999991E-9,-39.99999911E-3,
,,,-10.3999991E-9,479.999989271E-3,,,,,-10.3999991E-9,-39.99999911E-3,
,,,-9.999999051E-9,519.999980927E-3,,,,,-9.999999051E-9,-39.99999911E-3,
,,,-9.599999018E-9,519.999980927E-3,,,,,-9.599999018E-9,-39.99999911E-3,
,,,-9.199998985E-9,519.999980927E-3,,,,,-9.199998985E-9,-39.99999911E-3,
,,,-8.799998952E-9,519.999980927E-3,,,,,-8.799998952E-9,-79.999998212E-3,
,,,-8.399998919E-9,519.999980927E-3,,,,,-8.399998919E-9,-119.9999973E-3,
,,,-7.999998886E-9,519.999980927E-3,,,,,-7.999998886E-9,-119.9999973E-3,
,,,-7.599999741E-9,519.999980927E-3,,,,,-7.599999741E-9,-159.99999642E-3,
,,,-7.19999926E-9,519.999980927E-3,,,,,-7.19999926E-9,-159.99999642E-3,
,,,-6.79999923E-9,519.999980927E-3,,,,,-6.79999923E-9,-119.9999973E-3,
,,,-6.39999920E-9,519.999980927E-3,,,,,-6.39999920E-9,-119.9999973E-3,
,,,-5.99999916E-9,519.999980927E-3,,,,,-5.99999916E-9,-79.999998212E-3,
,,,-5.59999913E-9,519.999980927E-3,,,,,-5.59999913E-9,-79.999998212E-3,
,,,-5.19999910E-9,519.999980927E-3,,,,,-5.19999910E-9,-79.999998212E-3,
,,,-4.79999951E-9,560.000002384E-3,,,,,-4.79999951E-9,-39.99999911E-3,
,,,-4.39999948E-9,560.000002384E-3,,,,,-4.39999948E-9,-39.99999911E-3,
,,,-3.99999944E-9,560.000002384E-3,,,,,-3.99999944E-9,-39.99999911E-3,
,,,-3.59999919E-9,519.999980927E-3,,,,,-3.59999919E-9,-79.999998212E-3,
,,,-3.19999938E-9,519.999980927E-3,,,,,-3.19999938E-9,-79.999998212E-3,
,,,-2.79999934E-9,519.999980927E-3,,,,,-2.79999934E-9,-79.999998212E-3,
,,,-2.3999993E-9,519.999980927E-3,,,,,-2.3999993E-9,-79.999998212E-3,
,,,-1.9999993E-9,560.000002384E-3,,,,,-1.9999993E-9,-79.999998212E-3,
,,,-1.5999992E-9,519.999980927E-3,,,,,-1.5999992E-9,-79.999998212E-3,
,,,-1.1999992E-9,519.999980927E-3,,,,,-1.1999992E-9,-79.999998212E-3,
,,,-799.999230248E-12,479.999989271E-3,,,,,-799.999230248E-12,-79.999998212E-3,
,,,-399.99922655E-12,479.999989271E-3,,,,,-399.99922655E-12,-79.999998212E-3,
,,,0.0,479.999989271E-3,,,,,0.0,-79.999998212E-3,
,,,400.00078086E-12,479.999989271E-3,,,,,400.00078086E-12,-79.999998212E-3,
,,,800.000784560E-12,479.999989271E-3,,,,,800.000784560E-12,-79.999998212E-3,
,,,1.2000008E-9,519.999980927E-3,,,,,1.2000008E-9,-79.999998212E-3,
,,,1.6000008E-9,519.999980927E-3,,,,,1.6000008E-9,-79.999998212E-3,
,,,2.0000008E-9,519.999980927E-3,,,,,2.0000008E-9,-79.999998212E-3,
,,,2.4000009E-9,519.999980927E-3,,,,,2.4000009E-9,-119.9999973E-3,
,,,2.80000090E-9,519.999980927E-3,,,,,2.80000090E-9,-119.9999973E-3,
,,,3.20000071E-9,560.000002384E-3,,,,,3.20000071E-9,-119.9999973E-3,
,,,3.60000074E-9,560.000002384E-3,,,,,3.60000074E-9,-119.9999973E-3,
,,,4.00000078E-9,560.000002384E-3,,,,,4.00000078E-9,-79.999998212E-3,
,,,4.40000081E-9,519.999980927E-3,,,,,4.40000081E-9,-79.999998212E-3,
,,,4.80000084E-9,479.999989271E-3,,,,,4.80000084E-9,-79.999998212E-3,
,,,5.20000087E-9,479.999989271E-3,,,,,5.20000087E-9,-79.999998212E-3,
,,,5.60000091E-9,479.999989271E-3,,,,,5.60000091E-9,-79.999998212E-3,
,,,6.00000094E-9,519.999980927E-3,,,,,6.00000094E-9,-79.999998212E-3,
,,,6.40000097E-9,519.999980927E-3,,,,,6.40000097E-9,-79.999998212E-3,
,,,6.80000101E-9,519.999980927E-3,,,,,6.80000101E-9,-79.999998212E-3,
,,,7.20000104E-9,519.999980927E-3,,,,,7.20000104E-9,-79.999998212E-3,
,,,7.600000629E-9,519.999980927E-3,,,,,7.600000629E-9,-79.999998212E-3,
,,,8.000000662E-9,519.999980927E-3,,,,,8.000000662E-9,-79.999998212E-3,
,,,8.400000695E-9,479.999989271E-3,,,,,8.400000695E-9,-79.999998212E-3,
,,,8.800000728E-9,479.999989271E-3,,,,,8.800000728E-9,-79.999998212E-3,
,,,9.200000761E-9,439.999997616E-3,,,,,9.200000761E-9,-79.999998212E-3,
,,,9.600000794E-9,439.999997616E-3,,,,,9.600000794E-9,-79.999998212E-3,
,,,10.0000008E-9,439.999997616E-3,,,,,10.0000008E-9,-79.999998212E-3,
,,,10.4000009E-9,439.999997616E-3,,,,,10.4000009E-9,-79.999998212E-3,
,,,10.8000009E-9,439.999997616E-3,,,,,10.8000009E-9,-79.999998212E-3,
,,,11.2000009E-9,479.999989271E-3,,,,,11.2000009E-9,-79.999998212E-3,
,,,11.6000010E-9,479.999989271E-3,,,,,11.6000010E-9,-79.999998212E-3,
,,,12.0000010E-9,479.999989271E-3,,,,,12.0000010E-9,-79.999998212E-3,
,,,12.4000010E-9,479.999989271E-3,,,,,12.4000010E-9,-79.999998212E-3,
,,,12.8000011E-9,479.999989271E-3,,,,,12.8000011E-9,-79.999998212E-3,
,,,13.2000011E-9,519.999980927E-3,,,,,13.2000011E-9,-79.999998212E-3,
,,,13.6000011E-9,519.999980927E-3,,,,,13.6000011E-9,-79.999998212E-3,
,,,14.0000012E-9,519.999980927E-3,,,,,14.0000012E-9,-39.99999911E-3,
,,,14.4000012E-9,479.999989271E-3,,,,,14.4000012E-9,-39.99999911E-3,
,,,14.8000012E-9,479.999989271E-3,,,,,14.8000012E-9,-39.99999911E-3,
,,,15.2000013E-9,479.999989271E-3,,,,,15.2000013E-9,-79.999998212E-3,
,,,15.6000013E-9,479.999989271E-3,,,,,15.6000013E-9,-79.999998212E-3,
,,,16.0000013E-9,479.999989271E-3,,,,,16.0000013E-9,-79.999998212E-3,
,,,16.4000014E-9,479.999989271E-3,,,,,16.4000014E-9,-79.999998212E-3,
,,,16.8000014E-9,479.999989271E-3,,,,,16.8000014E-9,-79.999998212E-3,
,,,17.2000014E-9,439.999997616E-3,,,,,17.2000014E-9,-119.9999973E-3,
,,,17.6000015E-9,399.99997616E-3,,,,,17.6000015E-9,-119.9999973E-3,
,,,18.0000015E-9,399.99997616E-3,,,,,18.0000015E-9,-119.9999973E-3,
,,,18.4000015E-9,399.99997616E-3,,,,,18.4000015E-9,-159.99999642E-3,
,,,18.8000016E-9,399.99997616E-3,,,,,18.8000016E-9,-119.9999973E-3,
,,,19.2000016E-9,439.999997616E-3,,,,,19.2000016E-9,-119.9999973E-3,
,,,19.6000016E-9,439.999997616E-3,,,,,19.6000016E-9,-119.9999973E-3,
,,,20.0000017E-9,479.999989271E-3,,,,,20.0000017E-9,-79.999998212E-3,
,,,20.40000169E-9,479.999989271E-3,,,,,20.40000169E-9,-79.999998212E-3,
,,,20.80000172E-9,479.999989271E-3,,,,,20.80000172E-9,-79.999998212E-3,
,,,21.20000175E-9,479.999989271E-3,,,,,21.20000175E-9,-79.999998212E-3,
,,,21.60000179E-9,479.999989271E-3,,,,,21.60000179E-9,-79.999998212E-3,
,,,22.00000182E-9,519.999980927E-3,,,,,22.00000182E-9,-79.999998212E-3,
,,,22.40000185E-9,479.999989271E-3,,,,,22.40000185E-9,-79.999998212E-3,
,,,22.80000189E-9,479.999989271E-3,,,,,22.80000189E-9,-79.999998212E-3,
,,,23.20000192E-9,479.999989271E-3,,,,,23.20000192E-9,-79.999998212E-3,
,,,23.60000195E-9,479.999989271E-3,,,,,23.60000195E-9,-79.999998212E-3,
,,,24.00000199E-9,479.999989271E-3,,,,,24.00000199E-9,-79.999998212E-3,
,,,24.40000024E-9,439.999997616E-3,,,,,24.40000024E-9,-79.999998212E-3,
,,,24.80000028E-9,439.999997616E-3,,,,,24.80000028E-9,-79.999998212E-3,
,,,25.20000031E-9,439.999997616E-3,,,,,25.20000031E-9,-39.99999911E-3,
,,,25.60000034E-9,399.99997616E-3,,,,,25.60000034E-9,-39.99999911E-3,
,,,26.00000037E-9,439.999997616E-3,,,,,26.00000037E-9,0.0,
,,,26.40000041E-9,439.999997616E-3,,,,,26.40000041E-9,-39.99999911E-3,
,,,26.80000044E-9,439.999997616E-3,,,,,26.80000044E-9,-39.99999911E-3,
,,,27.20000047E-9,479.999989271E-3,,,,,27.20000047E-9,-39.99999911E-3,
,,,27.60000051E-9,479.999989271E-3,,,,,27.60000051E-9,-39.99999911E-3,
,,,28.00000054E-9,479.999989271E-3,,,,,28.00000054E-9,0.0,
,,,28.40000057E-9,479.999989271E-3,,,,,28.40000057E-9,0.0,
,,,28.80000061E-9,479.999989271E-3,,,,,28.80000061E-9,0.0,
,,,29.20000064E-9,479.999989271E-3,,,,,29.20000064E-9,-39.99999911E-3,
,,,29.60000067E-9,479.999989271E-3,,,,,29.60000067E-9,-39.99999911E-3,
,,,30.00000248E-9,519.999980927E-3,,,,,30.00000248E-9,-39.99999911E-3,
,,,30.40000252E-9,519.999980927E-3,,,,,30.40000252E-9,-39.99999911E-3,
,,,30.80000255E-9,519.999980927E-3,,,,,30.80000255E-9,-39.99999911E-3,
,,,31.20000258E-9,479.999989271E-3,,,,,31.20000258E-9,-39.99999911E-3,
,,,31.60000261E-9,439.999997616E-3,,,,,31.60000261E-9,-39.99999911E-3,
,,,32.00000265E-9,439.999997616E-3,,,,,32.00000265E-9,-39.99999911E-3,
,,,32.40000268E-9,399.99997616E-3,,,,,32.40000268E-9,-79.999998212E-3,
,,,32.80000271E-9,439.999997616E-3,,,,,32.80000271E-9,-79.999998212E-3,
,,,33.20000275E-9,439.999997616E-3,,,,,33.20000275E-9,-119.9999973E-3,
,,,33.60000278E-9,399.99997616E-3,,,,,33.60000278E-9,-119.9999973E-3,
,,,34.00000281E-9,439.999997616E-3,,,,,34.00000281E-9,-79.999998212E-3,
,,,34.40000285E-9,439.999997616E-3,,,,,34.40000285E-9,-79.999998212E-3,
,,,34.80000288E-9,479.999989271E-3,,,,,34.80000288E-9,-39.99999911E-3,
,,,35.20000291E-9,519.999980927E-3,,,,,35.20000291E-9,0.0,
,,,35.60000295E-9,519.999980927E-3,,,,,35.60000295E-9,0.0,
,,,36.00000298E-9,519.999980927E-3,,,,,36.00000298E-9,0.0,
,,,36.40000301E-9,479.999989271E-3,,,,,36.40000301E-9,0.0,
,,,36.80000304E-9,479.999989271E-3,,,,,36.80000304E-9,0.0,
,,,37.19999953E-9,479.999989271E-3,,,,,37.19999953E-9,0.0,
,,,37.59999956E-9,479.999989271E-3,,,,,37.59999956E-9,0.0,
,,,37.99999959E-9,479.999989271E-3,,,,,37.99999959E-9,0.0,
,,,38.39999962E-9,479.999989271E-3,,,,,38.39999962E-9,-39.99999911E-3,
,,,38.79999966E-9,479.999989271E-3,,,,,38.79999966E-9,-79.999998212E-3,
,,,39.19999969E-9,479.999989271E-3,,,,,39.19999969E-9,-119.9999973E-3,
,,,39.59999972E-9,479.999989271E-3,,,,,39.59999972E-9,-119.9999973E-3,
,,,39.99999976E-9,479.999989271E-3,,,,,39.99999976E-9,-79.999998212E-3,
,,,40.39999979E-9,479.999989271E-3,,,,,40.39999979E-9,-79.999998212E-3,
,,,40.79999982E-9,479.999989271E-3,,,,,40.79999982E-9,-79.999998212E-3,
,,,41.19999986E-9,479.999989271E-3,,,,,41.19999986E-9,-39.99999911E-3,
,,,41.59999989E-9,479.999989271E-3,,,,,41.59999989E-9,-39.99999911E-3,
,,,41.99999992E-9,479.999989271E-3,,,,,41.99999992E-9,-39.99999911E-3,
,,,42.39999996E-9,479.999989271E-3,,,,,42.39999996E-9,-79.999998212E-3,
,,,42.79999999E-9,479.999989271E-3,,,,,42.79999999E-9,-79.999998212E-3,
,,,43.20000002E-9,479.999989271E-3,,,,,43.20000002E-9,-119.9999973E-3,
,,,43.60000005E-9,479.999989271E-3,,,,,43.60000005E-9,-119.9999973E-3,
,,,44.00000009E-9,519.999980927E-3,,,,,44.00000009E-9,-79.999998212E-3,
,,,44.40000012E-9,519.999980927E-3,,,,,44.40000012E-9,-79.999998212E-3,
,,,44.80000015E-9,519.999980927E-3,,,,,44.80000015E-9,-39.99999911E-3,
,,,45.20000019E-9,519.999980927E-3,,,,,45.20000019E-9,0.0,
,,,45.60000022E-9,519.999980927E-3,,,,,45.60000022E-9,0.0,
,,,46.00000025E-9,560.000002384E-3,,,,,46.00000025E-9,0.0,
,,,46.40000029E-9,560.000002384E-3,,,,,46.40000029E-9,0.0,
,,,46.80000032E-9,560.000002384E-3,,,,,46.80000032E-9,0.0,
,,,47.20000035E-9,560.000002384E-3,,,,,47.20000035E-9,-39.99999911E-3,
,,,47.60000039E-9,560.000002384E-3,,,,,47.60000039E-9,-39.99999911E-3,
,,,48.00000042E-9,599.999964237E-3,,,,,48.00000042E-9,-39.99999911E-3,
,,,48.40000045E-9,599.999964237E-3,,,,,48.40000045E-9,-39.99999911E-3,
,,,48.80000049E-9,599.999964237E-3,,,,,48.80000049E-9,-39.99999911E-3,
,,,49.20000052E-9,560.000002384E-3,,,,,49.20000052E-9,-39.99999911E-3,
,,,49.60000055E-9,519.999980927E-3,,,,,49.60000055E-9,-39.99999911E-3,
,,,50.00000058E-9,519.999980927E-3,,,,,50.00000058E-9,-39.99999911E-3,
,,,50.40000062E-9,479.999989271E-3,,,,,50.40000062E-9,-79.999998212E-3,
,,,50.80000065E-9,479.999989271E-3,,,,,50.80000065E-9,-79.999998212E-3,
,,,51.20000068E-9,519.999980927E-3,,,,,51.20000068E-9,-79.999998212E-3,
,,,51.60000072E-9,519.999980927E-3,,,,,51.60000072E-9,-119.9999973E-3,
,,,52.00000075E-9,560.000002384E-3,,,,,52.00000075E-9,-79.999998212E-3,
,,,52.40000078E-9,560.000002384E-3,,,,,52.40000078E-9,-79.999998212E-3,
,,,52.80000082E-9,560.000002384E-3,,,,,52.80000082E-9,-79.999998212E-3,
,,,53.20000085E-9,560.000002384E-3,,,,,53.20000085E-9,-39.99999911E-3,
,,,53.60000088E-9,560.000002384E-3,,,,,53.60000088E-9,-39.99999911E-3,
,,,54.00000092E-9,599.999964237E-3,,,,,54.00000092E-9,-39.99999911E-3,
,,,54.40000095E-9,599.999964237E-3,,,,,54.40000095E-9,-79.999998212E-3,
,,,54.800000981E-9,639.999985695E-3,,,,,54.800000981E-9,-79.999998212E-3,
,,,55.200001015E-9,599.999964237E-3,,,,,55.200001015E-9,-79.999998212E-3,
,,,55.600001048E-9,599.999964237E-3,,,,,55.600001048E-9,-79.999998212E-3,
,,,56.000001081E-9,599.999964237E-3,,,,,56.000001081E-9,-39.99999911E-3,
,,,56.400001114E-9,599.999964237E-3,,,,,56.400001114E-9,-79.999998212E-3,
,,,56.800001147E-9,599.999964237E-3,,,,,56.800001147E-9,-79.999998212E-3,
,,,57.200001180E-9,560.000002384E-3,,,,,57.200001180E-9,-79.999998212E-3,
,,,57.600001213E-9,560.000002384E-3,,,,,57.600001213E-9,-119.9999973E-3,
,,,58.000001246E-9,560.000002384E-3,,,,,58.000001246E-9,-79.999998212E-3,
,,,58.400001279E-9,519.999980927E-3,,,,,58.400001279E-9,-79.999998212E-3,
,,,58.800001312E-9,519.999980927E-3,,,,,58.800001312E-9,-79.999998212E-3,
,,,59.200001346E-9,519.999980927E-3,,,,,59.200001346E-9,-79.999998212E-3,
,,,59.600001379E-9,479.999989271E-3,,,,,59.600001379E-9,-79.999998212E-3,
,,,60.000004964E-9,519.999980927E-3,,,,,60.000004964E-9,-79.999998212E-3,
,,,60.400004998E-9,519.999980927E-3,,,,,60.400004998E-9,-79.999998212E-3,
,,,60.800005031E-9,519.999980927E-3,,,,,60.800005031E-9,-79.999998212E-3,
,,,61.200005064E-9,519.999980927E-3,,,,,61.200005064E-9,-119.9999973E-3,
,,,61.600005097E-9,519.999980927E-3,,,,,61.600005097E-9,-119.9999973E-3,
,,,62.000005130E-9,519.999980927E-3,,,,,62.000005130E-9,-119.9999973E-3,
,,,62.400005163E-9,519.999980927E-3,,,,,62.400005163E-9,-159.99999642E-3,
,,,62.799998091E-9,519.999980927E-3,,,,,62.799998091E-9,-119.9999973E-3,
,,,63.199998124E-9,560.000002384E-3,,,,,63.199998124E-9,-119.9999973E-3,
,,,63.599998157E-9,560.000002384E-3,,,,,63.599998157E-9,-119.9999973E-3,
,,,63.999998190E-9,599.999964237E-3,,,,,63.999998190E-9,-79.999998212E-3,
,,,64.399998223E-9,599.999964237E-3,,,,,64.399998223E-9,-79.999998212E-3,
,,,64.799998256E-9,599.999964237E-3,,,,,64.799998256E-9,-79.999998212E-3,
,,,65.199998289E-9,560.000002384E-3,,,,,65.199998289E-9,-119.9999973E-3,
,,,65.599998322E-9,519.999980927E-3,,,,,65.599998322E-9,-119.9999973E-3,
,,,65.999998355E-9,519.999980927E-3,,,,,65.999998355E-9,-119.9999973E-3,
,,,66.399998389E-9,479.999989271E-3,,,,,66.399998389E-9,-119.9999973E-3,
,,,66.799998422E-9,479.999989271E-3,,,,,66.799998422E-9,-119.9999973E-3,
,,,67.199998455E-9,479.999989271E-3,,,,,67.199998455E-9,-79.999998212E-3,
,,,67.599998488E-9,519.999980927E-3,,,,,67.599998488E-9,-79.999998212E-3,
,,,67.999998521E-9,560.000002384E-3,,,,,67.999998521E-9,-79.999998212E-3,
,,,68.399998554E-9,519.999980927E-3,,,,,68.399998554E-9,-79.999998212E-3,
,,,68.799998587E-9,519.999980927E-3,,,,,68.799998587E-9,-79.999998212E-3,
,,,69.199998620E-9,519.999980927E-3,,,,,69.199998620E-9,-39.99999911E-3,
,,,69.599998653E-9,519.999980927E-3,,,,,69.599998653E-9,-39.99999911E-3,
,,,69.999998686E-9,560.000002384E-3,,,,,69.999998686E-9,-39.99999911E-3,
,,,70.399998719E-9,599.999964237E-3,,,,,70.399998719E-9,-79.999998212E-3,
,,,70.799998753E-9,639.999985695E-3,,,,,70.799998753E-9,-79.999998212E-3,
,,,71.199998786E-9,680.000007153E-3,,,,,71.199998786E-9,-79.999998212E-3,
