9_5_cm/9_kV_O1_Rog.csv

Record Length,2500,Points,-979.999981610E-9,400.00000596E-3,
Sample Interval,1.9999999E-9,s,-978.000002760E-9,400.00000596E-3,
Trigger Point,490.000004663,Samples,-976.000023911E-9,400.00000596E-3,
,,,-973.999931375E-9,0.0,
,,,-971.999952526E-9,400.00000596E-3,
,,,-969.999973677E-9,400.00000596E-3,
Source,MATH,,-967.999994828E-9,0.0,
Vertical Units,Volts,,-966.000015978E-9,400.00000596E-3,
Vertical Scale,10.0000001,,-964.000037129E-9,400.00000596E-3,
Vertical Offset,0,,-961.999944593E-9,400.00000596E-3,
Horizontal Units,s,,-959.999965744E-9,0.0,
Horizontal Scale,499.999985859E-9,,-957.999986895E-9,0.0,
Pt Fmt,Y,,-956.000008046E-9,400.00000596E-3,
Yzero,0.0,,-954.000029196E-9,400.00000596E-3,
,,,-951.999993504E-9,0.0,
,,,-949.999957811E-9,400.00000596E-3,
Note,TBS 1104 - 3:50:52 PM   2/3/2026,,-947.999978962E-9,0.0,
,,,-946.000000113E-9,400.00000596E-3,
,,,-943.999964420E-9,0.0,
,,,-941.999985571E-9,0.0,
,,,-940.000006722E-9,400.00000596E-3,
,,,-937.999971029E-9,0.0,
,,,-935.999992180E-9,0.0,
,,,-933.999956487E-9,-400.00000596E-3,
,,,-931.999977638E-9,400.00000596E-3,
,,,-929.999998789E-9,0.0,
,,,-927.999963096E-9,0.0,
,,,-925.999984247E-9,0.0,
,,,-924.000005398E-9,0.0,
,,,-921.999969705E-9,400.00000596E-3,
,,,-919.999990856E-9,400.00000596E-3,
,,,-917.999955163E-9,0.0,
,,,-915.999976314E-9,0.0,
,,,-913.999997465E-9,400.00000596E-3,
,,,-911.999961772E-9,0.0,
,,,-909.999982923E-9,0.0,
,,,-908.000004074E-9,0.0,
,,,-905.999968381E-9,0.0,
,,,-903.999989532E-9,400.00000596E-3,
,,,-902.000010683E-9,400.00000596E-3,
,,,-899.999974990E-9,0.0,
,,,-897.999996141E-9,0.0,
,,,-895.999960449E-9,0.0,
,,,-893.999981599E-9,0.0,
,,,-892.000002750E-9,0.0,
,,,-889.999967058E-9,400.00000596E-3,
,,,-887.999988208E-9,0.0,
,,,-886.000009359E-9,0.0,
,,,-883.999973667E-9,0.0,
,,,-881.999994817E-9,0.0,
,,,-879.999959125E-9,0.0,
,,,-877.999980275E-9,0.0,
,,,-876.000001426E-9,400.00000596E-3,
,,,-873.999965734E-9,400.00000596E-3,
,,,-871.999986884E-9,0.0,
,,,-870.000008035E-9,0.0,
,,,-867.999972343E-9,-400.00000596E-3,
,,,-865.999993493E-9,400.00000596E-3,
,,,-863.999957801E-9,0.0,
,,,-861.999978952E-9,400.00000596E-3,
,,,-860.000000102E-9,0.0,
,,,-857.999964410E-9,0.0,
,,,-855.999985561E-9,0.0,
,,,-854.000006711E-9,-400.00000596E-3,
,,,-851.999971019E-9,0.0,
,,,-849.999992170E-9,0.0,
,,,-848.000013320E-9,400.00000596E-3,
,,,-845.999977628E-9,0.0,
,,,-843.999998779E-9,0.0,
,,,-841.999963086E-9,400.00000596E-3,
,,,-839.999984237E-9,0.0,
,,,-838.000005388E-9,400.00000596E-3,
,,,-835.999969695E-9,0.0,
,,,-833.999990846E-9,0.0,
,,,-832.000011997E-9,400.00000596E-3,
,,,-829.999976304E-9,400.00000596E-3,
,,,-827.999997455E-9,0.0,
,,,-825.999961762E-9,400.00000596E-3,
,,,-823.999982913E-9,400.00000596E-3,
,,,-822.000004064E-9,400.00000596E-3,
,,,-819.999968371E-9,0.0,
,,,-817.999989522E-9,400.00000596E-3,
,,,-816.000010673E-9,0.0,
,,,-813.999974980E-9,0.0,
,,,-811.999996131E-9,0.0,
,,,-809.999960438E-9,0.0,
,,,-807.999981589E-9,0.0,
,,,-806.000002740E-9,400.00000596E-3,
,,,-803.999967047E-9,400.00000596E-3,
,,,-801.999988198E-9,0.0,
,,,-800.000009349E-9,0.0,
,,,-797.999973656E-9,-400.00000596E-3,
,,,-795.999994807E-9,0.0,
,,,-793.999959114E-9,0.0,
,,,-791.999980265E-9,0.0,
,,,-790.000001416E-9,400.00000596E-3,
,,,-787.999965723E-9,400.00000596E-3,
,,,-785.999986874E-9,-400.00000596E-3,
,,,-784.000008025E-9,0.0,
,,,-781.999972332E-9,0.0,
,,,-779.999993483E-9,0.0,
,,,-778.000014634E-9,0.0,
,,,-775.999978941E-9,400.00000596E-3,
,,,-774.000000092E-9,0.0,
,,,-771.999964400E-9,0.0,
,,,-769.999985550E-9,400.00000596E-3,
,,,-768.000006701E-9,0.0,
,,,-765.999971009E-9,0.0,
,,,-763.999992159E-9,400.00000596E-3,
,,,-762.000013310E-9,0.0,
,,,-759.999977618E-9,-400.00000596E-3,
,,,-757.999998768E-9,0.0,
,,,-755.999963076E-9,400.00000596E-3,
,,,-753.999984227E-9,0.0,
,,,-752.000005377E-9,0.0,
,,,-749.999969685E-9,400.00000596E-3,
,,,-747.999990836E-9,0.0,
,,,-746.000011986E-9,0.0,
,,,-743.999976294E-9,0.0,
,,,-741.999997445E-9,0.0,
,,,-739.999961752E-9,0.0,
,,,-737.999982903E-9,-400.00000596E-3,
,,,-736.000004053E-9,0.0,
,,,-733.999968361E-9,-400.00000596E-3,
,,,-731.999989512E-9,0.0,
,,,-730.000010662E-9,0.0,
,,,-727.999974970E-9,0.0,
,,,-725.999996121E-9,0.0,
,,,-723.999960428E-9,400.00000596E-3,
,,,-721.999981579E-9,0.0,
,,,-720.000002730E-9,-400.00000596E-3,
,,,-717.999967037E-9,0.0,
,,,-715.999988188E-9,0.0,
,,,-714.000009339E-9,-400.00000596E-3,
,,,-711.999973646E-9,0.0,
,,,-709.999994797E-9,0.0,
,,,-708.000015948E-9,0.0,
,,,-705.999980255E-9,400.00000596E-3,
,,,-704.000001406E-9,0.0,
,,,-701.999965713E-9,0.0,
,,,-699.999986864E-9,0.0,
,,,-698.000008015E-9,0.0,
,,,-695.999972322E-9,-400.00000596E-3,
,,,-693.999993473E-9,-400.00000596E-3,
,,,-692.000014624E-9,0.0,
,,,-689.999978931E-9,400.00000596E-3,
,,,-688.000000082E-9,800.000011921E-3,
,,,-685.999964389E-9,800.000011921E-3,
,,,-683.999985540E-9,400.00000596E-3,
,,,-682.000006691E-9,0.0,
,,,-679.999970998E-9,0.0,
,,,-677.999992149E-9,800.000011921E-3,
,,,-676.000013300E-9,1.2000000,
,,,-673.999977607E-9,800.000011921E-3,
,,,-671.999998758E-9,800.000011921E-3,
,,,-669.999963065E-9,1.2000000,
,,,-667.999984216E-9,1.2000000,
,,,-666.000005367E-9,1.2000000,
,,,-663.999969674E-9,1.2000000,
,,,-661.999990825E-9,1.6000000,
,,,-660.000011976E-9,2.0000000,
,,,-657.999976283E-9,2.0000000,
,,,-655.999997434E-9,2.0000000,
,,,-654.000018585E-9,2.0000000,
,,,-651.999982892E-9,2.4000001,
,,,-650.000004043E-9,2.79999995,
,,,-647.999968351E-9,3.20000005,
,,,-645.999989501E-9,3.20000005,
,,,-644.000010652E-9,3.20000005,
,,,-641.999974960E-9,3.20000005,
,,,-639.999996110E-9,3.60000014,
,,,-638.000017261E-9,3.60000014,
,,,-635.999981569E-9,4.00000000,
,,,-634.000002719E-9,4.00000000,
,,,-631.999967027E-9,4.40000010,
,,,-629.999988178E-9,4.40000010,
,,,-628.000009328E-9,4.80000019,
,,,-625.999973636E-9,5.20000029,
,,,-623.999994787E-9,5.20000029,
,,,-622.000015937E-9,5.20000029,
,,,-619.999980245E-9,5.20000029,
,,,-618.000001396E-9,4.80000019,
,,,-615.999965703E-9,5.20000029,
,,,-613.999986854E-9,5.20000029,
,,,-612.000008005E-9,5.20000029,
,,,-609.999972312E-9,5.59999990,
,,,-607.999993463E-9,5.59999990,
,,,-606.000014614E-9,6.00000000,
,,,-603.999978921E-9,5.59999990,
,,,-602.000000072E-9,6.00000000,
,,,-599.999964379E-9,6.00000000,
,,,-597.999985530E-9,6.40000010,
,,,-596.000006681E-9,6.00000000,
,,,-593.999970988E-9,6.00000000,
,,,-591.999992139E-9,6.40000010,
,,,-590.000013290E-9,6.00000000,
,,,-587.999977597E-9,6.40000010,
,,,-585.999998748E-9,6.40000010,
,,,-584.000019899E-9,6.40000010,
,,,-581.999984206E-9,6.80000019,
,,,-580.000005357E-9,6.40000010,
,,,-577.999969664E-9,6.80000019,
,,,-575.999990815E-9,6.40000010,
,,,-574.000011966E-9,6.80000019,
,,,-571.999976273E-9,6.40000010,
,,,-569.999997424E-9,6.40000010,
,,,-568.000018575E-9,6.80000019,
,,,-565.999982882E-9,6.80000019,
,,,-564.000004033E-9,6.40000010,
,,,-561.999968340E-9,6.80000019,
,,,-559.999989491E-9,6.80000019,
,,,-558.000010642E-9,6.80000019,
,,,-555.999974949E-9,6.40000010,
,,,-553.999996100E-9,6.40000010,
,,,-552.000017251E-9,6.40000010,
,,,-549.999981558E-9,6.80000019,
,,,-548.000002709E-9,6.80000019,
,,,-545.999967017E-9,6.80000019,
,,,-543.999988167E-9,6.80000019,
,,,-542.000009318E-9,6.80000019,
,,,-539.999973626E-9,6.80000019,
,,,-537.999994776E-9,6.80000019,
,,,-536.000015927E-9,6.40000010,
,,,-533.999980235E-9,6.40000010,
,,,-532.000001385E-9,6.80000019,
,,,-530.000022536E-9,6.80000019,
,,,-527.999986843E-9,6.80000019,
,,,-526.000007994E-9,6.80000019,
,,,-523.999972302E-9,6.80000019,
,,,-521.999993452E-9,6.80000019,
,,,-520.000014603E-9,6.80000019,
,,,-517.999978911E-9,6.80000019,
,,,-516.000000061E-9,6.80000019,
,,,-514.000021212E-9,6.80000019,
,,,-511.999985520E-9,7.20000029,
,,,-510.000006670E-9,7.20000029,
,,,-507.999970978E-9,7.20000029,
,,,-505.999992129E-9,7.20000029,
,,,-504.000013279E-9,7.20000029,
,,,-501.999977587E-9,7.20000029,
,,,-499.999998738E-9,7.599999905,
,,,-498.000019888E-9,7.599999905,
,,,-495.999984196E-9,8.000000000,
,,,-494.000005347E-9,8.000000000,
,,,-491.999969654E-9,8.000000000,
,,,-489.999990805E-9,8.000000000,
,,,-488.000011956E-9,8.000000000,
,,,-485.999976263E-9,8.000000000,
,,,-483.999997414E-9,8.000000000,
,,,-482.000018565E-9,8.800000191,
,,,-479.999982872E-9,8.400000572,
,,,-478.000004023E-9,8.800000191,
,,,-475.999996752E-9,9.199999809,
,,,-473.999989481E-9,9.199999809,
,,,-471.999982210E-9,9.199999809,
,,,-470.000003361E-9,9.600000381,
,,,-467.999996090E-9,9.600000381,
,,,-465.999988819E-9,9.600000381,
,,,-464.000009970E-9,9.600000381,
,,,-462.000002699E-9,10.0000000,
,,,-459.999995428E-9,10.0000000,
,,,-457.999988157E-9,10.0000000,
,,,-456.000009308E-9,10.4000006,
,,,-454.000002037E-9,10.4000006,
,,,-451.999994766E-9,10.4000006,
,,,-449.999987495E-9,10.4000006,
,,,-448.000008646E-9,10.8000002,
,,,-446.000001375E-9,10.8000002,
,,,-443.999994104E-9,10.8000002,
,,,-441.999986833E-9,10.8000002,
,,,-440.000007984E-9,10.8000002,
,,,-438.000000713E-9,11.1999998,
,,,-435.999993442E-9,11.6000004,
,,,-433.999986171E-9,11.1999998,
,,,-432.000007322E-9,11.6000004,
,,,-430.000000051E-9,11.6000004,
,,,-427.999992780E-9,11.6000004,
,,,-425.999985509E-9,11.1999998,
,,,-424.000006660E-9,11.1999998,
,,,-421.999999389E-9,11.6000004,
,,,-419.999992118E-9,11.6000004,
,,,-417.999984847E-9,11.6000004,
,,,-416.000005998E-9,11.6000004,
,,,-413.999998727E-9,11.6000004,
,,,-411.999991456E-9,12.0000000,
,,,-409.999984186E-9,11.6000004,
,,,-408.000005336E-9,12.0000000,
,,,-405.999998065E-9,12.0000000,
,,,-403.999990795E-9,12.0000000,
,,,-402.00001195E-9,12.0000000,
,,,-400.00000467E-9,11.6000004,
,,,-397.99999740E-9,12.0000000,
,,,-395.99999013E-9,12.0000000,
,,,-394.00001128E-9,12.4000006,
,,,-392.00000401E-9,12.0000000,
,,,-389.99999674E-9,11.6000004,
,,,-387.99998947E-9,12.0000000,
,,,-386.00001062E-9,11.6000004,
,,,-384.00000335E-9,12.0000000,
,,,-381.99999608E-9,12.0000000,
,,,-379.99998881E-9,11.6000004,
,,,-378.00000996E-9,11.6000004,
,,,-376.00000269E-9,11.6000004,
,,,-373.99999542E-9,12.0000000,
,,,-371.99998815E-9,12.0000000,
,,,-370.00000930E-9,12.4000006,
,,,-368.00000203E-9,12.4000006,
,,,-365.99999476E-9,12.0000000,
,,,-363.99998748E-9,12.0000000,
,,,-362.00000864E-9,12.0000000,
,,,-360.00000136E-9,12.0000000,
,,,-357.99999409E-9,12.0000000,
,,,-355.99998682E-9,12.0000000,
,,,-354.00000797E-9,12.0000000,
,,,-352.00000070E-9,12.4000006,
,,,-349.99999343E-9,12.0000000,
,,,-347.99998616E-9,12.0000000,
,,,-346.00000731E-9,12.0000000,
,,,-344.00000004E-9,12.0000000,
,,,-341.99999277E-9,12.0000000,
,,,-339.99998550E-9,12.0000000,
,,,-338.00000665E-9,12.0000000,
,,,-335.99999938E-9,12.4000006,
,,,-333.99999211E-9,12.8000002,
,,,-332.00001326E-9,12.8000002,
,,,-330.00000599E-9,12.4000006,
,,,-327.99999872E-9,12.8000002,
,,,-325.99999145E-9,12.8000002,
,,,-324.00001260E-9,12.8000002,
,,,-322.00000533E-9,13.1999998,
,,,-319.99999806E-9,13.1999998,
,,,-317.99999078E-9,13.6000004,
,,,-316.00001194E-9,14.0000000,
,,,-314.00000466E-9,14.0000000,
,,,-311.99999739E-9,14.4000006,
,,,-309.99999012E-9,14.0000000,
,,,-308.00001127E-9,14.0000000,
,,,-306.00000400E-9,14.4000006,
,,,-303.99999673E-9,14.4000006,
,,,-301.99998946E-9,14.8000002,
,,,-300.00001061E-9,14.8000002,
,,,-298.00000334E-9,15.1999998,
,,,-295.99999607E-9,15.1999998,
,,,-293.99998880E-9,15.1999998,
,,,-292.00000995E-9,15.6000004,
,,,-290.00000268E-9,15.6000004,
,,,-287.99999541E-9,15.1999998,
,,,-285.99998814E-9,16.0000000,
,,,-284.00000929E-9,15.6000004,
,,,-282.00000202E-9,15.6000004,
,,,-279.99999475E-9,16.0000000,
,,,-277.99998747E-9,16.3999996,
,,,-276.00000863E-9,16.3999996,
,,,-274.00000135E-9,16.3999996,
,,,-271.99999408E-9,16.8000011,
,,,-270.00001523E-9,16.8000011,
,,,-268.00000796E-9,16.3999996,
,,,-266.00000069E-9,16.8000011,
,,,-263.99999342E-9,16.8000011,
,,,-262.00001457E-9,17.2000008,
,,,-260.00000730E-9,17.6000004,
,,,-258.00000003E-9,17.2000008,
,,,-255.99999276E-9,17.2000008,
,,,-254.00001391E-9,17.6000004,
,,,-252.00000664E-9,17.6000004,
,,,-249.99999937E-9,17.6000004,
,,,-247.99999210E-9,17.2000008,
,,,-246.00001325E-9,17.2000008,
,,,-244.00000598E-9,17.2000008,
,,,-241.99999871E-9,17.2000008,
,,,-239.99999144E-9,17.2000008,
,,,-237.99999838E-9,18.0000000,
,,,-236.00000532E-9,18.0000000,
,,,-233.99999804E-9,17.6000004,
,,,-232.00000498E-9,18.0000000,
,,,-229.99999771E-9,18.0000000,
,,,-228.00000465E-9,18.0000000,
,,,-225.99999738E-9,17.6000004,
,,,-224.00000432E-9,18.0000000,
,,,-221.99999705E-9,17.6000004,
,,,-220.00000399E-9,17.6000004,
,,,-217.99999672E-9,17.6000004,
,,,-216.00000366E-9,17.6000004,
,,,-213.99999639E-9,18.0000000,
,,,-212.00000333E-9,18.0000000,
,,,-210.00001027E-9,18.8000011,
,,,-208.00000300E-9,18.3999996,
,,,-206.00000994E-9,18.0000000,
,,,-204.00000267E-9,18.3999996,
,,,-202.00000961E-9,18.0000000,
,,,-200.00000234E-9,18.0000000,
,,,-198.00000928E-9,17.6000004,
,,,-196.00000201E-9,18.3999996,
,,,-194.00000895E-9,18.3999996,
,,,-192.00000168E-9,18.0000000,
,,,-190.00000862E-9,17.6000004,
,,,-188.00000134E-9,18.0000000,
,,,-186.00000828E-9,18.0000000,
,,,-184.00000101E-9,18.3999996,
,,,-182.00000795E-9,18.3999996,
,,,-180.00000068E-9,18.0000000,
,,,-178.00000762E-9,18.3999996,
,,,-176.00000035E-9,18.8000011,
,,,-174.00000729E-9,18.8000011,
,,,-172.00000002E-9,18.3999996,
,,,-170.00000696E-9,18.0000000,
,,,-167.99999969E-9,18.0000000,
,,,-166.00000663E-9,18.8000011,
,,,-163.99999936E-9,18.8000011,
,,,-162.00000630E-9,18.3999996,
,,,-159.99999903E-9,18.3999996,
,,,-158.00000597E-9,18.3999996,
,,,-155.99999870E-9,19.2000008,
,,,-154.00000564E-9,19.2000008,
,,,-151.99999837E-9,19.6000004,
,,,-150.00000531E-9,19.2000008,
,,,-147.9999980E-9,19.6000004,
,,,-146.0000050E-9,20.0000000,
,,,-144.0000119E-9,19.6000004,
,,,-142.0000046E-9,19.2000008,
,,,-140.0000116E-9,18.8000011,
,,,-138.0000043E-9,19.6000004,
,,,-136.0000113E-9,20.39999962,
,,,-134.0000040E-9,20.39999962,
,,,-132.0000109E-9,20.80000114,
,,,-130.0000037E-9,19.6000004,
,,,-128.0000106E-9,20.39999962,
,,,-126.0000033E-9,20.80000114,
,,,-124.0000103E-9,21.20000076,
,,,-122.0000030E-9,20.80000114,
,,,-120.0000099E-9,20.39999962,
,,,-118.0000027E-9,20.80000114,
,,,-116.0000096E-9,21.20000076,
,,,-114.0000094E-9,21.60000038,
,,,-112.0000093E-9,21.20000076,
,,,-110.0000091E-9,21.60000038,
,,,-108.0000089E-9,22.00000000,
,,,-106.0000088E-9,22.39999962,
,,,-104.0000086E-9,21.60000038,
,,,-102.0000084E-9,21.60000038,
,,,-100.0000083E-9,21.20000076,
,,,-98.000008109E-9,21.60000038,
,,,-96.000007943E-9,22.39999962,
,,,-94.000007778E-9,22.80000114,
,,,-92.000007612E-9,22.39999962,
,,,-90.000007447E-9,22.00000000,
,,,-88.000007281E-9,22.80000114,
,,,-86.000007116E-9,22.80000114,
,,,-84.000006950E-9,22.80000114,
,,,-82.000006785E-9,22.00000000,
,,,-80.000006619E-9,22.00000000,
,,,-78.000006454E-9,22.39999962,
,,,-76.000006288E-9,22.80000114,
,,,-74.000006123E-9,22.80000114,
,,,-72.000005957E-9,22.80000114,
,,,-70.000005792E-9,23.20000076,
,,,-68.000005626E-9,23.60000038,
,,,-66.000005461E-9,24.00000000,
,,,-64.000005295E-9,23.20000076,
,,,-62.000005130E-9,22.00000000,
,,,-60.000004964E-9,21.60000038,
,,,-58.000008352E-9,22.00000000,
,,,-56.000008186E-9,22.80000114,
,,,-54.00000802E-9,23.60000038,
,,,-52.00000786E-9,24.39999962,
,,,-50.00000769E-9,24.39999962,
,,,-48.00000752E-9,24.80000114,
,,,-46.00000736E-9,25.60000038,
,,,-44.00000719E-9,23.20000076,
,,,-42.00000703E-9,20.80000114,
,,,-40.00000686E-9,20.0000000,
,,,-38.00000670E-9,21.20000076,
,,,-36.00001008E-9,23.20000076,
,,,-34.00000992E-9,26.39999962,
,,,-32.00000975E-9,28.00000000,
,,,-30.00000959E-9,26.00000000,
,,,-28.00000942E-9,24.39999962,
,,,-26.00000926E-9,22.80000114,
,,,-24.00000909E-9,20.80000114,
,,,-22.00000893E-9,20.0000000,
,,,-20.0000088E-9,21.60000038,
,,,-18.0000086E-9,23.20000076,
,,,-16.0000084E-9,25.60000038,
,,,-14.0000092E-9,26.00000000,
,,,-12.0000090E-9,25.60000038,
,,,-10.0000088E-9,23.60000038,
,,,-8.000009544E-9,23.60000038,
,,,-6.00000938E-9,24.00000000,
,,,-4.00000921E-9,22.80000114,
,,,-2.0000093E-9,22.39999962,
,,,-9.325873286E-15,22.00000000,
,,,1.9999906E-9,22.39999962,
,,,3.99999056E-9,23.20000076,
,,,5.99999073E-9,25.20000076,
,,,7.999990004E-9,26.39999962,
,,,9.999990169E-9,25.20000076,
,,,11.9999903E-9,25.60000038,
,,,13.9999905E-9,25.60000038,
,,,15.9999907E-9,22.80000114,
,,,17.9999908E-9,22.00000000,
,,,19.9999910E-9,20.80000114,
,,,21.99998939E-9,22.00000000,
,,,23.99998955E-9,24.80000114,
,,,25.99998972E-9,26.39999962,
,,,27.99998988E-9,27.60000038,
,,,29.99998827E-9,26.39999962,
,,,31.99998844E-9,26.39999962,
,,,33.99998860E-9,25.60000038,
,,,35.99998877E-9,23.60000038,
,,,37.99998893E-9,23.20000076,
,,,39.99998910E-9,21.60000038,
,,,41.99998926E-9,23.20000076,
,,,43.99998943E-9,24.80000114,
,,,45.99998960E-9,26.39999962,
,,,47.99998976E-9,28.80000114,
,,,49.99998993E-9,28.00000000,
,,,51.99999009E-9,27.20000076,
,,,53.99999026E-9,27.20000076,
,,,55.999990423E-9,24.39999962,
,,,57.999990588E-9,24.39999962,
,,,59.999990754E-9,22.00000000,
,,,61.999990919E-9,23.60000038,
,,,63.999991085E-9,25.20000076,
,,,65.999991250E-9,27.20000076,
,,,67.999991415E-9,30.39999962,
,,,69.999991581E-9,30.00000000,
,,,71.999991746E-9,28.39999962,
,,,73.999991912E-9,27.60000038,
,,,75.999992077E-9,25.60000038,
,,,77.999985137E-9,24.39999962,
,,,79.999985303E-9,23.60000038,
,,,81.999985468E-9,23.20000076,
,,,83.999985634E-9,26.00000000,
,,,85.999985799E-9,28.39999962,
,,,87.999985965E-9,29.60000038,
,,,89.999986130E-9,30.39999962,
,,,91.999986296E-9,28.00000000,
,,,93.999986461E-9,27.60000038,
,,,95.999986627E-9,26.80000114,
,,,97.999986792E-9,25.60000038,
,,,99.999986958E-9,25.60000038,
,,,101.9999871E-9,23.60000038,
,,,103.9999873E-9,25.60000038,
,,,105.9999875E-9,26.80000114,
,,,107.9999876E-9,28.39999962,
,,,109.9999878E-9,31.20000076,
,,,111.9999880E-9,30.00000000,
,,,113.9999881E-9,29.20000076,
,,,115.9999883E-9,28.80000114,
,,,117.9999884E-9,25.60000038,
,,,119.9999815E-9,25.20000076,
,,,121.9999888E-9,23.20000076,
,,,123.9999818E-9,24.80000114,
,,,125.9999891E-9,27.60000038,
,,,127.9999822E-9,29.60000038,
,,,129.9999894E-9,31.60000038,
,,,131.9999825E-9,30.00000000,
,,,133.9999898E-9,28.80000114,
,,,135.9999828E-9,28.39999962,
,,,137.9999901E-9,26.39999962,
,,,139.9999832E-9,26.00000000,
,,,141.9999904E-9,24.00000000,
,,,143.9999835E-9,24.39999962,
,,,145.9999908E-9,26.39999962,
,,,147.9999838E-9,28.80000114,
,,,149.99999109E-9,31.60000038,
,,,151.99998415E-9,31.60000038,
,,,153.99999143E-9,29.20000076,
,,,155.99998449E-9,27.60000038,
,,,157.99999176E-9,26.00000000,
,,,159.99998482E-9,24.80000114,
,,,161.99999209E-9,24.80000114,
,,,163.99998515E-9,24.80000114,
,,,165.99999242E-9,27.20000076,
,,,167.99998548E-9,28.39999962,
,,,169.99999275E-9,30.00000000,
,,,171.99998581E-9,29.60000038,
,,,173.99997887E-9,27.60000038,
,,,175.99998614E-9,26.80000114,
,,,177.99997920E-9,25.60000038,
,,,179.99998647E-9,24.80000114,
,,,181.99997953E-9,26.00000000,
,,,183.99998680E-9,25.60000038,
,,,185.99997986E-9,26.39999962,
,,,187.99998713E-9,27.20000076,
,,,189.99998019E-9,27.60000038,
,,,191.99998746E-9,26.39999962,
,,,193.99998052E-9,26.39999962,
,,,195.99998780E-9,27.20000076,
,,,197.99998086E-9,27.20000076,
,,,199.99998813E-9,27.20000076,
,,,201.99998119E-9,25.60000038,
,,,203.99998846E-9,22.80000114,
,,,205.99998152E-9,22.80000114,
,,,207.99998879E-9,24.80000114,
,,,209.99998185E-9,26.80000114,
,,,211.99998912E-9,27.20000076,
,,,213.99998218E-9,27.60000038,
,,,215.99998945E-9,27.20000076,
,,,217.99998251E-9,26.00000000,
,,,219.99998978E-9,24.39999962,
,,,221.99998284E-9,23.60000038,
,,,223.99999011E-9,22.80000114,
,,,225.99998317E-9,23.20000076,
,,,227.99999044E-9,25.20000076,
,,,229.99998350E-9,26.39999962,
,,,231.99999077E-9,26.39999962,
,,,233.99998383E-9,26.39999962,
,,,235.99997689E-9,26.39999962,
,,,237.99998417E-9,24.39999962,
,,,239.99999144E-9,23.60000038,
,,,241.99997029E-9,23.20000076,
,,,243.99997756E-9,23.20000076,
,,,245.99998483E-9,23.20000076,
,,,247.99999210E-9,24.80000114,
,,,249.99997095E-9,26.39999962,
,,,251.99997822E-9,25.20000076,
,,,253.99998549E-9,24.80000114,
,,,255.99999276E-9,24.39999962,
