6_5_cm/10_5_kV_O1_Mir.csv

Record Length,2500,Points,-292.00000995E-9,0.0,,Record Length,2500,Points,-292.00000995E-9,359.99998450E-3,,Record Length,2500,Points,-292.00000995E-9,4.80000019,
Sample Interval,400.00000370E-12,s,-291.60000281E-9,-39.99999911E-3,,Sample Interval,400.00000370E-12,s,-291.60000281E-9,359.99998450E-3,,Sample Interval,400.00000370E-12,s,-291.60000281E-9,4.80000019,
Trigger Point,730.000015127,Samples,-291.20002409E-9,-79.999998212E-3,,Trigger Point,730.000015127,Samples,-291.20002409E-9,319.99999285E-3,,Trigger Point,730.000015127,Samples,-291.20002409E-9,4.80000019,
,,,-290.80001696E-9,-79.999998212E-3,,,,,-290.80001696E-9,319.99999285E-3,,,,,-290.80001696E-9,4.80000019,
,,,-290.40000982E-9,-39.99999911E-3,,,,,-290.40000982E-9,319.99999285E-3,,,,,-290.40000982E-9,4.80000019,
,,,-290.00000268E-9,-39.99999911E-3,,,,,-290.00000268E-9,319.99999285E-3,,,,,-290.00000268E-9,4.80000019,
Source,CH1,,-289.60002396E-9,0.0,,Source,CH2,,-289.60002396E-9,319.99999285E-3,,Source,MATH,,-289.60002396E-9,4.80000019,
Vertical Units,Volts,,-289.20001682E-9,39.99999911E-3,,Vertical Units,Volts,,-289.20001682E-9,319.99999285E-3,,Vertical Units,Volts,,-289.20001682E-9,4.80000019,
Vertical Scale,999.999977648E-3,,-288.80000968E-9,39.99999911E-3,,Vertical Scale,999.999977648E-3,,-288.80000968E-9,319.99999285E-3,,Vertical Scale,10.0000001,,-288.80000968E-9,4.80000019,
Vertical Offset,0,,-288.40000255E-9,39.99999911E-3,,Vertical Offset,0,,-288.40000255E-9,319.99999285E-3,,Vertical Offset,0,,-288.40000255E-9,4.80000019,
Horizontal Units,s,,-288.00002383E-9,0.0,,Horizontal Units,s,,-288.00002383E-9,319.99999285E-3,,Horizontal Units,s,,-288.00002383E-9,4.80000019,
Horizontal Scale,100.0000013E-9,,-287.60001669E-9,-39.99999911E-3,,Horizontal Scale,100.0000013E-9,,-287.60001669E-9,319.99999285E-3,,Horizontal Scale,100.0000013E-9,,-287.60001669E-9,4.80000019,
Pt Fmt,Y,,-287.20000955E-9,-79.999998212E-3,,Pt Fmt,Y,,-287.20000955E-9,359.99998450E-3,,Pt Fmt,Y,,-287.20000955E-9,4.80000019,
Yzero,-1.7200000,,-286.80000241E-9,-79.999998212E-3,,Yzero,-1.5600000,,-286.80000241E-9,359.99998450E-3,,Yzero,0.0,,-286.80000241E-9,5.20000029,
Probe Atten,1.000000,,-286.40002370E-9,-39.99999911E-3,,Probe Atten,1.000000,,-286.40002370E-9,399.99997616E-3,,,,,-286.40002370E-9,5.20000029,
,,,-286.00001656E-9,-39.99999911E-3,,,,,-286.00001656E-9,399.99997616E-3,,,,,-286.00001656E-9,5.20000029,
Note,TBS 1104 - 2:14:07 PM   2/5/2026,,-285.60000942E-9,-39.99999911E-3,,Note,TBS 1104 - 2:14:07 PM   2/5/2026,,-285.60000942E-9,399.99997616E-3,,Note,TBS 1104 - 2:14:07 PM   2/5/2026,,-285.60000942E-9,4.80000019,
,,,-285.20000228E-9,0.0,,,,,-285.20000228E-9,399.99997616E-3,,,,,-285.20000228E-9,4.80000019,
,,,-284.80002356E-9,0.0,,,,,-284.80002356E-9,399.99997616E-3,,,,,-284.80002356E-9,4.80000019,
,,,-284.40001643E-9,0.0,,,,,-284.40001643E-9,399.99997616E-3,,,,,-284.40001643E-9,4.40000010,
,,,-284.00000929E-9,-39.99999911E-3,,,,,-284.00000929E-9,399.99997616E-3,,,,,-284.00000929E-9,4.80000019,
,,,-283.60000215E-9,-39.99999911E-3,,,,,-283.60000215E-9,399.99997616E-3,,,,,-283.60000215E-9,4.80000019,
,,,-283.20002343E-9,-39.99999911E-3,,,,,-283.20002343E-9,439.999997616E-3,,,,,-283.20002343E-9,5.20000029,
,,,-282.80001629E-9,-79.999998212E-3,,,,,-282.80001629E-9,439.999997616E-3,,,,,-282.80001629E-9,5.20000029,
,,,-282.40000916E-9,-39.99999911E-3,,,,,-282.40000916E-9,439.999997616E-3,,,,,-282.40000916E-9,5.20000029,
,,,-282.00000202E-9,-39.99999911E-3,,,,,-282.00000202E-9,399.99997616E-3,,,,,-282.00000202E-9,5.20000029,
,,,-281.60002330E-9,-39.99999911E-3,,,,,-281.60002330E-9,399.99997616E-3,,,,,-281.60002330E-9,5.20000029,
,,,-281.20001616E-9,-39.99999911E-3,,,,,-281.20001616E-9,399.99997616E-3,,,,,-281.20001616E-9,5.20000029,
,,,-280.80000902E-9,-39.99999911E-3,,,,,-280.80000902E-9,399.99997616E-3,,,,,-280.80000902E-9,5.20000029,
,,,-280.40000188E-9,-39.99999911E-3,,,,,-280.40000188E-9,399.99997616E-3,,,,,-280.40000188E-9,5.20000029,
,,,-280.00002317E-9,-39.99999911E-3,,,,,-280.00002317E-9,399.99997616E-3,,,,,-280.00002317E-9,5.59999990,
,,,-279.60001603E-9,-39.99999911E-3,,,,,-279.60001603E-9,399.99997616E-3,,,,,-279.60001603E-9,5.20000029,
,,,-279.20000889E-9,-39.99999911E-3,,,,,-279.20000889E-9,359.99998450E-3,,,,,-279.20000889E-9,5.20000029,
,,,-278.80000175E-9,-39.99999911E-3,,,,,-278.80000175E-9,359.99998450E-3,,,,,-278.80000175E-9,5.59999990,
,,,-278.40002303E-9,-39.99999911E-3,,,,,-278.40002303E-9,359.99998450E-3,,,,,-278.40002303E-9,5.20000029,
,,,-278.00001590E-9,-39.99999911E-3,,,,,-278.00001590E-9,359.99998450E-3,,,,,-278.00001590E-9,5.59999990,
,,,-277.60000876E-9,-39.99999911E-3,,,,,-277.60000876E-9,359.99998450E-3,,,,,-277.60000876E-9,5.59999990,
,,,-277.20000162E-9,0.0,,,,,-277.20000162E-9,359.99998450E-3,,,,,-277.20000162E-9,5.59999990,
,,,-276.80002290E-9,0.0,,,,,-276.80002290E-9,359.99998450E-3,,,,,-276.80002290E-9,5.59999990,
,,,-276.40001576E-9,0.0,,,,,-276.40001576E-9,359.99998450E-3,,,,,-276.40001576E-9,5.59999990,
,,,-276.00000863E-9,0.0,,,,,-276.00000863E-9,319.99999285E-3,,,,,-276.00000863E-9,5.59999990,
,,,-275.60000149E-9,0.0,,,,,-275.60000149E-9,319.99999285E-3,,,,,-275.60000149E-9,5.59999990,
,,,-275.20002277E-9,0.0,,,,,-275.20002277E-9,319.99999285E-3,,,,,-275.20002277E-9,5.59999990,
,,,-274.80001563E-9,0.0,,,,,-274.80001563E-9,319.99999285E-3,,,,,-274.80001563E-9,6.00000000,
,,,-274.40000849E-9,0.0,,,,,-274.40000849E-9,359.99998450E-3,,,,,-274.40000849E-9,6.00000000,
,,,-274.00000135E-9,0.0,,,,,-274.00000135E-9,359.99998450E-3,,,,,-274.00000135E-9,6.00000000,
,,,-273.60002264E-9,0.0,,,,,-273.60002264E-9,359.99998450E-3,,,,,-273.60002264E-9,6.00000000,
,,,-273.20001550E-9,0.0,,,,,-273.20001550E-9,359.99998450E-3,,,,,-273.20001550E-9,6.00000000,
,,,-272.80000836E-9,0.0,,,,,-272.80000836E-9,319.99999285E-3,,,,,-272.80000836E-9,6.00000000,
,,,-272.40000122E-9,39.99999911E-3,,,,,-272.40000122E-9,359.99998450E-3,,,,,-272.40000122E-9,6.00000000,
,,,-272.00002251E-9,39.99999911E-3,,,,,-272.00002251E-9,359.99998450E-3,,,,,-272.00002251E-9,6.00000000,
,,,-271.60001537E-9,39.99999911E-3,,,,,-271.60001537E-9,399.99997616E-3,,,,,-271.60001537E-9,6.00000000,
,,,-271.20000823E-9,39.99999911E-3,,,,,-271.20000823E-9,439.999997616E-3,,,,,-271.20000823E-9,6.00000000,
,,,-270.80000109E-9,39.99999911E-3,,,,,-270.80000109E-9,439.999997616E-3,,,,,-270.80000109E-9,5.59999990,
,,,-270.40002237E-9,79.999998212E-3,,,,,-270.40002237E-9,479.999989271E-3,,,,,-270.40002237E-9,5.59999990,
,,,-270.00001523E-9,79.999998212E-3,,,,,-270.00001523E-9,439.999997616E-3,,,,,-270.00001523E-9,5.59999990,
,,,-269.60000810E-9,79.999998212E-3,,,,,-269.60000810E-9,439.999997616E-3,,,,,-269.60000810E-9,6.00000000,
,,,-269.20000096E-9,79.999998212E-3,,,,,-269.20000096E-9,439.999997616E-3,,,,,-269.20000096E-9,6.00000000,
,,,-268.80002224E-9,79.999998212E-3,,,,,-268.80002224E-9,439.999997616E-3,,,,,-268.80002224E-9,6.00000000,
,,,-268.40001510E-9,79.999998212E-3,,,,,-268.40001510E-9,439.999997616E-3,,,,,-268.40001510E-9,6.00000000,
,,,-268.00000796E-9,79.999998212E-3,,,,,-268.00000796E-9,399.99997616E-3,,,,,-268.00000796E-9,6.00000000,
,,,-267.60000083E-9,79.999998212E-3,,,,,-267.60000083E-9,399.99997616E-3,,,,,-267.60000083E-9,6.00000000,
,,,-267.20002211E-9,79.999998212E-3,,,,,-267.20002211E-9,399.99997616E-3,,,,,-267.20002211E-9,6.00000000,
,,,-266.80001497E-9,79.999998212E-3,,,,,-266.80001497E-9,399.99997616E-3,,,,,-266.80001497E-9,6.00000000,
,,,-266.40000783E-9,119.9999973E-3,,,,,-266.40000783E-9,399.99997616E-3,,,,,-266.40000783E-9,6.00000000,
,,,-266.00000069E-9,119.9999973E-3,,,,,-266.00000069E-9,359.99998450E-3,,,,,-266.00000069E-9,6.00000000,
,,,-265.60002198E-9,119.9999973E-3,,,,,-265.60002198E-9,359.99998450E-3,,,,,-265.60002198E-9,6.00000000,
,,,-265.20001484E-9,79.999998212E-3,,,,,-265.20001484E-9,359.99998450E-3,,,,,-265.20001484E-9,6.00000000,
,,,-264.80000770E-9,39.99999911E-3,,,,,-264.80000770E-9,359.99998450E-3,,,,,-264.80000770E-9,6.00000000,
,,,-264.40000056E-9,39.99999911E-3,,,,,-264.40000056E-9,399.99997616E-3,,,,,-264.40000056E-9,6.00000000,
,,,-264.00002184E-9,0.0,,,,,-264.00002184E-9,399.99997616E-3,,,,,-264.00002184E-9,6.00000000,
,,,-263.60001470E-9,39.99999911E-3,,,,,-263.60001470E-9,399.99997616E-3,,,,,-263.60001470E-9,6.00000000,
,,,-263.20000757E-9,39.99999911E-3,,,,,-263.20000757E-9,399.99997616E-3,,,,,-263.20000757E-9,6.00000000,
,,,-262.80000043E-9,39.99999911E-3,,,,,-262.80000043E-9,399.99997616E-3,,,,,-262.80000043E-9,6.40000010,
,,,-262.40002171E-9,39.99999911E-3,,,,,-262.40002171E-9,399.99997616E-3,,,,,-262.40002171E-9,6.40000010,
,,,-262.00001457E-9,39.99999911E-3,,,,,-262.00001457E-9,359.99998450E-3,,,,,-262.00001457E-9,6.40000010,
,,,-261.60000743E-9,39.99999911E-3,,,,,-261.60000743E-9,359.99998450E-3,,,,,-261.60000743E-9,6.40000010,
,,,-261.20000030E-9,39.99999911E-3,,,,,-261.20000030E-9,359.99998450E-3,,,,,-261.20000030E-9,6.40000010,
,,,-260.80002158E-9,39.99999911E-3,,,,,-260.80002158E-9,359.99998450E-3,,,,,-260.80002158E-9,6.80000019,
,,,-260.40001444E-9,79.999998212E-3,,,,,-260.40001444E-9,359.99998450E-3,,,,,-260.40001444E-9,6.80000019,
,,,-260.00000730E-9,79.999998212E-3,,,,,-260.00000730E-9,359.99998450E-3,,,,,-260.00000730E-9,6.80000019,
,,,-259.60000016E-9,79.999998212E-3,,,,,-259.60000016E-9,359.99998450E-3,,,,,-259.60000016E-9,6.80000019,
,,,-259.20002145E-9,79.999998212E-3,,,,,-259.20002145E-9,359.99998450E-3,,,,,-259.20002145E-9,6.80000019,
,,,-258.80001431E-9,79.999998212E-3,,,,,-258.80001431E-9,359.99998450E-3,,,,,-258.80001431E-9,6.80000019,
,,,-258.40000717E-9,79.999998212E-3,,,,,-258.40000717E-9,359.99998450E-3,,,,,-258.40000717E-9,6.80000019,
,,,-258.00000003E-9,39.99999911E-3,,,,,-258.00000003E-9,359.99998450E-3,,,,,-258.00000003E-9,6.80000019,
,,,-257.60002131E-9,39.99999911E-3,,,,,-257.60002131E-9,359.99998450E-3,,,,,-257.60002131E-9,6.80000019,
,,,-257.20001418E-9,0.0,,,,,-257.20001418E-9,399.99997616E-3,,,,,-257.20001418E-9,6.80000019,
,,,-256.80000704E-9,0.0,,,,,-256.80000704E-9,399.99997616E-3,,,,,-256.80000704E-9,6.80000019,
,,,-256.39999990E-9,39.99999911E-3,,,,,-256.39999990E-9,399.99997616E-3,,,,,-256.39999990E-9,6.80000019,
,,,-256.00002118E-9,39.99999911E-3,,,,,-256.00002118E-9,399.99997616E-3,,,,,-256.00002118E-9,6.80000019,
,,,-255.60001404E-9,79.999998212E-3,,,,,-255.60001404E-9,399.99997616E-3,,,,,-255.60001404E-9,6.80000019,
,,,-255.20000690E-9,119.9999973E-3,,,,,-255.20000690E-9,439.999997616E-3,,,,,-255.20000690E-9,6.80000019,
,,,-254.79999977E-9,79.999998212E-3,,,,,-254.79999977E-9,399.99997616E-3,,,,,-254.79999977E-9,6.80000019,
,,,-254.40002105E-9,79.999998212E-3,,,,,-254.40002105E-9,399.99997616E-3,,,,,-254.40002105E-9,6.80000019,
,,,-254.00001391E-9,39.99999911E-3,,,,,-254.00001391E-9,359.99998450E-3,,,,,-254.00001391E-9,7.20000029,
,,,-253.60000677E-9,39.99999911E-3,,,,,-253.60000677E-9,359.99998450E-3,,,,,-253.60000677E-9,7.20000029,
,,,-253.19999963E-9,39.99999911E-3,,,,,-253.19999963E-9,359.99998450E-3,,,,,-253.19999963E-9,7.20000029,
,,,-252.80002092E-9,39.99999911E-3,,,,,-252.80002092E-9,359.99998450E-3,,,,,-252.80002092E-9,7.20000029,
,,,-252.40001378E-9,39.99999911E-3,,,,,-252.40001378E-9,359.99998450E-3,,,,,-252.40001378E-9,7.20000029,
,,,-252.00000664E-9,0.0,,,,,-252.00000664E-9,359.99998450E-3,,,,,-252.00000664E-9,7.20000029,
,,,-251.59999950E-9,0.0,,,,,-251.59999950E-9,359.99998450E-3,,,,,-251.59999950E-9,7.20000029,
,,,-251.20002078E-9,0.0,,,,,-251.20002078E-9,359.99998450E-3,,,,,-251.20002078E-9,7.20000029,
,,,-250.80001365E-9,-39.99999911E-3,,,,,-250.80001365E-9,359.99998450E-3,,,,,-250.80001365E-9,7.20000029,
,,,-250.40000651E-9,0.0,,,,,-250.40000651E-9,359.99998450E-3,,,,,-250.40000651E-9,7.20000029,
,,,-249.99999937E-9,0.0,,,,,-249.99999937E-9,359.99998450E-3,,,,,-249.99999937E-9,7.20000029,
,,,-249.60002065E-9,0.0,,,,,-249.60002065E-9,359.99998450E-3,,,,,-249.60002065E-9,7.20000029,
,,,-249.20001351E-9,39.99999911E-3,,,,,-249.20001351E-9,399.99997616E-3,,,,,-249.20001351E-9,7.20000029,
,,,-248.80000637E-9,39.99999911E-3,,,,,-248.80000637E-9,399.99997616E-3,,,,,-248.80000637E-9,7.20000029,
,,,-248.39999924E-9,39.99999911E-3,,,,,-248.39999924E-9,399.99997616E-3,,,,,-248.39999924E-9,7.20000029,
,,,-248.00002052E-9,39.99999911E-3,,,,,-248.00002052E-9,399.99997616E-3,,,,,-248.00002052E-9,7.20000029,
,,,-247.60001338E-9,39.99999911E-3,,,,,-247.60001338E-9,399.99997616E-3,,,,,-247.60001338E-9,7.20000029,
,,,-247.20000624E-9,39.99999911E-3,,,,,-247.20000624E-9,359.99998450E-3,,,,,-247.20000624E-9,7.20000029,
,,,-246.79999910E-9,39.99999911E-3,,,,,-246.79999910E-9,359.99998450E-3,,,,,-246.79999910E-9,7.20000029,
,,,-246.40002039E-9,39.99999911E-3,,,,,-246.40002039E-9,359.99998450E-3,,,,,-246.40002039E-9,7.20000029,
,,,-246.00001325E-9,39.99999911E-3,,,,,-246.00001325E-9,319.99999285E-3,,,,,-246.00001325E-9,7.599999905,
,,,-245.60000611E-9,39.99999911E-3,,,,,-245.60000611E-9,319.99999285E-3,,,,,-245.60000611E-9,7.599999905,
,,,-245.19999897E-9,79.999998212E-3,,,,,-245.19999897E-9,319.99999285E-3,,,,,-245.19999897E-9,7.599999905,
,,,-244.80002025E-9,79.999998212E-3,,,,,-244.80002025E-9,319.99999285E-3,,,,,-244.80002025E-9,7.599999905,
,,,-244.40001312E-9,79.999998212E-3,,,,,-244.40001312E-9,359.99998450E-3,,,,,-244.40001312E-9,7.599999905,
,,,-244.00000598E-9,39.99999911E-3,,,,,-244.00000598E-9,359.99998450E-3,,,,,-244.00000598E-9,7.599999905,
,,,-243.59999884E-9,39.99999911E-3,,,,,-243.59999884E-9,359.99998450E-3,,,,,-243.59999884E-9,7.599999905,
,,,-243.20002012E-9,39.99999911E-3,,,,,-243.20002012E-9,399.99997616E-3,,,,,-243.20002012E-9,7.599999905,
,,,-242.80001298E-9,39.99999911E-3,,,,,-242.80001298E-9,399.99997616E-3,,,,,-242.80001298E-9,7.599999905,
,,,-242.40000585E-9,79.999998212E-3,,,,,-242.40000585E-9,399.99997616E-3,,,,,-242.40000585E-9,7.599999905,
,,,-241.99999871E-9,39.99999911E-3,,,,,-241.99999871E-9,359.99998450E-3,,,,,-241.99999871E-9,7.599999905,
,,,-241.60001999E-9,39.99999911E-3,,,,,-241.60001999E-9,359.99998450E-3,,,,,-241.60001999E-9,7.599999905,
,,,-241.20001285E-9,0.0,,,,,-241.20001285E-9,319.99999285E-3,,,,,-241.20001285E-9,7.599999905,
,,,-240.80000571E-9,0.0,,,,,-240.80000571E-9,319.99999285E-3,,,,,-240.80000571E-9,7.599999905,
,,,-240.39999857E-9,0.0,,,,,-240.39999857E-9,319.99999285E-3,,,,,-240.39999857E-9,8.000000000,
,,,-240.00001986E-9,0.0,,,,,-240.00001986E-9,280.00000119E-3,,,,,-240.00001986E-9,7.599999905,
,,,-239.60001272E-9,39.99999911E-3,,,,,-239.60001272E-9,319.99999285E-3,,,,,-239.60001272E-9,7.599999905,
,,,-239.20000558E-9,79.999998212E-3,,,,,-239.20000558E-9,319.99999285E-3,,,,,-239.20000558E-9,7.599999905,
,,,-238.79999844E-9,79.999998212E-3,,,,,-238.79999844E-9,319.99999285E-3,,,,,-238.79999844E-9,7.599999905,
,,,-238.40000551E-9,79.999998212E-3,,,,,-238.40000551E-9,359.99998450E-3,,,,,-238.40000551E-9,7.599999905,
,,,-238.00001259E-9,39.99999911E-3,,,,,-238.00001259E-9,359.99998450E-3,,,,,-238.00001259E-9,7.599999905,
,,,-237.60000545E-9,39.99999911E-3,,,,,-237.60000545E-9,359.99998450E-3,,,,,-237.60000545E-9,7.599999905,
,,,-237.20001252E-9,0.0,,,,,-237.20001252E-9,399.99997616E-3,,,,,-237.20001252E-9,7.599999905,
,,,-236.80000538E-9,0.0,,,,,-236.80000538E-9,399.99997616E-3,,,,,-236.80000538E-9,7.599999905,
,,,-236.40001245E-9,39.99999911E-3,,,,,-236.40001245E-9,399.99997616E-3,,,,,-236.40001245E-9,7.599999905,
,,,-236.00000532E-9,39.99999911E-3,,,,,-236.00000532E-9,399.99997616E-3,,,,,-236.00000532E-9,7.599999905,
,,,-235.60001239E-9,79.999998212E-3,,,,,-235.60001239E-9,399.99997616E-3,,,,,-235.60001239E-9,7.599999905,
,,,-235.20000525E-9,119.9999973E-3,,,,,-235.20000525E-9,399.99997616E-3,,,,,-235.20000525E-9,7.599999905,
,,,-234.80001232E-9,119.9999973E-3,,,,,-234.80001232E-9,399.99997616E-3,,,,,-234.80001232E-9,8.000000000,
,,,-234.40000518E-9,119.9999973E-3,,,,,-234.40000518E-9,439.999997616E-3,,,,,-234.40000518E-9,8.000000000,
,,,-234.00001226E-9,79.999998212E-3,,,,,-234.00001226E-9,439.999997616E-3,,,,,-234.00001226E-9,8.000000000,
,,,-233.60000512E-9,79.999998212E-3,,,,,-233.60000512E-9,439.999997616E-3,,,,,-233.60000512E-9,8.000000000,
,,,-233.20001219E-9,39.99999911E-3,,,,,-233.20001219E-9,399.99997616E-3,,,,,-233.20001219E-9,8.000000000,
,,,-232.80000505E-9,39.99999911E-3,,,,,-232.80000505E-9,399.99997616E-3,,,,,-232.80000505E-9,8.000000000,
,,,-232.40001212E-9,39.99999911E-3,,,,,-232.40001212E-9,399.99997616E-3,,,,,-232.40001212E-9,8.000000000,
,,,-232.00000498E-9,39.99999911E-3,,,,,-232.00000498E-9,399.99997616E-3,,,,,-232.00000498E-9,7.599999905,
,,,-231.60001206E-9,39.99999911E-3,,,,,-231.60001206E-9,399.99997616E-3,,,,,-231.60001206E-9,8.000000000,
,,,-231.20000492E-9,79.999998212E-3,,,,,-231.20000492E-9,359.99998450E-3,,,,,-231.20000492E-9,8.000000000,
,,,-230.80001199E-9,39.99999911E-3,,,,,-230.80001199E-9,359.99998450E-3,,,,,-230.80001199E-9,8.400000572,
,,,-230.40000485E-9,39.99999911E-3,,,,,-230.40000485E-9,359.99998450E-3,,,,,-230.40000485E-9,8.400000572,
,,,-230.00001192E-9,0.0,,,,,-230.00001192E-9,359.99998450E-3,,,,,-230.00001192E-9,8.000000000,
,,,-229.60000479E-9,0.0,,,,,-229.60000479E-9,359.99998450E-3,,,,,-229.60000479E-9,8.000000000,
,,,-229.20001186E-9,0.0,,,,,-229.20001186E-9,359.99998450E-3,,,,,-229.20001186E-9,8.000000000,
,,,-228.80000472E-9,0.0,,,,,-228.80000472E-9,359.99998450E-3,,,,,-228.80000472E-9,8.000000000,
,,,-228.40001179E-9,39.99999911E-3,,,,,-228.40001179E-9,359.99998450E-3,,,,,-228.40001179E-9,8.000000000,
,,,-228.00000465E-9,39.99999911E-3,,,,,-228.00000465E-9,359.99998450E-3,,,,,-228.00000465E-9,8.000000000,
,,,-227.60001173E-9,39.99999911E-3,,,,,-227.60001173E-9,359.99998450E-3,,,,,-227.60001173E-9,8.000000000,
,,,-227.20000459E-9,0.0,,,,,-227.20000459E-9,359.99998450E-3,,,,,-227.20000459E-9,7.599999905,
,,,-226.80001166E-9,0.0,,,,,-226.80001166E-9,359.99998450E-3,,,,,-226.80001166E-9,7.599999905,
,,,-226.40000452E-9,0.0,,,,,-226.40000452E-9,359.99998450E-3,,,,,-226.40000452E-9,7.599999905,
,,,-226.00001159E-9,0.0,,,,,-226.00001159E-9,359.99998450E-3,,,,,-226.00001159E-9,7.599999905,
,,,-225.60000446E-9,0.0,,,,,-225.60000446E-9,359.99998450E-3,,,,,-225.60000446E-9,7.599999905,
,,,-225.20001153E-9,39.99999911E-3,,,,,-225.20001153E-9,359.99998450E-3,,,,,-225.20001153E-9,7.599999905,
,,,-224.80000439E-9,39.99999911E-3,,,,,-224.80000439E-9,359.99998450E-3,,,,,-224.80000439E-9,8.000000000,
,,,-224.40001146E-9,39.99999911E-3,,,,,-224.40001146E-9,399.99997616E-3,,,,,-224.40001146E-9,8.000000000,
,,,-224.00000432E-9,39.99999911E-3,,,,,-224.00000432E-9,399.99997616E-3,,,,,-224.00000432E-9,8.000000000,
,,,-223.60001140E-9,39.99999911E-3,,,,,-223.60001140E-9,399.99997616E-3,,,,,-223.60001140E-9,8.000000000,
,,,-223.20000426E-9,39.99999911E-3,,,,,-223.20000426E-9,439.999997616E-3,,,,,-223.20000426E-9,8.000000000,
,,,-222.80001133E-9,39.99999911E-3,,,,,-222.80001133E-9,439.999997616E-3,,,,,-222.80001133E-9,8.000000000,
,,,-222.40000419E-9,39.99999911E-3,,,,,-222.40000419E-9,439.999997616E-3,,,,,-222.40000419E-9,8.000000000,
,,,-222.00001126E-9,39.99999911E-3,,,,,-222.00001126E-9,439.999997616E-3,,,,,-222.00001126E-9,8.000000000,
,,,-221.60000412E-9,39.99999911E-3,,,,,-221.60000412E-9,439.999997616E-3,,,,,-221.60000412E-9,7.599999905,
,,,-221.20001120E-9,79.999998212E-3,,,,,-221.20001120E-9,439.999997616E-3,,,,,-221.20001120E-9,7.599999905,
,,,-220.80000406E-9,39.99999911E-3,,,,,-220.80000406E-9,439.999997616E-3,,,,,-220.80000406E-9,7.599999905,
,,,-220.40001113E-9,39.99999911E-3,,,,,-220.40001113E-9,479.999989271E-3,,,,,-220.40001113E-9,7.599999905,
,,,-220.00000399E-9,0.0,,,,,-220.00000399E-9,439.999997616E-3,,,,,-220.00000399E-9,7.599999905,
,,,-219.60001106E-9,0.0,,,,,-219.60001106E-9,439.999997616E-3,,,,,-219.60001106E-9,7.599999905,
,,,-219.20000393E-9,0.0,,,,,-219.20000393E-9,399.99997616E-3,,,,,-219.20000393E-9,7.599999905,
,,,-218.80001100E-9,0.0,,,,,-218.80001100E-9,399.99997616E-3,,,,,-218.80001100E-9,7.599999905,
,,,-218.40000386E-9,39.99999911E-3,,,,,-218.40000386E-9,399.99997616E-3,,,,,-218.40000386E-9,7.599999905,
